INFO  21:08:41,640 - Compiling source file: C:\Users\popov\Desktop\Programski prevodioci\pp1_projekat\test\program.mj
INFO  21:08:41,750 - #2 program
INFO  21:08:41,750 - #8 MJ
INFO  21:08:41,750 - #3 class
INFO  21:08:41,750 - #8 A
INFO  21:08:41,750 - #16 {
INFO  21:08:41,750 - #16 {
INFO  21:08:41,750 - #5 void
INFO  21:08:41,750 - #8 m
INFO  21:08:41,765 - #18 (
INFO  21:08:41,765 - #8 char
INFO  21:08:41,765 - #8 c
INFO  21:08:41,765 - #19 )
INFO  21:08:41,765 - #16 {
INFO  21:08:41,765 - #17 }
INFO  21:08:41,765 - #17 }
INFO  21:08:41,765 - #17 }
INFO  21:08:41,765 - #3 class
INFO  21:08:41,765 - #8 B
INFO  21:08:41,765 - #4 extends
INFO  21:08:41,765 - #8 A
INFO  21:08:41,765 - #16 {
INFO  21:08:41,765 - #16 {
INFO  21:08:41,781 - #5 void
INFO  21:08:41,781 - #8 m
INFO  21:08:41,781 - #18 (
INFO  21:08:41,781 - #8 int
INFO  21:08:41,781 - #8 a
INFO  21:08:41,781 - #19 )
INFO  21:08:41,781 - #16 {
INFO  21:08:41,781 - #17 }
INFO  21:08:41,781 - #17 }
INFO  21:08:41,781 - #17 }
INFO  21:08:41,781 - #16 {
INFO  21:08:41,781 - #5 void
INFO  21:08:41,781 - #8 main
INFO  21:08:41,781 - #18 (
INFO  21:08:41,781 - #19 )
INFO  21:08:41,781 - #16 {
INFO  21:08:41,781 - #17 }
INFO  21:08:41,781 - #17 }
INFO  21:08:41,797 - Program(
  ProgName(
   MJ
  ) [ProgName]
  Declarations(
    Declarations(
      NoDeclarations(
      ) [NoDeclarations]
      ClassDeclaration(
        ClassDecl(
          ClassName(
           A
          ) [ClassName]
          NoExtends(
          ) [NoExtends]
          NoFieldDecls(
          ) [NoFieldDecls]
          ClassMethodDecls(
            MethodDeclarations(
              NoMethodDeclarations(
              ) [NoMethodDeclarations]
              MethodDecl(
                MethodTypeName(
                  MethodTypeVoid(
                  ) [MethodTypeVoid]
                 m
                ) [MethodTypeName]
                FormParams(
                  SingleFormParam(
                    FormParam(
                      Type(
                       char
                      ) [Type]
                     c
                      Scalar(
                      ) [Scalar]
                    ) [FormParam]
                  ) [SingleFormParam]
                ) [FormParams]
                NoMethodVars(
                ) [NoMethodVars]
                NoStatements(
                ) [NoStatements]
              ) [MethodDecl]
            ) [MethodDeclarations]
          ) [ClassMethodDecls]
        ) [ClassDecl]
      ) [ClassDeclaration]
    ) [Declarations]
    ClassDeclaration(
      ClassDecl(
        ClassName(
         B
        ) [ClassName]
        Extends(
          Type(
           A
          ) [Type]
        ) [Extends]
        NoFieldDecls(
        ) [NoFieldDecls]
        ClassMethodDecls(
          MethodDeclarations(
            NoMethodDeclarations(
            ) [NoMethodDeclarations]
            MethodDecl(
              MethodTypeName(
                MethodTypeVoid(
                ) [MethodTypeVoid]
               m
              ) [MethodTypeName]
              FormParams(
                SingleFormParam(
                  FormParam(
                    Type(
                     int
                    ) [Type]
                   a
                    Scalar(
                    ) [Scalar]
                  ) [FormParam]
                ) [SingleFormParam]
              ) [FormParams]
              NoMethodVars(
              ) [NoMethodVars]
              NoStatements(
              ) [NoStatements]
            ) [MethodDecl]
          ) [MethodDeclarations]
        ) [ClassMethodDecls]
      ) [ClassDecl]
    ) [ClassDeclaration]
  ) [Declarations]
  MethodDeclarations(
    NoMethodDeclarations(
    ) [NoMethodDeclarations]
    MethodDecl(
      MethodTypeName(
        MethodTypeVoid(
        ) [MethodTypeVoid]
       main
      ) [MethodTypeName]
      NoFormParams(
      ) [NoFormParams]
      NoMethodVars(
      ) [NoMethodVars]
      NoStatements(
      ) [NoStatements]
    ) [MethodDecl]
  ) [MethodDeclarations]
) [Program]
INFO  21:08:41,797 - ===================================
INFO  21:08:41,813 - Obradjuje se funkcija m na liniji 4
INFO  21:08:41,813 - Obradjuje se funkcija m na liniji 11
