INFO  22:24:48,323 - Compiling source file: C:\Users\popov\Desktop\Programski prevodioci\pp1_projekat\test\program.mj
INFO  22:24:48,416 - #2 program
INFO  22:24:48,416 - #8 MJ
INFO  22:24:48,416 - #3 class
INFO  22:24:48,416 - #8 B
INFO  22:24:48,416 - #16 {
INFO  22:24:48,416 - #17 }
INFO  22:24:48,416 - #3 class
INFO  22:24:48,416 - #8 A
INFO  22:24:48,416 - #4 extends
INFO  22:24:48,416 - #8 B
INFO  22:24:48,416 - #42 +
ERROR 22:24:48,432 - 
Sintaksna greska na liniji 3
INFO  22:24:48,432 - #9 2
INFO  22:24:48,432 - #16 {
INFO  22:24:48,432 - #8 int
INFO  22:24:48,432 - #8 a
INFO  22:24:48,432 - #13 ,
ERROR 22:24:48,432 - Sintaksna greska na liniji 3 pri deklaraciji prosirenja klase.
INFO  22:24:48,432 - #8 b
INFO  22:24:48,442 - #12 ;
INFO  22:24:48,442 - #16 {
INFO  22:24:48,442 - #5 void
INFO  22:24:48,442 - #8 m
INFO  22:24:48,442 - #18 (
INFO  22:24:48,442 - #19 )
INFO  22:24:48,442 - #16 {
INFO  22:24:48,442 - #17 }
INFO  22:24:48,442 - #17 }
INFO  22:24:48,442 - #17 }
INFO  22:24:48,442 - #16 {
INFO  22:24:48,442 - #5 void
INFO  22:24:48,442 - #8 f
INFO  22:24:48,442 - #18 (
INFO  22:24:48,442 - #8 int
INFO  22:24:48,442 - #8 c
INFO  22:24:48,442 - #13 ,
INFO  22:24:48,442 - #8 char
INFO  22:24:48,442 - #8 d
INFO  22:24:48,442 - #19 )
INFO  22:24:48,442 - #16 {
INFO  22:24:48,442 - #17 }
INFO  22:24:48,442 - #5 void
INFO  22:24:48,442 - #8 main
INFO  22:24:48,442 - #18 (
INFO  22:24:48,442 - #19 )
INFO  22:24:48,442 - #16 {
INFO  22:24:48,442 - #17 }
INFO  22:24:48,442 - #17 }
INFO  22:24:48,457 - Program(
  ProgName(
   MJ
  ) [ProgName]
  Declarations(
    Declarations(
      NoDeclarations(
      ) [NoDeclarations]
      ClassDeclaration(
        ClassDecl(
          ClassName(
           B
          ) [ClassName]
          NoExtends(
          ) [NoExtends]
          NoFieldDecls(
          ) [NoFieldDecls]
          NoClassMethods(
          ) [NoClassMethods]
        ) [ClassDecl]
      ) [ClassDeclaration]
    ) [Declarations]
    ClassDeclaration(
      ClassDecl(
        ClassName(
         A
        ) [ClassName]
        ExtendsError(
        ) [ExtendsError]
        FieldDecls(
          NoFieldDecls(
          ) [NoFieldDecls]
          VarDecls(
            Type(
             int
            ) [Type]
            VarVars(
              SingleVar(
                Var1(
                 a
                  Scalar(
                  ) [Scalar]
                ) [Var1]
              ) [SingleVar]
              Var1(
               b
                Scalar(
                ) [Scalar]
              ) [Var1]
            ) [VarVars]
          ) [VarDecls]
        ) [FieldDecls]
        ClassMethodDecls(
          MethodDeclarations(
            NoMethodDeclarations(
            ) [NoMethodDeclarations]
            MethodDecl(
              MethodTypeName(
                MethodTypeVoid(
                ) [MethodTypeVoid]
               m
              ) [MethodTypeName]
              NoFormParams(
              ) [NoFormParams]
              NoMethodVars(
              ) [NoMethodVars]
              NoStatements(
              ) [NoStatements]
            ) [MethodDecl]
          ) [MethodDeclarations]
        ) [ClassMethodDecls]
      ) [ClassDecl]
    ) [ClassDeclaration]
  ) [Declarations]
  MethodDeclarations(
    MethodDeclarations(
      NoMethodDeclarations(
      ) [NoMethodDeclarations]
      MethodDecl(
        MethodTypeName(
          MethodTypeVoid(
          ) [MethodTypeVoid]
         f
        ) [MethodTypeName]
        FormParams(
          FormParamDecls(
            SingleFormParam(
              FormParam1(
                Type(
                 int
                ) [Type]
               c
                Scalar(
                ) [Scalar]
              ) [FormParam1]
            ) [SingleFormParam]
            FormParam1(
              Type(
               char
              ) [Type]
             d
              Scalar(
              ) [Scalar]
            ) [FormParam1]
          ) [FormParamDecls]
        ) [FormParams]
        NoMethodVars(
        ) [NoMethodVars]
        NoStatements(
        ) [NoStatements]
      ) [MethodDecl]
    ) [MethodDeclarations]
    MethodDecl(
      MethodTypeName(
        MethodTypeVoid(
        ) [MethodTypeVoid]
       main
      ) [MethodTypeName]
      NoFormParams(
      ) [NoFormParams]
      NoMethodVars(
      ) [NoMethodVars]
      NoStatements(
      ) [NoStatements]
    ) [MethodDecl]
  ) [MethodDeclarations]
) [Program]
INFO  22:24:48,457 - ===================================
INFO  22:24:48,457 - Obradjuje se funkcija m na liniji 6
INFO  22:24:48,457 - Obradjuje se funkcija f na liniji 12
INFO  22:24:48,457 - Obradjuje se funkcija main na liniji 15
INFO  22:24:48,457 -  Print count calls = 0
INFO  22:24:48,457 -  Deklarisanih promenljivih ima = 0
INFO  22:24:48,457 - ===================================
ERROR 22:24:48,457 - Parsiranje NIJE uspesno zavrseno!
