INFO  22:16:03,052 - Compiling source file: C:\Users\popov\Desktop\Programski prevodioci\pp1_projekat\test\program.mj
INFO  22:16:03,146 - #2 program
INFO  22:16:03,146 - #8 MJ
INFO  22:16:03,146 - #3 class
INFO  22:16:03,146 - #8 A
INFO  22:16:03,146 - #16 {
INFO  22:16:03,146 - #8 int
INFO  22:16:03,146 - #8 a
INFO  22:16:03,146 - #13 ,
INFO  22:16:03,146 - #8 b
INFO  22:16:03,146 - #16 {
ERROR 22:16:03,146 - 
Sintaksna greska na liniji 4
INFO  22:16:03,146 - #5 void
INFO  22:16:03,146 - #8 m
INFO  22:16:03,146 - #18 (
INFO  22:16:03,146 - #19 )
INFO  22:16:03,146 - #16 {
INFO  22:16:03,146 - #17 }
INFO  22:16:03,146 - #17 }
INFO  22:16:03,146 - #17 }
INFO  22:16:03,146 - #16 {
INFO  22:16:03,146 - #5 void
INFO  22:16:03,162 - #8 f
INFO  22:16:03,162 - #18 (
INFO  22:16:03,162 - #8 int
INFO  22:16:03,162 - #8 c
INFO  22:16:03,162 - #13 ,
INFO  22:16:03,162 - #8 char
INFO  22:16:03,162 - #8 d
INFO  22:16:03,162 - #19 )
INFO  22:16:03,162 - #16 {
INFO  22:16:03,162 - #17 }
INFO  22:16:03,162 - #5 void
INFO  22:16:03,162 - #8 main
INFO  22:16:03,162 - #18 (
INFO  22:16:03,162 - #19 )
INFO  22:16:03,162 - #16 {
INFO  22:16:03,162 - #17 }
INFO  22:16:03,162 - #17 }
ERROR 22:16:03,162 - Fatalna greska, parsiranje se ne moze nastaviti na liniji 17
