INFO  09:35:46,362 - #2 program
INFO  09:35:46,362 - #8 MJ
INFO  09:35:46,362 - #8 int
INFO  09:35:46,362 - #8 a
INFO  09:35:46,362 - #13 ,
INFO  09:35:46,362 - #8 b
INFO  09:35:46,362 - #12 ;
INFO  09:35:46,362 - #8 int
INFO  09:35:46,362 - #8 a1
INFO  09:35:46,362 - #42 +
INFO  09:35:46,362 - #9 2
INFO  09:35:46,362 - #12 ;
INFO  09:35:46,362 - #8 int
INFO  09:35:46,362 - #8 b2
INFO  09:35:46,362 - #47 ++
ERROR 09:35:46,378 - Sintaksna greska na liniji 3 pri deklaraciji promenljive.
INFO  09:35:46,378 - #12 ;
INFO  09:35:46,378 - #16 {
INFO  09:35:46,378 - #5 void
INFO  09:35:46,378 - #8 main
ERROR 09:35:46,378 - Sintaksna greska na liniji 4 pri deklaraciji promenljive.
INFO  09:35:46,378 - #18 (
INFO  09:35:46,384 - #19 )
INFO  09:35:46,384 - #16 {
INFO  09:35:46,384 - #17 }
INFO  09:35:46,384 - #17 }
INFO  09:35:46,400 - Obradjuje se funkcija main na liniji 6
ERROR 09:35:46,400 - [Line #0 ]  SYNTAX_ERROR: Sintaksna greska na liniji 3 pri deklaraciji promenljive.
ERROR 09:35:46,400 - [Line #0 ]  SYNTAX_ERROR: Sintaksna greska na liniji 4 pri deklaraciji promenljive.
