INFO  17:29:46,699 - Compiling source file: C:\Users\popov\Desktop\Programski prevodioci\pp1_projekat\test\program.mj
INFO  17:29:46,793 - #2 program
INFO  17:29:46,793 - #8 test_303
INFO  17:29:46,793 - #16 {
INFO  17:29:46,793 - #5 void
INFO  17:29:46,793 - #8 main
INFO  17:29:46,793 - #18 (
INFO  17:29:46,793 - #19 )
INFO  17:29:46,793 - #8 int
INFO  17:29:46,809 - #8 a
INFO  17:29:46,809 - #12 ;
INFO  17:29:46,809 - #8 char
INFO  17:29:46,809 - #8 c1
INFO  17:29:46,809 - #13 ,
INFO  17:29:46,809 - #8 c2
INFO  17:29:46,809 - #12 ;
INFO  17:29:46,809 - #16 {
INFO  17:29:46,809 - #8 a
INFO  17:29:46,809 - #34 =
INFO  17:29:46,809 - #8 c1
INFO  17:29:46,809 - #44 *
INFO  17:29:46,809 - #8 c2
INFO  17:29:46,825 - #12 ;
INFO  17:29:46,827 - #30 continue
INFO  17:29:46,827 - #12 ;
INFO  17:29:46,827 - #17 }
INFO  17:29:46,827 - #17 }
INFO  17:29:46,827 - Program(
  ProgName(
   test_303
  ) [ProgName]
  NoDeclarations(
  ) [NoDeclarations]
  MethodDeclarations(
    NoMethodDeclarations(
    ) [NoMethodDeclarations]
    MethodDecl(
      MethodTypeName(
        MethodTypeVoid(
        ) [MethodTypeVoid]
       main
      ) [MethodTypeName]
      NoFormParams(
      ) [NoFormParams]
      MethodVars(
        MethodVars(
          NoMethodVars(
          ) [NoMethodVars]
          VarDecls(
            Type(
             int
            ) [Type]
            SingleVar(
              Var(
               a
                Scalar(
                ) [Scalar]
              ) [Var]
            ) [SingleVar]
          ) [VarDecls]
        ) [MethodVars]
        VarDecls(
          Type(
           char
          ) [Type]
          VarVars(
            SingleVar(
              Var(
               c1
                Scalar(
                ) [Scalar]
              ) [Var]
            ) [SingleVar]
            Var(
             c2
              Scalar(
              ) [Scalar]
            ) [Var]
          ) [VarVars]
        ) [VarDecls]
      ) [MethodVars]
      StatementListImpl(
        StatementListImpl(
          NoStatements(
          ) [NoStatements]
          StatementDerived1(
            DesignatorStatement(
              SingleDesignator(
                DesignatorFirst(
                 a
                ) [DesignatorFirst]
                NoDesignatorValArray(
                ) [NoDesignatorValArray]
              ) [SingleDesignator]
              AssignOperation(
                Assignop(
                ) [Assignop]
                ExprImpl(
                  ExprSum(
                    TermImpl(
                      NoMinusBegin(
                      ) [NoMinusBegin]
                      MulTerm(
                        FactorTerm(
                          FactorDesignator(
                            SingleDesignator(
                              DesignatorFirst(
                               c1
                              ) [DesignatorFirst]
                              NoDesignatorValArray(
                              ) [NoDesignatorValArray]
                            ) [SingleDesignator]
                            NoActParsInBrackets(
                            ) [NoActParsInBrackets]
                          ) [FactorDesignator]
                        ) [FactorTerm]
                        Mul(
                        ) [Mul]
                        FactorDesignator(
                          SingleDesignator(
                            DesignatorFirst(
                             c2
                            ) [DesignatorFirst]
                            NoDesignatorValArray(
                            ) [NoDesignatorValArray]
                          ) [SingleDesignator]
                          NoActParsInBrackets(
                          ) [NoActParsInBrackets]
                        ) [FactorDesignator]
                      ) [MulTerm]
                    ) [TermImpl]
                  ) [ExprSum]
                ) [ExprImpl]
              ) [AssignOperation]
            ) [DesignatorStatement]
          ) [StatementDerived1]
        ) [StatementListImpl]
        StatementDerived7(
          ContinueStatement(
          ) [ContinueStatement]
        ) [StatementDerived7]
      ) [StatementListImpl]
    ) [MethodDecl]
  ) [MethodDeclarations]
) [Program]
INFO  17:29:46,827 - ===================================
INFO  17:29:46,843 - Obradjuje se funkcija main na liniji 8
ERROR 17:29:46,843 - Semanticka greska  na liniji 10: nekompatibilni tipovi u izrazu za mnozenje ili nisu tipa int.
ERROR 17:29:46,843 - Semanticka greska  na liniji 10: nekompatibilni tipovi u dodeli vrednosti. 
ERROR 17:29:46,843 - Semanticka greska : Continue se moze naci samo unutar do-while petlje.
INFO  17:29:46,843 -  Print count calls = 0
INFO  17:29:46,843 -  Deklarisanih promenljivih ima = 0
INFO  17:29:46,843 - ===================================
ERROR 17:29:46,843 - Parsiranje NIJE uspesno zavrseno!
