INFO  17:07:11,867 - Compiling source file: C:\Users\popov\Desktop\Programski prevodioci\pp1_projekat\test\program.mj
INFO  17:07:12,054 - #2 program
INFO  17:07:12,054 - #8 MJ
INFO  17:07:12,054 - #16 {
INFO  17:07:12,070 - #8 int
INFO  17:07:12,070 - #8 f
INFO  17:07:12,070 - #18 (
INFO  17:07:12,070 - #19 )
INFO  17:07:12,070 - #16 {
INFO  17:07:12,070 - #31 return
INFO  17:07:12,086 - #9 5
INFO  17:07:12,086 - #12 ;
INFO  17:07:12,086 - #17 }
INFO  17:07:12,086 - #5 void
INFO  17:07:12,086 - #8 main
INFO  17:07:12,086 - #18 (
INFO  17:07:12,086 - #19 )
INFO  17:07:12,086 - #8 int
INFO  17:07:12,086 - #8 a
INFO  17:07:12,086 - #12 ;
INFO  17:07:12,101 - #8 bool
INFO  17:07:12,101 - #8 b
INFO  17:07:12,101 - #12 ;
INFO  17:07:12,111 - #8 char
INFO  17:07:12,111 - #8 c
INFO  17:07:12,111 - #12 ;
INFO  17:07:12,111 - #16 {
INFO  17:07:12,111 - #8 a
INFO  17:07:12,111 - #47 ++
INFO  17:07:12,111 - #12 ;
INFO  17:07:12,111 - #8 b
INFO  17:07:12,111 - #47 ++
INFO  17:07:12,111 - #12 ;
INFO  17:07:12,111 - #8 ord
INFO  17:07:12,111 - #18 (
INFO  17:07:12,111 - #8 c
INFO  17:07:12,111 - #19 )
INFO  17:07:12,127 - #47 ++
ERROR 17:07:12,127 - 
Sintaksna greska na liniji 9
ERROR 17:07:12,127 - Fatalna greska, parsiranje se ne moze nastaviti na liniji 9
