INFO  10:47:37,626 - #2 program
INFO  10:47:37,626 - #8 MJ
INFO  10:47:37,626 - #3 class
INFO  10:47:37,626 - #8 A
INFO  10:47:37,626 - #16 {
INFO  10:47:37,626 - #8 int
INFO  10:47:37,626 - #8 a
INFO  10:47:37,626 - #12 ;
INFO  10:47:37,641 - #16 {
INFO  10:47:37,641 - #5 void
INFO  10:47:37,641 - #8 m
INFO  10:47:37,641 - #18 (
INFO  10:47:37,641 - #19 )
INFO  10:47:37,641 - #16 {
INFO  10:47:37,641 - #33 print
INFO  10:47:37,641 - #18 (
INFO  10:47:37,641 - #8 this
INFO  10:47:37,641 - #15 .
INFO  10:47:37,641 - #8 a
INFO  10:47:37,641 - #19 )
INFO  10:47:37,657 - #12 ;
INFO  10:47:37,657 - #17 }
INFO  10:47:37,657 - #17 }
INFO  10:47:37,657 - #17 }
INFO  10:47:37,657 - #16 {
INFO  10:47:37,657 - #5 void
INFO  10:47:37,666 - #8 f1
INFO  10:47:37,666 - #18 (
INFO  10:47:37,666 - #8 int
INFO  10:47:37,666 - #8 a
INFO  10:47:37,666 - #13 ,
INFO  10:47:37,666 - #8 int
INFO  10:47:37,666 - #8 arr
INFO  10:47:37,666 - #20 [
INFO  10:47:37,666 - #21 ]
INFO  10:47:37,666 - #13 ,
INFO  10:47:37,666 - #8 bool
INFO  10:47:37,666 - #8 b
INFO  10:47:37,666 - #19 )
INFO  10:47:37,666 - #16 {
INFO  10:47:37,666 - #17 }
INFO  10:47:37,666 - #5 void
INFO  10:47:37,666 - #8 f2
INFO  10:47:37,666 - #18 (
INFO  10:47:37,666 - #19 )
INFO  10:47:37,666 - #16 {
INFO  10:47:37,666 - #31 return
INFO  10:47:37,666 - #12 ;
INFO  10:47:37,666 - #17 }
INFO  10:47:37,666 - #5 void
INFO  10:47:37,666 - #8 f3
INFO  10:47:37,666 - #18 (
INFO  10:47:37,666 - #19 )
INFO  10:47:37,666 - #16 {
INFO  10:47:37,666 - #31 return
INFO  10:47:37,666 - #9 5
INFO  10:47:37,666 - #12 ;
INFO  10:47:37,666 - #17 }
INFO  10:47:37,666 - #8 int
INFO  10:47:37,666 - #8 f4
INFO  10:47:37,666 - #18 (
INFO  10:47:37,666 - #19 )
INFO  10:47:37,666 - #16 {
INFO  10:47:37,666 - #31 return
INFO  10:47:37,666 - #9 2
INFO  10:47:37,666 - #12 ;
INFO  10:47:37,666 - #17 }
INFO  10:47:37,666 - #8 int
INFO  10:47:37,666 - #8 f5
INFO  10:47:37,666 - #18 (
INFO  10:47:37,666 - #19 )
INFO  10:47:37,666 - #16 {
INFO  10:47:37,666 - #31 return
INFO  10:47:37,666 - #12 ;
INFO  10:47:37,666 - #17 }
INFO  10:47:37,666 - #8 int
INFO  10:47:37,666 - #8 f6
INFO  10:47:37,666 - #18 (
INFO  10:47:37,666 - #19 )
INFO  10:47:37,666 - #16 {
INFO  10:47:37,666 - #31 return
INFO  10:47:37,666 - #10 c
INFO  10:47:37,666 - #12 ;
INFO  10:47:37,666 - #17 }
INFO  10:47:37,666 - #5 void
INFO  10:47:37,666 - #8 m
INFO  10:47:37,666 - #18 (
INFO  10:47:37,666 - #19 )
INFO  10:47:37,666 - #8 A
INFO  10:47:37,666 - #8 obj
INFO  10:47:37,666 - #12 ;
INFO  10:47:37,666 - #16 {
INFO  10:47:37,666 - #8 obj
INFO  10:47:37,666 - #34 =
INFO  10:47:37,666 - #8 this
INFO  10:47:37,666 - #12 ;
INFO  10:47:37,666 - #17 }
INFO  10:47:37,666 - #5 void
INFO  10:47:37,666 - #8 fun
INFO  10:47:37,666 - #18 (
INFO  10:47:37,666 - #19 )
INFO  10:47:37,666 - #8 A
INFO  10:47:37,666 - #8 obj
INFO  10:47:37,666 - #12 ;
INFO  10:47:37,666 - #8 int
INFO  10:47:37,666 - #8 a
INFO  10:47:37,666 - #13 ,
INFO  10:47:37,666 - #8 a1
INFO  10:47:37,666 - #13 ,
INFO  10:47:37,666 - #8 arr
INFO  10:47:37,666 - #20 [
INFO  10:47:37,666 - #21 ]
INFO  10:47:37,666 - #13 ,
INFO  10:47:37,666 - #8 arr1
INFO  10:47:37,666 - #20 [
INFO  10:47:37,666 - #21 ]
INFO  10:47:37,666 - #12 ;
INFO  10:47:37,666 - #8 bool
INFO  10:47:37,666 - #8 b
INFO  10:47:37,666 - #13 ,
INFO  10:47:37,666 - #8 b1
INFO  10:47:37,666 - #12 ;
INFO  10:47:37,666 - #16 {
INFO  10:47:37,666 - #8 obj
INFO  10:47:37,666 - #15 .
INFO  10:47:37,666 - #8 m
INFO  10:47:37,666 - #18 (
INFO  10:47:37,666 - #19 )
INFO  10:47:37,666 - #12 ;
INFO  10:47:37,666 - #8 m
INFO  10:47:37,666 - #18 (
INFO  10:47:37,666 - #19 )
INFO  10:47:37,666 - #12 ;
INFO  10:47:37,666 - #8 a
INFO  10:47:37,666 - #18 (
INFO  10:47:37,666 - #19 )
INFO  10:47:37,666 - #12 ;
INFO  10:47:37,666 - #24 do
INFO  10:47:37,666 - #16 {
INFO  10:47:37,666 - #22 if
INFO  10:47:37,666 - #18 (
INFO  10:47:37,682 - #8 b
INFO  10:47:37,682 - #19 )
INFO  10:47:37,682 - #16 {
INFO  10:47:37,682 - #29 break
INFO  10:47:37,682 - #12 ;
INFO  10:47:37,682 - #17 }
INFO  10:47:37,682 - #22 if
INFO  10:47:37,682 - #18 (
INFO  10:47:37,682 - #8 a
INFO  10:47:37,682 - #19 )
INFO  10:47:37,682 - #16 {
INFO  10:47:37,682 - #30 continue
INFO  10:47:37,682 - #12 ;
INFO  10:47:37,682 - #17 }
INFO  10:47:37,682 - #8 a
INFO  10:47:37,682 - #47 ++
INFO  10:47:37,682 - #12 ;
INFO  10:47:37,682 - #17 }
INFO  10:47:37,682 - #25 while
INFO  10:47:37,682 - #18 (
INFO  10:47:37,682 - #8 a
INFO  10:47:37,682 - #41 <
INFO  10:47:37,682 - #9 5
INFO  10:47:37,682 - #19 )
INFO  10:47:37,682 - #12 ;
INFO  10:47:37,682 - #29 break
INFO  10:47:37,682 - #12 ;
INFO  10:47:37,682 - #30 continue
INFO  10:47:37,682 - #12 ;
INFO  10:47:37,682 - #26 switch
INFO  10:47:37,682 - #18 (
INFO  10:47:37,682 - #8 a
INFO  10:47:37,682 - #19 )
INFO  10:47:37,682 - #16 {
INFO  10:47:37,682 - #27 case
INFO  10:47:37,697 - #9 0
INFO  10:47:37,697 - #14 :
INFO  10:47:37,697 - #30 continue
INFO  10:47:37,697 - #12 ;
INFO  10:47:37,697 - #27 case
INFO  10:47:37,697 - #9 1
INFO  10:47:37,697 - #14 :
INFO  10:47:37,697 - #29 break
INFO  10:47:37,697 - #12 ;
INFO  10:47:37,697 - #27 case
INFO  10:47:37,697 - #9 2
INFO  10:47:37,697 - #14 :
INFO  10:47:37,697 - #17 }
INFO  10:47:37,697 - #24 do
INFO  10:47:37,697 - #16 {
INFO  10:47:37,697 - #26 switch
INFO  10:47:37,697 - #18 (
INFO  10:47:37,697 - #8 b
INFO  10:47:37,697 - #19 )
INFO  10:47:37,697 - #16 {
INFO  10:47:37,697 - #27 case
INFO  10:47:37,697 - #9 0
INFO  10:47:37,697 - #14 :
INFO  10:47:37,697 - #30 continue
INFO  10:47:37,697 - #12 ;
INFO  10:47:37,697 - #27 case
INFO  10:47:37,697 - #9 1
INFO  10:47:37,697 - #14 :
INFO  10:47:37,697 - #27 case
INFO  10:47:37,697 - #9 0
INFO  10:47:37,697 - #14 :
INFO  10:47:37,697 - #17 }
INFO  10:47:37,697 - #17 }
INFO  10:47:37,697 - #25 while
INFO  10:47:37,697 - #18 (
INFO  10:47:37,697 - #8 a
INFO  10:47:37,697 - #41 <
INFO  10:47:37,697 - #9 5
INFO  10:47:37,697 - #19 )
INFO  10:47:37,697 - #12 ;
INFO  10:47:37,697 - #8 f1
INFO  10:47:37,697 - #18 (
INFO  10:47:37,697 - #8 a
INFO  10:47:37,697 - #13 ,
INFO  10:47:37,697 - #8 arr
INFO  10:47:37,697 - #13 ,
INFO  10:47:37,697 - #8 b
INFO  10:47:37,697 - #19 )
INFO  10:47:37,697 - #12 ;
INFO  10:47:37,697 - #8 f1
INFO  10:47:37,697 - #18 (
INFO  10:47:37,697 - #8 arr
INFO  10:47:37,697 - #20 [
INFO  10:47:37,697 - #9 0
INFO  10:47:37,697 - #21 ]
INFO  10:47:37,697 - #13 ,
INFO  10:47:37,697 - #8 arr
INFO  10:47:37,697 - #13 ,
INFO  10:47:37,697 - #8 b
INFO  10:47:37,697 - #19 )
INFO  10:47:37,697 - #12 ;
INFO  10:47:37,697 - #8 f1
INFO  10:47:37,697 - #18 (
INFO  10:47:37,697 - #8 a
INFO  10:47:37,697 - #13 ,
INFO  10:47:37,697 - #8 a
INFO  10:47:37,697 - #13 ,
INFO  10:47:37,697 - #8 b
INFO  10:47:37,697 - #13 ,
INFO  10:47:37,697 - #8 b
INFO  10:47:37,697 - #19 )
INFO  10:47:37,697 - #12 ;
INFO  10:47:37,697 - #8 f1
INFO  10:47:37,697 - #18 (
INFO  10:47:37,697 - #8 a
INFO  10:47:37,697 - #13 ,
INFO  10:47:37,697 - #8 arr
INFO  10:47:37,697 - #13 ,
INFO  10:47:37,697 - #8 b
INFO  10:47:37,697 - #19 )
INFO  10:47:37,697 - #12 ;
INFO  10:47:37,697 - #8 f1
INFO  10:47:37,697 - #18 (
INFO  10:47:37,697 - #8 arr
INFO  10:47:37,697 - #13 ,
INFO  10:47:37,697 - #8 a
INFO  10:47:37,697 - #13 ,
INFO  10:47:37,697 - #8 b
INFO  10:47:37,697 - #19 )
INFO  10:47:37,697 - #12 ;
INFO  10:47:37,697 - #22 if
INFO  10:47:37,697 - #18 (
INFO  10:47:37,697 - #8 a
INFO  10:47:37,697 - #39 >
INFO  10:47:37,697 - #9 5
INFO  10:47:37,697 - #49 &&
INFO  10:47:37,697 - #8 a
INFO  10:47:37,713 - #41 <
INFO  10:47:37,713 - #9 10
INFO  10:47:37,713 - #50 ||
INFO  10:47:37,713 - #8 a
INFO  10:47:37,713 - #36 ==
INFO  10:47:37,713 - #9 2
INFO  10:47:37,713 - #19 )
INFO  10:47:37,713 - #16 {
INFO  10:47:37,713 - #17 }
INFO  10:47:37,713 - #22 if
INFO  10:47:37,713 - #18 (
INFO  10:47:37,713 - #8 a
INFO  10:47:37,713 - #39 >
INFO  10:47:37,713 - #8 b
INFO  10:47:37,713 - #19 )
INFO  10:47:37,713 - #16 {
INFO  10:47:37,713 - #17 }
INFO  10:47:37,713 - #22 if
INFO  10:47:37,713 - #18 (
INFO  10:47:37,713 - #8 arr
INFO  10:47:37,713 - #36 ==
INFO  10:47:37,713 - #8 arr1
INFO  10:47:37,713 - #50 ||
INFO  10:47:37,713 - #8 arr
INFO  10:47:37,713 - #37 !=
INFO  10:47:37,713 - #8 arr1
INFO  10:47:37,713 - #19 )
INFO  10:47:37,713 - #16 {
INFO  10:47:37,713 - #17 }
INFO  10:47:37,713 - #22 if
INFO  10:47:37,713 - #18 (
INFO  10:47:37,713 - #8 arr
INFO  10:47:37,713 - #39 >
INFO  10:47:37,713 - #8 arr1
INFO  10:47:37,713 - #19 )
INFO  10:47:37,713 - #16 {
INFO  10:47:37,713 - #17 }
INFO  10:47:37,713 - #8 a
INFO  10:47:37,713 - #34 =
INFO  10:47:37,713 - #8 a1
INFO  10:47:37,713 - #12 ;
INFO  10:47:37,713 - #8 b
INFO  10:47:37,713 - #34 =
INFO  10:47:37,713 - #8 b1
INFO  10:47:37,713 - #12 ;
INFO  10:47:37,713 - #8 a
INFO  10:47:37,713 - #34 =
INFO  10:47:37,713 - #43 -
INFO  10:47:37,713 - #8 a1
INFO  10:47:37,713 - #12 ;
INFO  10:47:37,713 - #8 b
INFO  10:47:37,713 - #34 =
INFO  10:47:37,713 - #43 -
INFO  10:47:37,713 - #8 b1
INFO  10:47:37,713 - #12 ;
INFO  10:47:37,713 - #17 }
INFO  10:47:37,713 - #17 }
INFO  10:47:37,729 - Obradjuje se funkcija m na liniji 5
INFO  10:47:37,729 - Detektovan simbol - ime: this, vrsta: promenjiva, tip: class na liniji 6
INFO  10:47:37,729 - Detektovan simbol - ime: a, vrsta: polje klase, tip: int na liniji 6
INFO  10:47:37,729 - Obradjuje se funkcija f1 na liniji 11
INFO  10:47:37,729 - Obradjuje se funkcija f2 na liniji 12
INFO  10:47:37,729 - Obradjuje se funkcija f3 na liniji 13
ERROR 10:47:37,729 - Semanticka greska  na liniji 13: tip izraza u return naredbi ne slaze se sa tipom povratne vrednosti funkcije f3
INFO  10:47:37,729 - Obradjuje se funkcija f4 na liniji 14
INFO  10:47:37,729 - Obradjuje se funkcija f5 na liniji 15
ERROR 10:47:37,729 - Semanticka greska  na liniji 15: pronadjena prazna return naredba u funkciji f5 koja ima povratnu vrednost.
INFO  10:47:37,729 - Obradjuje se funkcija f6 na liniji 16
ERROR 10:47:37,729 - Semanticka greska  na liniji 16: tip izraza u return naredbi ne slaze se sa tipom povratne vrednosti funkcije f6
INFO  10:47:37,729 - Obradjuje se funkcija m na liniji 18
INFO  10:47:37,729 - Detektovan simbol - ime: obj, vrsta: promenjiva, tip: class na liniji 19
INFO  10:47:37,729 - Detektovan simbol - ime: noObj, vrsta: promenjiva, tip: void na liniji 19
ERROR 10:47:37,729 - Semanticka greska  na liniji 19: ime this nije deklarisano! 
ERROR 10:47:37,729 - Semanticka greska  na liniji 19: nekompatibilni tipovi u dodeli vrednosti. 
INFO  10:47:37,729 - Obradjuje se funkcija fun na liniji 22
INFO  10:47:37,729 - Detektovan simbol - ime: obj, vrsta: promenjiva, tip: class na liniji 23
INFO  10:47:37,729 - Detektovan simbol - ime: m, vrsta: funkcija, tip: void na liniji 23
INFO  10:47:37,729 - Detektovan simbol - ime: m, vrsta: funkcija, tip: void na liniji 24
INFO  10:47:37,729 - Detektovan simbol - ime: a, vrsta: promenjiva, tip: int na liniji 25
ERROR 10:47:37,729 - Semanticka greska  na liniji 25: a nije funkcija.
INFO  10:47:37,729 - Detektovan simbol - ime: b, vrsta: promenjiva, tip: bool na liniji 28
INFO  10:47:37,729 - Detektovan simbol - ime: a, vrsta: promenjiva, tip: int na liniji 31
ERROR 10:47:37,729 - Semanticka greska  na liniji 15: uslov nije tipa bool.
ERROR 10:47:37,729 - Semanticka greska  na liniji 15: uslov unutar naredbe nije tipa bool
INFO  10:47:37,729 - Detektovan simbol - ime: a, vrsta: promenjiva, tip: int na liniji 34
INFO  10:47:37,729 - Detektovan simbol - ime: a, vrsta: promenjiva, tip: int na liniji 35
ERROR 10:47:37,729 - Semanticka greska  na liniji 36: break se moze naci samo unutar do-while petlje ili switch naredbe
ERROR 10:47:37,729 - Semanticka greska  na liniji 37: continue se moze naci samo unutar do-while petlje.
INFO  10:47:37,729 - Detektovan simbol - ime: a, vrsta: promenjiva, tip: int na liniji 39
ERROR 10:47:37,729 - Semanticka greska  na liniji 40: continue se moze naci samo unutar do-while petlje.
INFO  10:47:37,729 - Detektovan simbol - ime: b, vrsta: promenjiva, tip: bool na liniji 45
ERROR 10:47:37,729 - Semanticka greska  na liniji 48: vec postoji case grana sa vrednoscu 0.
ERROR 10:47:37,729 - Semanticka greska  na liniji 45: Izraz unutar SWITCH naredbe mora biti celobrojnog tipa
INFO  10:47:37,729 - Detektovan simbol - ime: a, vrsta: promenjiva, tip: int na liniji 50
INFO  10:47:37,729 - Detektovan simbol - ime: f1, vrsta: funkcija, tip: void na liniji 52
INFO  10:47:37,729 - Detektovan simbol - ime: a, vrsta: promenjiva, tip: int na liniji 52
INFO  10:47:37,729 - Detektovan simbol - ime: arr, vrsta: promenjiva, tip: array na liniji 52
INFO  10:47:37,729 - Detektovan simbol - ime: b, vrsta: promenjiva, tip: bool na liniji 52
INFO  10:47:37,729 - Detektovan simbol - ime: f1, vrsta: funkcija, tip: void na liniji 53
INFO  10:47:37,729 - Detektovan simbol - ime: arr, vrsta: element niza, tip: array na liniji 53
INFO  10:47:37,729 - Detektovan simbol - ime: arr, vrsta: promenjiva, tip: array na liniji 53
INFO  10:47:37,729 - Detektovan simbol - ime: b, vrsta: promenjiva, tip: bool na liniji 53
INFO  10:47:37,729 - Detektovan simbol - ime: f1, vrsta: funkcija, tip: void na liniji 54
INFO  10:47:37,729 - Detektovan simbol - ime: a, vrsta: promenjiva, tip: int na liniji 54
INFO  10:47:37,729 - Detektovan simbol - ime: a, vrsta: promenjiva, tip: int na liniji 54
INFO  10:47:37,729 - Detektovan simbol - ime: b, vrsta: promenjiva, tip: bool na liniji 54
INFO  10:47:37,729 - Detektovan simbol - ime: b, vrsta: promenjiva, tip: bool na liniji 54
ERROR 10:47:37,729 - Semanticka greska  na liniji 54: greska pri pozivu funkcije, ocekivani broj parametara: 3, stvarni broj parametara: 4
INFO  10:47:37,729 - Detektovan simbol - ime: f1, vrsta: funkcija, tip: void na liniji 55
INFO  10:47:37,729 - Detektovan simbol - ime: a, vrsta: promenjiva, tip: int na liniji 55
INFO  10:47:37,729 - Detektovan simbol - ime: arr, vrsta: promenjiva, tip: array na liniji 55
INFO  10:47:37,729 - Detektovan simbol - ime: b, vrsta: promenjiva, tip: bool na liniji 55
ERROR 10:47:37,729 - Semanticka greska  na liniji 55: greska pri pozivu funkcije, ocekivani broj parametara: 3, stvarni broj parametara: 7
INFO  10:47:37,729 - Detektovan simbol - ime: f1, vrsta: funkcija, tip: void na liniji 56
INFO  10:47:37,729 - Detektovan simbol - ime: arr, vrsta: promenjiva, tip: array na liniji 56
INFO  10:47:37,729 - Detektovan simbol - ime: a, vrsta: promenjiva, tip: int na liniji 56
INFO  10:47:37,729 - Detektovan simbol - ime: b, vrsta: promenjiva, tip: bool na liniji 56
ERROR 10:47:37,729 - Semanticka greska  na liniji 56: greska pri pozivu funkcije, ocekivani broj parametara: 3, stvarni broj parametara: 10
INFO  10:47:37,729 - Detektovan simbol - ime: a, vrsta: promenjiva, tip: int na liniji 58
INFO  10:47:37,729 - Detektovan simbol - ime: a, vrsta: promenjiva, tip: int na liniji 58
INFO  10:47:37,729 - Detektovan simbol - ime: a, vrsta: promenjiva, tip: int na liniji 58
INFO  10:47:37,729 - Detektovan simbol - ime: a, vrsta: promenjiva, tip: int na liniji 59
INFO  10:47:37,729 - Detektovan simbol - ime: b, vrsta: promenjiva, tip: bool na liniji 59
ERROR 10:47:37,729 - Semanticka greska  na liniji 59: izrazi koji se porede nisu kompatibinli.
ERROR 10:47:37,729 - Semanticka greska  na liniji 11: uslov unutar naredbe nije tipa bool
INFO  10:47:37,729 - Detektovan simbol - ime: arr, vrsta: promenjiva, tip: array na liniji 60
INFO  10:47:37,729 - Detektovan simbol - ime: arr1, vrsta: promenjiva, tip: array na liniji 60
INFO  10:47:37,729 - Detektovan simbol - ime: arr, vrsta: promenjiva, tip: array na liniji 60
INFO  10:47:37,729 - Detektovan simbol - ime: arr1, vrsta: promenjiva, tip: array na liniji 60
INFO  10:47:37,729 - Detektovan simbol - ime: arr, vrsta: promenjiva, tip: array na liniji 61
INFO  10:47:37,729 - Detektovan simbol - ime: arr1, vrsta: promenjiva, tip: array na liniji 61
ERROR 10:47:37,729 - Semanticka greska  na liniji 61: za promenljive tipa Class ili Array dozvoljeno je samo poredjenje na jednakost ili nejednakost.
ERROR 10:47:37,729 - Semanticka greska  na liniji 11: uslov unutar naredbe nije tipa bool
INFO  10:47:37,729 - Detektovan simbol - ime: a, vrsta: promenjiva, tip: int na liniji 63
INFO  10:47:37,729 - Detektovan simbol - ime: a1, vrsta: promenjiva, tip: int na liniji 63
INFO  10:47:37,729 - Detektovan simbol - ime: b, vrsta: promenjiva, tip: bool na liniji 64
INFO  10:47:37,729 - Detektovan simbol - ime: b1, vrsta: promenjiva, tip: bool na liniji 64
INFO  10:47:37,729 - Detektovan simbol - ime: a, vrsta: promenjiva, tip: int na liniji 65
INFO  10:47:37,729 - Detektovan simbol - ime: a1, vrsta: promenjiva, tip: int na liniji 65
INFO  10:47:37,729 - Detektovan simbol - ime: b, vrsta: promenjiva, tip: bool na liniji 66
INFO  10:47:37,729 - Detektovan simbol - ime: b1, vrsta: promenjiva, tip: bool na liniji 66
ERROR 10:47:37,729 - Semanticka greska  na liniji 66: operand unarnog operatora mora biti tipa int.
ERROR 10:47:37,729 - Semanticka greska  na liniji 66: nekompatibilni tipovi u dodeli vrednosti. 
ERROR 10:47:37,729 - Semanticka greska : main funkcija nije definisana
ERROR 10:47:37,744 - [Line #13]  SEMANTIC_ERROR: Semanticka greska  na liniji 13: tip izraza u return naredbi ne slaze se sa tipom povratne vrednosti funkcije f3
ERROR 10:47:37,744 - [Line #15]  SEMANTIC_ERROR: Semanticka greska  na liniji 15: pronadjena prazna return naredba u funkciji f5 koja ima povratnu vrednost.
ERROR 10:47:37,744 - [Line #16]  SEMANTIC_ERROR: Semanticka greska  na liniji 16: tip izraza u return naredbi ne slaze se sa tipom povratne vrednosti funkcije f6
ERROR 10:47:37,744 - [Line #19]  SEMANTIC_ERROR: Semanticka greska  na liniji 19: ime this nije deklarisano! 
ERROR 10:47:37,744 - [Line #19]  SEMANTIC_ERROR: Semanticka greska  na liniji 19: nekompatibilni tipovi u dodeli vrednosti. 
ERROR 10:47:37,744 - [Line #25]  SEMANTIC_ERROR: Semanticka greska  na liniji 25: a nije funkcija.
ERROR 10:47:37,744 - [Line #15]  SEMANTIC_ERROR: Semanticka greska  na liniji 15: uslov nije tipa bool.
ERROR 10:47:37,744 - [Line #15]  SEMANTIC_ERROR: Semanticka greska  na liniji 15: uslov unutar naredbe nije tipa bool
ERROR 10:47:37,744 - [Line #36]  SEMANTIC_ERROR: Semanticka greska  na liniji 36: break se moze naci samo unutar do-while petlje ili switch naredbe
ERROR 10:47:37,744 - [Line #37]  SEMANTIC_ERROR: Semanticka greska  na liniji 37: continue se moze naci samo unutar do-while petlje.
ERROR 10:47:37,744 - [Line #40]  SEMANTIC_ERROR: Semanticka greska  na liniji 40: continue se moze naci samo unutar do-while petlje.
ERROR 10:47:37,744 - [Line #48]  SEMANTIC_ERROR: Semanticka greska  na liniji 48: vec postoji case grana sa vrednoscu 0.
ERROR 10:47:37,744 - [Line #45]  SEMANTIC_ERROR: Semanticka greska  na liniji 45: Izraz unutar SWITCH naredbe mora biti celobrojnog tipa
ERROR 10:47:37,744 - [Line #54]  SEMANTIC_ERROR: Semanticka greska  na liniji 54: greska pri pozivu funkcije, ocekivani broj parametara: 3, stvarni broj parametara: 4
ERROR 10:47:37,744 - [Line #55]  SEMANTIC_ERROR: Semanticka greska  na liniji 55: greska pri pozivu funkcije, ocekivani broj parametara: 3, stvarni broj parametara: 7
ERROR 10:47:37,744 - [Line #56]  SEMANTIC_ERROR: Semanticka greska  na liniji 56: greska pri pozivu funkcije, ocekivani broj parametara: 3, stvarni broj parametara: 10
ERROR 10:47:37,744 - [Line #59]  SEMANTIC_ERROR: Semanticka greska  na liniji 59: izrazi koji se porede nisu kompatibinli.
ERROR 10:47:37,744 - [Line #11]  SEMANTIC_ERROR: Semanticka greska  na liniji 11: uslov unutar naredbe nije tipa bool
ERROR 10:47:37,744 - [Line #61]  SEMANTIC_ERROR: Semanticka greska  na liniji 61: za promenljive tipa Class ili Array dozvoljeno je samo poredjenje na jednakost ili nejednakost.
ERROR 10:47:37,744 - [Line #11]  SEMANTIC_ERROR: Semanticka greska  na liniji 11: uslov unutar naredbe nije tipa bool
ERROR 10:47:37,744 - [Line #66]  SEMANTIC_ERROR: Semanticka greska  na liniji 66: operand unarnog operatora mora biti tipa int.
ERROR 10:47:37,744 - [Line #66]  SEMANTIC_ERROR: Semanticka greska  na liniji 66: nekompatibilni tipovi u dodeli vrednosti. 
ERROR 10:47:37,744 - [Line #0 ]  SEMANTIC_ERROR: Semanticka greska : main funkcija nije definisana
