INFO  10:15:26,245 - #2 program
INFO  10:15:26,245 - #8 MJ
INFO  10:15:26,245 - #6 const
INFO  10:15:26,245 - #8 int
INFO  10:15:26,245 - #8 a1
INFO  10:15:26,261 - #34 =
INFO  10:15:26,261 - #9 5
INFO  10:15:26,261 - #12 ;
INFO  10:15:26,261 - #6 const
INFO  10:15:26,261 - #8 int
INFO  10:15:26,261 - #8 a2
INFO  10:15:26,261 - #34 =
INFO  10:15:26,261 - #10 a
INFO  10:15:26,261 - #12 ;
INFO  10:15:26,261 - #6 const
INFO  10:15:26,261 - #8 int
INFO  10:15:26,261 - #8 a3
INFO  10:15:26,261 - #34 =
INFO  10:15:26,261 - #11 true
INFO  10:15:26,261 - #12 ;
INFO  10:15:26,261 - #6 const
INFO  10:15:26,261 - #8 char
INFO  10:15:26,261 - #8 c1
INFO  10:15:26,261 - #34 =
INFO  10:15:26,261 - #9 5
INFO  10:15:26,261 - #12 ;
INFO  10:15:26,269 - #6 const
INFO  10:15:26,269 - #8 char
INFO  10:15:26,269 - #8 c2
INFO  10:15:26,269 - #34 =
INFO  10:15:26,269 - #10 a
INFO  10:15:26,269 - #12 ;
INFO  10:15:26,269 - #6 const
INFO  10:15:26,269 - #8 char
INFO  10:15:26,269 - #8 c3
INFO  10:15:26,269 - #34 =
INFO  10:15:26,269 - #11 false
INFO  10:15:26,269 - #12 ;
INFO  10:15:26,269 - #6 const
INFO  10:15:26,269 - #8 bool
INFO  10:15:26,269 - #8 b1
INFO  10:15:26,269 - #34 =
INFO  10:15:26,269 - #9 4
INFO  10:15:26,269 - #12 ;
INFO  10:15:26,269 - #6 const
INFO  10:15:26,269 - #8 bool
INFO  10:15:26,269 - #8 b2
INFO  10:15:26,269 - #34 =
INFO  10:15:26,269 - #10 b
INFO  10:15:26,269 - #12 ;
INFO  10:15:26,269 - #6 const
INFO  10:15:26,269 - #8 bool
INFO  10:15:26,269 - #8 b3
INFO  10:15:26,269 - #34 =
INFO  10:15:26,269 - #11 true
INFO  10:15:26,269 - #12 ;
INFO  10:15:26,269 - #16 {
INFO  10:15:26,269 - #5 void
INFO  10:15:26,269 - #8 main
INFO  10:15:26,269 - #18 (
INFO  10:15:26,269 - #19 )
INFO  10:15:26,269 - #8 int
INFO  10:15:26,269 - #8 a1
INFO  10:15:26,269 - #13 ,
INFO  10:15:26,269 - #8 a2
INFO  10:15:26,269 - #13 ,
INFO  10:15:26,269 - #8 arr
INFO  10:15:26,269 - #20 [
INFO  10:15:26,269 - #21 ]
INFO  10:15:26,269 - #13 ,
INFO  10:15:26,285 - #8 arr2
INFO  10:15:26,285 - #20 [
INFO  10:15:26,285 - #21 ]
INFO  10:15:26,285 - #12 ;
INFO  10:15:26,285 - #8 char
INFO  10:15:26,285 - #8 c1
INFO  10:15:26,285 - #13 ,
INFO  10:15:26,285 - #8 c2
INFO  10:15:26,285 - #12 ;
INFO  10:15:26,285 - #8 bool
INFO  10:15:26,285 - #8 b1
INFO  10:15:26,285 - #13 ,
INFO  10:15:26,285 - #8 b2
INFO  10:15:26,285 - #12 ;
INFO  10:15:26,285 - #16 {
INFO  10:15:26,285 - #8 arr
INFO  10:15:26,285 - #34 =
INFO  10:15:26,285 - #8 arr2
INFO  10:15:26,285 - #12 ;
INFO  10:15:26,285 - #17 }
INFO  10:15:26,285 - #17 }
ERROR 10:15:26,316 - Semanticka greska  na liniji 3: greska pri dodeli vrednosti konstanti, tipovi nisu kompatiblni.
ERROR 10:15:26,316 - Semanticka greska  na liniji 4: greska pri dodeli vrednosti konstanti, tipovi nisu kompatiblni.
ERROR 10:15:26,316 - Semanticka greska  na liniji 5: greska pri dodeli vrednosti konstanti, tipovi nisu kompatiblni.
ERROR 10:15:26,316 - Semanticka greska  na liniji 7: greska pri dodeli vrednosti konstanti, tipovi nisu kompatiblni.
ERROR 10:15:26,316 - Semanticka greska  na liniji 8: greska pri dodeli vrednosti konstanti, tipovi nisu kompatiblni.
ERROR 10:15:26,316 - Semanticka greska  na liniji 9: greska pri dodeli vrednosti konstanti, tipovi nisu kompatiblni.
INFO  10:15:26,316 - Obradjuje se funkcija main na liniji 12
INFO  10:15:26,316 - Detektovan simbol - ime: arr, vrsta: promenjiva, tip: array na liniji 16
INFO  10:15:26,316 - Detektovan simbol - ime: arr2, vrsta: promenjiva, tip: array na liniji 16
ERROR 10:19:23,286 - [Line #3 ]  SEMANTIC_ERROR: Semanticka greska  na liniji 3: greska pri dodeli vrednosti konstanti, tipovi nisu kompatiblni.
ERROR 10:19:23,286 - [Line #4 ]  SEMANTIC_ERROR: Semanticka greska  na liniji 4: greska pri dodeli vrednosti konstanti, tipovi nisu kompatiblni.
ERROR 10:19:23,286 - [Line #5 ]  SEMANTIC_ERROR: Semanticka greska  na liniji 5: greska pri dodeli vrednosti konstanti, tipovi nisu kompatiblni.
ERROR 10:19:23,286 - [Line #7 ]  SEMANTIC_ERROR: Semanticka greska  na liniji 7: greska pri dodeli vrednosti konstanti, tipovi nisu kompatiblni.
ERROR 10:19:23,286 - [Line #8 ]  SEMANTIC_ERROR: Semanticka greska  na liniji 8: greska pri dodeli vrednosti konstanti, tipovi nisu kompatiblni.
ERROR 10:19:23,286 - [Line #9 ]  SEMANTIC_ERROR: Semanticka greska  na liniji 9: greska pri dodeli vrednosti konstanti, tipovi nisu kompatiblni.
