INFO  10:54:47,445 - #2 program
INFO  10:54:47,445 - #8 MJ
INFO  10:54:47,445 - #3 class
INFO  10:54:47,445 - #8 A
INFO  10:54:47,445 - #16 {
INFO  10:54:47,445 - #8 int
INFO  10:54:47,445 - #8 a
INFO  10:54:47,445 - #12 ;
INFO  10:54:47,445 - #16 {
INFO  10:54:47,445 - #5 void
INFO  10:54:47,445 - #8 m
INFO  10:54:47,445 - #18 (
INFO  10:54:47,461 - #19 )
INFO  10:54:47,461 - #16 {
INFO  10:54:47,461 - #33 print
INFO  10:54:47,461 - #18 (
INFO  10:54:47,461 - #8 this
INFO  10:54:47,461 - #15 .
INFO  10:54:47,461 - #8 a
INFO  10:54:47,461 - #19 )
INFO  10:54:47,461 - #12 ;
INFO  10:54:47,461 - #17 }
INFO  10:54:47,461 - #8 int
INFO  10:54:47,477 - #8 m2
INFO  10:54:47,477 - #18 (
INFO  10:54:47,477 - #19 )
INFO  10:54:47,479 - #16 {
INFO  10:54:47,479 - #31 return
INFO  10:54:47,479 - #9 5
INFO  10:54:47,479 - #12 ;
INFO  10:54:47,479 - #17 }
INFO  10:54:47,479 - #17 }
INFO  10:54:47,479 - #17 }
INFO  10:54:47,479 - #3 class
INFO  10:54:47,479 - #8 B
INFO  10:54:47,479 - #16 {
INFO  10:54:47,479 - #17 }
INFO  10:54:47,479 - #16 {
INFO  10:54:47,479 - #5 void
INFO  10:54:47,479 - #8 f1
INFO  10:54:47,479 - #18 (
INFO  10:54:47,479 - #8 int
INFO  10:54:47,479 - #8 a
INFO  10:54:47,479 - #13 ,
INFO  10:54:47,479 - #8 int
INFO  10:54:47,479 - #8 arr
INFO  10:54:47,479 - #20 [
INFO  10:54:47,479 - #21 ]
INFO  10:54:47,479 - #13 ,
INFO  10:54:47,479 - #8 bool
INFO  10:54:47,479 - #8 b
INFO  10:54:47,479 - #19 )
INFO  10:54:47,479 - #16 {
INFO  10:54:47,479 - #17 }
INFO  10:54:47,479 - #5 void
INFO  10:54:47,479 - #8 f2
INFO  10:54:47,479 - #18 (
INFO  10:54:47,479 - #19 )
INFO  10:54:47,479 - #16 {
INFO  10:54:47,479 - #31 return
INFO  10:54:47,479 - #12 ;
INFO  10:54:47,479 - #17 }
INFO  10:54:47,479 - #5 void
INFO  10:54:47,479 - #8 f3
INFO  10:54:47,479 - #18 (
INFO  10:54:47,479 - #19 )
INFO  10:54:47,479 - #16 {
INFO  10:54:47,479 - #31 return
INFO  10:54:47,479 - #9 5
INFO  10:54:47,479 - #12 ;
INFO  10:54:47,479 - #17 }
INFO  10:54:47,479 - #8 int
INFO  10:54:47,479 - #8 f4
INFO  10:54:47,479 - #18 (
INFO  10:54:47,479 - #19 )
INFO  10:54:47,479 - #16 {
INFO  10:54:47,479 - #31 return
INFO  10:54:47,479 - #9 2
INFO  10:54:47,479 - #12 ;
INFO  10:54:47,479 - #17 }
INFO  10:54:47,479 - #8 int
INFO  10:54:47,479 - #8 f5
INFO  10:54:47,479 - #18 (
INFO  10:54:47,479 - #19 )
INFO  10:54:47,479 - #16 {
INFO  10:54:47,479 - #31 return
INFO  10:54:47,479 - #12 ;
INFO  10:54:47,479 - #17 }
INFO  10:54:47,479 - #8 int
INFO  10:54:47,479 - #8 f6
INFO  10:54:47,479 - #18 (
INFO  10:54:47,479 - #19 )
INFO  10:54:47,479 - #16 {
INFO  10:54:47,479 - #31 return
INFO  10:54:47,479 - #10 c
INFO  10:54:47,479 - #12 ;
INFO  10:54:47,479 - #17 }
INFO  10:54:47,479 - #5 void
INFO  10:54:47,479 - #8 m
INFO  10:54:47,479 - #18 (
INFO  10:54:47,479 - #19 )
INFO  10:54:47,479 - #8 A
INFO  10:54:47,479 - #8 obj
INFO  10:54:47,479 - #12 ;
INFO  10:54:47,479 - #16 {
INFO  10:54:47,479 - #8 obj
INFO  10:54:47,479 - #34 =
INFO  10:54:47,479 - #8 this
INFO  10:54:47,479 - #12 ;
INFO  10:54:47,479 - #17 }
INFO  10:54:47,479 - #5 void
INFO  10:54:47,479 - #8 fun
INFO  10:54:47,479 - #18 (
INFO  10:54:47,479 - #19 )
INFO  10:54:47,479 - #8 A
INFO  10:54:47,479 - #8 obj
INFO  10:54:47,479 - #13 ,
INFO  10:54:47,479 - #8 obj1
INFO  10:54:47,479 - #12 ;
INFO  10:54:47,479 - #8 B
INFO  10:54:47,479 - #8 objB
INFO  10:54:47,479 - #12 ;
INFO  10:54:47,479 - #8 int
INFO  10:54:47,479 - #8 a
INFO  10:54:47,479 - #13 ,
INFO  10:54:47,479 - #8 a1
INFO  10:54:47,479 - #13 ,
INFO  10:54:47,479 - #8 arr
INFO  10:54:47,479 - #20 [
INFO  10:54:47,479 - #21 ]
INFO  10:54:47,479 - #13 ,
INFO  10:54:47,479 - #8 arr1
INFO  10:54:47,479 - #20 [
INFO  10:54:47,479 - #21 ]
INFO  10:54:47,479 - #12 ;
INFO  10:54:47,479 - #8 bool
INFO  10:54:47,479 - #8 b
INFO  10:54:47,479 - #13 ,
INFO  10:54:47,479 - #8 b1
INFO  10:54:47,479 - #12 ;
INFO  10:54:47,479 - #16 {
INFO  10:54:47,479 - #8 obj
INFO  10:54:47,479 - #15 .
INFO  10:54:47,479 - #8 m
INFO  10:54:47,479 - #18 (
INFO  10:54:47,479 - #19 )
INFO  10:54:47,495 - #12 ;
INFO  10:54:47,495 - #8 m
INFO  10:54:47,495 - #18 (
INFO  10:54:47,495 - #19 )
INFO  10:54:47,495 - #12 ;
INFO  10:54:47,495 - #8 a
INFO  10:54:47,495 - #18 (
INFO  10:54:47,495 - #19 )
INFO  10:54:47,495 - #12 ;
INFO  10:54:47,495 - #24 do
INFO  10:54:47,495 - #16 {
INFO  10:54:47,495 - #22 if
INFO  10:54:47,495 - #18 (
INFO  10:54:47,495 - #8 b
INFO  10:54:47,495 - #19 )
INFO  10:54:47,495 - #16 {
INFO  10:54:47,495 - #29 break
INFO  10:54:47,495 - #12 ;
INFO  10:54:47,495 - #17 }
INFO  10:54:47,495 - #22 if
INFO  10:54:47,495 - #18 (
INFO  10:54:47,495 - #8 a
INFO  10:54:47,495 - #19 )
INFO  10:54:47,495 - #16 {
INFO  10:54:47,495 - #30 continue
INFO  10:54:47,495 - #12 ;
INFO  10:54:47,495 - #17 }
INFO  10:54:47,495 - #8 a
INFO  10:54:47,495 - #47 ++
INFO  10:54:47,495 - #12 ;
INFO  10:54:47,495 - #17 }
INFO  10:54:47,495 - #25 while
INFO  10:54:47,495 - #18 (
INFO  10:54:47,495 - #8 a
INFO  10:54:47,495 - #41 <
INFO  10:54:47,495 - #9 5
INFO  10:54:47,511 - #19 )
INFO  10:54:47,511 - #12 ;
INFO  10:54:47,511 - #29 break
INFO  10:54:47,511 - #12 ;
INFO  10:54:47,511 - #30 continue
INFO  10:54:47,511 - #12 ;
INFO  10:54:47,511 - #26 switch
INFO  10:54:47,511 - #18 (
INFO  10:54:47,511 - #8 a
INFO  10:54:47,511 - #19 )
INFO  10:54:47,511 - #16 {
INFO  10:54:47,511 - #27 case
INFO  10:54:47,511 - #9 0
INFO  10:54:47,511 - #14 :
INFO  10:54:47,511 - #30 continue
INFO  10:54:47,511 - #12 ;
INFO  10:54:47,511 - #27 case
INFO  10:54:47,511 - #9 1
INFO  10:54:47,511 - #14 :
INFO  10:54:47,511 - #29 break
INFO  10:54:47,511 - #12 ;
INFO  10:54:47,511 - #27 case
INFO  10:54:47,511 - #9 2
INFO  10:54:47,511 - #14 :
INFO  10:54:47,511 - #17 }
INFO  10:54:47,511 - #24 do
INFO  10:54:47,511 - #16 {
INFO  10:54:47,511 - #26 switch
INFO  10:54:47,511 - #18 (
INFO  10:54:47,511 - #8 b
INFO  10:54:47,511 - #19 )
INFO  10:54:47,511 - #16 {
INFO  10:54:47,511 - #27 case
INFO  10:54:47,511 - #9 0
INFO  10:54:47,511 - #14 :
INFO  10:54:47,511 - #30 continue
INFO  10:54:47,511 - #12 ;
INFO  10:54:47,511 - #27 case
INFO  10:54:47,511 - #9 1
INFO  10:54:47,511 - #14 :
INFO  10:54:47,511 - #27 case
INFO  10:54:47,511 - #9 0
INFO  10:54:47,511 - #14 :
INFO  10:54:47,511 - #17 }
INFO  10:54:47,511 - #17 }
INFO  10:54:47,511 - #25 while
INFO  10:54:47,511 - #18 (
INFO  10:54:47,511 - #8 a
INFO  10:54:47,511 - #41 <
INFO  10:54:47,511 - #9 5
INFO  10:54:47,511 - #19 )
INFO  10:54:47,511 - #12 ;
INFO  10:54:47,511 - #8 f1
INFO  10:54:47,511 - #18 (
INFO  10:54:47,511 - #8 a
INFO  10:54:47,511 - #13 ,
INFO  10:54:47,511 - #8 arr
INFO  10:54:47,511 - #13 ,
INFO  10:54:47,511 - #8 b
INFO  10:54:47,526 - #19 )
INFO  10:54:47,526 - #12 ;
INFO  10:54:47,526 - #8 f1
INFO  10:54:47,526 - #18 (
INFO  10:54:47,526 - #8 arr
INFO  10:54:47,526 - #20 [
INFO  10:54:47,526 - #9 0
INFO  10:54:47,526 - #21 ]
INFO  10:54:47,526 - #13 ,
INFO  10:54:47,526 - #8 arr
INFO  10:54:47,526 - #13 ,
INFO  10:54:47,526 - #8 b
INFO  10:54:47,526 - #19 )
INFO  10:54:47,526 - #12 ;
INFO  10:54:47,526 - #8 f1
INFO  10:54:47,526 - #18 (
INFO  10:54:47,526 - #8 a
INFO  10:54:47,526 - #13 ,
INFO  10:54:47,526 - #8 a
INFO  10:54:47,526 - #13 ,
INFO  10:54:47,526 - #8 b
INFO  10:54:47,526 - #13 ,
INFO  10:54:47,526 - #8 b
INFO  10:54:47,526 - #19 )
INFO  10:54:47,526 - #12 ;
INFO  10:54:47,526 - #8 f1
INFO  10:54:47,526 - #18 (
INFO  10:54:47,526 - #8 a
INFO  10:54:47,526 - #13 ,
INFO  10:54:47,526 - #8 arr
INFO  10:54:47,526 - #13 ,
INFO  10:54:47,526 - #8 b
INFO  10:54:47,526 - #19 )
INFO  10:54:47,526 - #12 ;
INFO  10:54:47,526 - #8 f1
INFO  10:54:47,526 - #18 (
INFO  10:54:47,526 - #8 arr
INFO  10:54:47,526 - #13 ,
INFO  10:54:47,526 - #8 a
INFO  10:54:47,526 - #13 ,
INFO  10:54:47,526 - #8 b
INFO  10:54:47,526 - #19 )
INFO  10:54:47,526 - #12 ;
INFO  10:54:47,526 - #22 if
INFO  10:54:47,526 - #18 (
INFO  10:54:47,526 - #8 a
INFO  10:54:47,526 - #39 >
INFO  10:54:47,526 - #9 5
INFO  10:54:47,526 - #49 &&
INFO  10:54:47,526 - #8 a
INFO  10:54:47,526 - #41 <
INFO  10:54:47,526 - #9 10
INFO  10:54:47,526 - #50 ||
INFO  10:54:47,526 - #8 a
INFO  10:54:47,526 - #36 ==
INFO  10:54:47,526 - #9 2
INFO  10:54:47,526 - #19 )
INFO  10:54:47,526 - #16 {
INFO  10:54:47,526 - #17 }
INFO  10:54:47,526 - #22 if
INFO  10:54:47,526 - #18 (
INFO  10:54:47,526 - #8 a
INFO  10:54:47,526 - #39 >
INFO  10:54:47,526 - #8 b
INFO  10:54:47,526 - #19 )
INFO  10:54:47,526 - #16 {
INFO  10:54:47,526 - #17 }
INFO  10:54:47,526 - #22 if
INFO  10:54:47,526 - #18 (
INFO  10:54:47,526 - #8 arr
INFO  10:54:47,526 - #36 ==
INFO  10:54:47,526 - #8 arr1
INFO  10:54:47,526 - #50 ||
INFO  10:54:47,526 - #8 arr
INFO  10:54:47,526 - #37 !=
INFO  10:54:47,526 - #8 arr1
INFO  10:54:47,526 - #19 )
INFO  10:54:47,526 - #16 {
INFO  10:54:47,526 - #17 }
INFO  10:54:47,526 - #22 if
INFO  10:54:47,526 - #18 (
INFO  10:54:47,526 - #8 arr
INFO  10:54:47,526 - #39 >
INFO  10:54:47,526 - #8 arr1
INFO  10:54:47,526 - #19 )
INFO  10:54:47,526 - #16 {
INFO  10:54:47,526 - #17 }
INFO  10:54:47,526 - #8 a
INFO  10:54:47,526 - #34 =
INFO  10:54:47,526 - #8 a1
INFO  10:54:47,526 - #12 ;
INFO  10:54:47,526 - #8 b
INFO  10:54:47,526 - #34 =
INFO  10:54:47,526 - #8 b1
INFO  10:54:47,526 - #12 ;
INFO  10:54:47,526 - #8 a
INFO  10:54:47,526 - #34 =
INFO  10:54:47,526 - #43 -
INFO  10:54:47,526 - #8 a1
INFO  10:54:47,526 - #12 ;
INFO  10:54:47,526 - #8 b
INFO  10:54:47,526 - #34 =
INFO  10:54:47,526 - #43 -
INFO  10:54:47,526 - #8 b1
INFO  10:54:47,526 - #12 ;
INFO  10:54:47,526 - #8 a
INFO  10:54:47,526 - #34 =
INFO  10:54:47,526 - #8 a
INFO  10:54:47,526 - #42 +
INFO  10:54:47,542 - #8 a1
INFO  10:54:47,542 - #12 ;
INFO  10:54:47,542 - #8 a
INFO  10:54:47,542 - #34 =
INFO  10:54:47,542 - #8 a
INFO  10:54:47,542 - #44 *
INFO  10:54:47,542 - #8 a1
INFO  10:54:47,542 - #12 ;
INFO  10:54:47,542 - #8 a
INFO  10:54:47,542 - #34 =
INFO  10:54:47,542 - #8 a
INFO  10:54:47,542 - #42 +
INFO  10:54:47,542 - #8 b
INFO  10:54:47,542 - #12 ;
INFO  10:54:47,542 - #8 b
INFO  10:54:47,542 - #34 =
INFO  10:54:47,542 - #8 b
INFO  10:54:47,542 - #43 -
INFO  10:54:47,542 - #8 b1
INFO  10:54:47,542 - #12 ;
INFO  10:54:47,542 - #8 b
INFO  10:54:47,542 - #34 =
INFO  10:54:47,542 - #8 b
INFO  10:54:47,542 - #44 *
INFO  10:54:47,542 - #8 b1
INFO  10:54:47,542 - #12 ;
INFO  10:54:47,542 - #8 obj
INFO  10:54:47,542 - #34 =
INFO  10:54:47,542 - #18 (
INFO  10:54:47,542 - #8 b
INFO  10:54:47,542 - #19 )
INFO  10:54:47,542 - #51 ?
INFO  10:54:47,542 - #8 obj1
INFO  10:54:47,542 - #14 :
INFO  10:54:47,542 - #8 objB
INFO  10:54:47,542 - #12 ;
INFO  10:54:47,542 - #8 obj
INFO  10:54:47,542 - #34 =
INFO  10:54:47,542 - #18 (
INFO  10:54:47,542 - #8 a
INFO  10:54:47,542 - #19 )
INFO  10:54:47,542 - #51 ?
INFO  10:54:47,542 - #8 obj
INFO  10:54:47,542 - #14 :
INFO  10:54:47,542 - #8 obj1
INFO  10:54:47,542 - #12 ;
INFO  10:54:47,542 - #8 a
INFO  10:54:47,542 - #34 =
INFO  10:54:47,542 - #8 f4
INFO  10:54:47,542 - #18 (
INFO  10:54:47,542 - #19 )
INFO  10:54:47,542 - #12 ;
INFO  10:54:47,542 - #8 a
INFO  10:54:47,542 - #34 =
INFO  10:54:47,542 - #8 b
INFO  10:54:47,542 - #18 (
INFO  10:54:47,542 - #19 )
INFO  10:54:47,542 - #12 ;
INFO  10:54:47,542 - #8 a
INFO  10:54:47,542 - #34 =
INFO  10:54:47,542 - #8 obj
INFO  10:54:47,542 - #15 .
INFO  10:54:47,542 - #8 m2
INFO  10:54:47,542 - #18 (
INFO  10:54:47,542 - #19 )
INFO  10:54:47,542 - #12 ;
INFO  10:54:47,542 - #17 }
INFO  10:54:47,542 - #17 }
INFO  10:54:47,557 - Obradjuje se funkcija m na liniji 5
INFO  10:54:47,557 - Detektovan simbol - ime: this, vrsta: promenjiva, tip: class na liniji 6
INFO  10:54:47,557 - Detektovan simbol - ime: a, vrsta: polje klase, tip: int na liniji 6
INFO  10:54:47,557 - Obradjuje se funkcija m2 na liniji 8
INFO  10:54:47,557 - Obradjuje se funkcija f1 na liniji 15
INFO  10:54:47,557 - Obradjuje se funkcija f2 na liniji 16
INFO  10:54:47,557 - Obradjuje se funkcija f3 na liniji 17
ERROR 10:54:47,557 - Semanticka greska  na liniji 17: tip izraza u return naredbi ne slaze se sa tipom povratne vrednosti funkcije f3
INFO  10:54:47,557 - Obradjuje se funkcija f4 na liniji 18
INFO  10:54:47,557 - Obradjuje se funkcija f5 na liniji 19
ERROR 10:54:47,557 - Semanticka greska  na liniji 19: pronadjena prazna return naredba u funkciji f5 koja ima povratnu vrednost.
INFO  10:54:47,557 - Obradjuje se funkcija f6 na liniji 20
ERROR 10:54:47,557 - Semanticka greska  na liniji 20: tip izraza u return naredbi ne slaze se sa tipom povratne vrednosti funkcije f6
INFO  10:54:47,557 - Obradjuje se funkcija m na liniji 22
INFO  10:54:47,557 - Detektovan simbol - ime: obj, vrsta: promenjiva, tip: class na liniji 23
INFO  10:54:47,557 - Detektovan simbol - ime: noObj, vrsta: promenjiva, tip: void na liniji 23
ERROR 10:54:47,557 - Semanticka greska  na liniji 23: ime this nije deklarisano! 
ERROR 10:54:47,557 - Semanticka greska  na liniji 23: nekompatibilni tipovi u dodeli vrednosti. 
INFO  10:54:47,557 - Obradjuje se funkcija fun na liniji 26
INFO  10:54:47,557 - Detektovan simbol - ime: obj, vrsta: promenjiva, tip: class na liniji 27
INFO  10:54:47,557 - Detektovan simbol - ime: m, vrsta: funkcija, tip: void na liniji 27
INFO  10:54:47,557 - Detektovan simbol - ime: m, vrsta: funkcija, tip: void na liniji 28
INFO  10:54:47,557 - Detektovan simbol - ime: a, vrsta: promenjiva, tip: int na liniji 29
ERROR 10:54:47,557 - Semanticka greska  na liniji 29: a nije funkcija.
INFO  10:54:47,557 - Detektovan simbol - ime: b, vrsta: promenjiva, tip: bool na liniji 32
INFO  10:54:47,573 - Detektovan simbol - ime: a, vrsta: promenjiva, tip: int na liniji 35
ERROR 10:54:47,573 - Semanticka greska  na liniji 15: uslov nije tipa bool.
ERROR 10:54:47,573 - Semanticka greska  na liniji 15: uslov unutar naredbe nije tipa bool
INFO  10:54:47,573 - Detektovan simbol - ime: a, vrsta: promenjiva, tip: int na liniji 38
INFO  10:54:47,573 - Detektovan simbol - ime: a, vrsta: promenjiva, tip: int na liniji 39
ERROR 10:54:47,573 - Semanticka greska  na liniji 40: break se moze naci samo unutar do-while petlje ili switch naredbe
ERROR 10:54:47,573 - Semanticka greska  na liniji 41: continue se moze naci samo unutar do-while petlje.
INFO  10:54:47,573 - Detektovan simbol - ime: a, vrsta: promenjiva, tip: int na liniji 43
ERROR 10:54:47,573 - Semanticka greska  na liniji 44: continue se moze naci samo unutar do-while petlje.
INFO  10:54:47,573 - Detektovan simbol - ime: b, vrsta: promenjiva, tip: bool na liniji 49
ERROR 10:54:47,573 - Semanticka greska  na liniji 52: vec postoji case grana sa vrednoscu 0.
ERROR 10:54:47,573 - Semanticka greska  na liniji 49: Izraz unutar SWITCH naredbe mora biti celobrojnog tipa
INFO  10:54:47,573 - Detektovan simbol - ime: a, vrsta: promenjiva, tip: int na liniji 54
INFO  10:54:47,573 - Detektovan simbol - ime: f1, vrsta: funkcija, tip: void na liniji 56
INFO  10:54:47,573 - Detektovan simbol - ime: a, vrsta: promenjiva, tip: int na liniji 56
INFO  10:54:47,573 - Detektovan simbol - ime: arr, vrsta: promenjiva, tip: array na liniji 56
INFO  10:54:47,573 - Detektovan simbol - ime: b, vrsta: promenjiva, tip: bool na liniji 56
INFO  10:54:47,573 - Detektovan simbol - ime: f1, vrsta: funkcija, tip: void na liniji 57
INFO  10:54:47,573 - Detektovan simbol - ime: arr, vrsta: element niza, tip: array na liniji 57
INFO  10:54:47,573 - Detektovan simbol - ime: arr, vrsta: promenjiva, tip: array na liniji 57
INFO  10:54:47,573 - Detektovan simbol - ime: b, vrsta: promenjiva, tip: bool na liniji 57
INFO  10:54:47,573 - Detektovan simbol - ime: f1, vrsta: funkcija, tip: void na liniji 58
INFO  10:54:47,573 - Detektovan simbol - ime: a, vrsta: promenjiva, tip: int na liniji 58
INFO  10:54:47,573 - Detektovan simbol - ime: a, vrsta: promenjiva, tip: int na liniji 58
INFO  10:54:47,573 - Detektovan simbol - ime: b, vrsta: promenjiva, tip: bool na liniji 58
INFO  10:54:47,573 - Detektovan simbol - ime: b, vrsta: promenjiva, tip: bool na liniji 58
ERROR 10:54:47,573 - Semanticka greska  na liniji 58: greska pri pozivu funkcije, ocekivani broj parametara: 3, stvarni broj parametara: 4
INFO  10:54:47,573 - Detektovan simbol - ime: f1, vrsta: funkcija, tip: void na liniji 59
INFO  10:54:47,573 - Detektovan simbol - ime: a, vrsta: promenjiva, tip: int na liniji 59
INFO  10:54:47,573 - Detektovan simbol - ime: arr, vrsta: promenjiva, tip: array na liniji 59
INFO  10:54:47,573 - Detektovan simbol - ime: b, vrsta: promenjiva, tip: bool na liniji 59
ERROR 10:54:47,573 - Semanticka greska  na liniji 59: greska pri pozivu funkcije, ocekivani broj parametara: 3, stvarni broj parametara: 7
INFO  10:54:47,573 - Detektovan simbol - ime: f1, vrsta: funkcija, tip: void na liniji 60
INFO  10:54:47,573 - Detektovan simbol - ime: arr, vrsta: promenjiva, tip: array na liniji 60
INFO  10:54:47,573 - Detektovan simbol - ime: a, vrsta: promenjiva, tip: int na liniji 60
INFO  10:54:47,573 - Detektovan simbol - ime: b, vrsta: promenjiva, tip: bool na liniji 60
ERROR 10:54:47,573 - Semanticka greska  na liniji 60: greska pri pozivu funkcije, ocekivani broj parametara: 3, stvarni broj parametara: 10
INFO  10:54:47,573 - Detektovan simbol - ime: a, vrsta: promenjiva, tip: int na liniji 62
INFO  10:54:47,573 - Detektovan simbol - ime: a, vrsta: promenjiva, tip: int na liniji 62
INFO  10:54:47,573 - Detektovan simbol - ime: a, vrsta: promenjiva, tip: int na liniji 62
INFO  10:54:47,573 - Detektovan simbol - ime: a, vrsta: promenjiva, tip: int na liniji 63
INFO  10:54:47,573 - Detektovan simbol - ime: b, vrsta: promenjiva, tip: bool na liniji 63
ERROR 10:54:47,573 - Semanticka greska  na liniji 63: izrazi koji se porede nisu kompatibinli.
ERROR 10:54:47,573 - Semanticka greska  na liniji 11: uslov unutar naredbe nije tipa bool
INFO  10:54:47,573 - Detektovan simbol - ime: arr, vrsta: promenjiva, tip: array na liniji 64
INFO  10:54:47,573 - Detektovan simbol - ime: arr1, vrsta: promenjiva, tip: array na liniji 64
INFO  10:54:47,573 - Detektovan simbol - ime: arr, vrsta: promenjiva, tip: array na liniji 64
INFO  10:54:47,573 - Detektovan simbol - ime: arr1, vrsta: promenjiva, tip: array na liniji 64
INFO  10:54:47,573 - Detektovan simbol - ime: arr, vrsta: promenjiva, tip: array na liniji 65
INFO  10:54:47,573 - Detektovan simbol - ime: arr1, vrsta: promenjiva, tip: array na liniji 65
ERROR 10:54:47,573 - Semanticka greska  na liniji 65: za promenljive tipa Class ili Array dozvoljeno je samo poredjenje na jednakost ili nejednakost.
ERROR 10:54:47,573 - Semanticka greska  na liniji 11: uslov unutar naredbe nije tipa bool
INFO  10:54:47,573 - Detektovan simbol - ime: a, vrsta: promenjiva, tip: int na liniji 67
INFO  10:54:47,573 - Detektovan simbol - ime: a1, vrsta: promenjiva, tip: int na liniji 67
INFO  10:54:47,573 - Detektovan simbol - ime: b, vrsta: promenjiva, tip: bool na liniji 68
INFO  10:54:47,573 - Detektovan simbol - ime: b1, vrsta: promenjiva, tip: bool na liniji 68
INFO  10:54:47,573 - Detektovan simbol - ime: a, vrsta: promenjiva, tip: int na liniji 69
INFO  10:54:47,573 - Detektovan simbol - ime: a1, vrsta: promenjiva, tip: int na liniji 69
INFO  10:54:47,573 - Detektovan simbol - ime: b, vrsta: promenjiva, tip: bool na liniji 70
INFO  10:54:47,573 - Detektovan simbol - ime: b1, vrsta: promenjiva, tip: bool na liniji 70
ERROR 10:54:47,573 - Semanticka greska  na liniji 70: operand unarnog operatora mora biti tipa int.
ERROR 10:54:47,573 - Semanticka greska  na liniji 70: nekompatibilni tipovi u dodeli vrednosti. 
INFO  10:54:47,573 - Detektovan simbol - ime: a, vrsta: promenjiva, tip: int na liniji 71
INFO  10:54:47,573 - Detektovan simbol - ime: a, vrsta: promenjiva, tip: int na liniji 71
INFO  10:54:47,573 - Detektovan simbol - ime: a1, vrsta: promenjiva, tip: int na liniji 71
INFO  10:54:47,573 - Detektovan simbol - ime: a, vrsta: promenjiva, tip: int na liniji 72
INFO  10:54:47,573 - Detektovan simbol - ime: a, vrsta: promenjiva, tip: int na liniji 72
INFO  10:54:47,573 - Detektovan simbol - ime: a1, vrsta: promenjiva, tip: int na liniji 72
INFO  10:54:47,573 - Detektovan simbol - ime: a, vrsta: promenjiva, tip: int na liniji 73
INFO  10:54:47,573 - Detektovan simbol - ime: a, vrsta: promenjiva, tip: int na liniji 73
INFO  10:54:47,573 - Detektovan simbol - ime: b, vrsta: promenjiva, tip: bool na liniji 73
ERROR 10:54:47,573 - Semanticka greska  na liniji 10: nekompatibilni tipovi u izrazu za sabiranje ili nisu tipa int.
ERROR 10:54:47,573 - Semanticka greska  na liniji 73: nekompatibilni tipovi u dodeli vrednosti. 
INFO  10:54:47,573 - Detektovan simbol - ime: b, vrsta: promenjiva, tip: bool na liniji 74
INFO  10:54:47,573 - Detektovan simbol - ime: b, vrsta: promenjiva, tip: bool na liniji 74
INFO  10:54:47,573 - Detektovan simbol - ime: b1, vrsta: promenjiva, tip: bool na liniji 74
ERROR 10:54:47,573 - Semanticka greska  na liniji 10: nekompatibilni tipovi u izrazu za sabiranje ili nisu tipa int.
ERROR 10:54:47,573 - Semanticka greska  na liniji 74: nekompatibilni tipovi u dodeli vrednosti. 
INFO  10:54:47,573 - Detektovan simbol - ime: b, vrsta: promenjiva, tip: bool na liniji 75
INFO  10:54:47,573 - Detektovan simbol - ime: b, vrsta: promenjiva, tip: bool na liniji 75
INFO  10:54:47,573 - Detektovan simbol - ime: b1, vrsta: promenjiva, tip: bool na liniji 75
ERROR 10:54:47,573 - Semanticka greska  na liniji 75: nekompatibilni tipovi u izrazu za mnozenje ili nisu tipa int.
ERROR 10:54:47,573 - Semanticka greska  na liniji 75: nekompatibilni tipovi u dodeli vrednosti. 
INFO  10:54:47,573 - Detektovan simbol - ime: obj, vrsta: promenjiva, tip: class na liniji 77
INFO  10:54:47,573 - Detektovan simbol - ime: b, vrsta: promenjiva, tip: bool na liniji 77
INFO  10:54:47,573 - Detektovan simbol - ime: obj1, vrsta: promenjiva, tip: class na liniji 77
INFO  10:54:47,573 - Detektovan simbol - ime: objB, vrsta: promenjiva, tip: class na liniji 77
ERROR 10:54:47,573 - Semanticka greska  na liniji 77: izrazi u ternarnom operatoru nisu kompatibilni
ERROR 10:54:47,573 - Semanticka greska  na liniji 77: nekompatibilni tipovi u dodeli vrednosti! 
INFO  10:54:47,573 - Detektovan simbol - ime: obj, vrsta: promenjiva, tip: class na liniji 78
INFO  10:54:47,573 - Detektovan simbol - ime: a, vrsta: promenjiva, tip: int na liniji 78
INFO  10:54:47,573 - Detektovan simbol - ime: obj, vrsta: promenjiva, tip: class na liniji 78
INFO  10:54:47,573 - Detektovan simbol - ime: obj1, vrsta: promenjiva, tip: class na liniji 78
ERROR 10:54:47,573 - Semanticka greska  na liniji 78: uslov u ternarnom operatoru nije tipa bool.
INFO  10:54:47,573 - Detektovan simbol - ime: a, vrsta: promenjiva, tip: int na liniji 80
INFO  10:54:47,573 - Detektovan simbol - ime: f4, vrsta: funkcija, tip: int na liniji 80
ERROR 10:54:47,573 - Semanticka greska  na liniji 80: greska pri pozivu funkcije, ocekivani broj parametara: 0, stvarni broj parametara: 10
INFO  10:54:47,573 - Detektovan simbol - ime: a, vrsta: promenjiva, tip: int na liniji 81
INFO  10:54:47,573 - Detektovan simbol - ime: b, vrsta: promenjiva, tip: bool na liniji 81
ERROR 10:54:47,573 - Semanticka greska  na liniji 81: b nije funkcija.
ERROR 10:54:47,573 - Semanticka greska  na liniji 81: nekompatibilni tipovi u dodeli vrednosti. 
INFO  10:54:47,573 - Detektovan simbol - ime: a, vrsta: promenjiva, tip: int na liniji 82
INFO  10:54:47,573 - Detektovan simbol - ime: obj, vrsta: promenjiva, tip: class na liniji 82
INFO  10:54:47,573 - Detektovan simbol - ime: m2, vrsta: funkcija, tip: int na liniji 82
ERROR 10:54:47,573 - Semanticka greska  na liniji 82: greska pri pozivu funkcije, ocekivani broj parametara: 0, stvarni broj parametara: 10
ERROR 10:54:47,573 - Semanticka greska : main funkcija nije definisana
ERROR 10:54:47,573 - [Line #17]  SEMANTIC_ERROR: Semanticka greska  na liniji 17: tip izraza u return naredbi ne slaze se sa tipom povratne vrednosti funkcije f3
ERROR 10:54:47,573 - [Line #19]  SEMANTIC_ERROR: Semanticka greska  na liniji 19: pronadjena prazna return naredba u funkciji f5 koja ima povratnu vrednost.
ERROR 10:54:47,573 - [Line #20]  SEMANTIC_ERROR: Semanticka greska  na liniji 20: tip izraza u return naredbi ne slaze se sa tipom povratne vrednosti funkcije f6
ERROR 10:54:47,573 - [Line #23]  SEMANTIC_ERROR: Semanticka greska  na liniji 23: ime this nije deklarisano! 
ERROR 10:54:47,573 - [Line #23]  SEMANTIC_ERROR: Semanticka greska  na liniji 23: nekompatibilni tipovi u dodeli vrednosti. 
ERROR 10:54:47,573 - [Line #29]  SEMANTIC_ERROR: Semanticka greska  na liniji 29: a nije funkcija.
ERROR 10:54:47,573 - [Line #15]  SEMANTIC_ERROR: Semanticka greska  na liniji 15: uslov nije tipa bool.
ERROR 10:54:47,573 - [Line #15]  SEMANTIC_ERROR: Semanticka greska  na liniji 15: uslov unutar naredbe nije tipa bool
ERROR 10:54:47,573 - [Line #40]  SEMANTIC_ERROR: Semanticka greska  na liniji 40: break se moze naci samo unutar do-while petlje ili switch naredbe
ERROR 10:54:47,573 - [Line #41]  SEMANTIC_ERROR: Semanticka greska  na liniji 41: continue se moze naci samo unutar do-while petlje.
ERROR 10:54:47,573 - [Line #44]  SEMANTIC_ERROR: Semanticka greska  na liniji 44: continue se moze naci samo unutar do-while petlje.
ERROR 10:54:47,573 - [Line #52]  SEMANTIC_ERROR: Semanticka greska  na liniji 52: vec postoji case grana sa vrednoscu 0.
ERROR 10:54:47,573 - [Line #49]  SEMANTIC_ERROR: Semanticka greska  na liniji 49: Izraz unutar SWITCH naredbe mora biti celobrojnog tipa
ERROR 10:54:47,573 - [Line #58]  SEMANTIC_ERROR: Semanticka greska  na liniji 58: greska pri pozivu funkcije, ocekivani broj parametara: 3, stvarni broj parametara: 4
ERROR 10:54:47,573 - [Line #59]  SEMANTIC_ERROR: Semanticka greska  na liniji 59: greska pri pozivu funkcije, ocekivani broj parametara: 3, stvarni broj parametara: 7
ERROR 10:54:47,573 - [Line #60]  SEMANTIC_ERROR: Semanticka greska  na liniji 60: greska pri pozivu funkcije, ocekivani broj parametara: 3, stvarni broj parametara: 10
ERROR 10:54:47,573 - [Line #63]  SEMANTIC_ERROR: Semanticka greska  na liniji 63: izrazi koji se porede nisu kompatibinli.
ERROR 10:54:47,573 - [Line #11]  SEMANTIC_ERROR: Semanticka greska  na liniji 11: uslov unutar naredbe nije tipa bool
ERROR 10:54:47,573 - [Line #65]  SEMANTIC_ERROR: Semanticka greska  na liniji 65: za promenljive tipa Class ili Array dozvoljeno je samo poredjenje na jednakost ili nejednakost.
ERROR 10:54:47,573 - [Line #11]  SEMANTIC_ERROR: Semanticka greska  na liniji 11: uslov unutar naredbe nije tipa bool
ERROR 10:54:47,573 - [Line #70]  SEMANTIC_ERROR: Semanticka greska  na liniji 70: operand unarnog operatora mora biti tipa int.
ERROR 10:54:47,573 - [Line #70]  SEMANTIC_ERROR: Semanticka greska  na liniji 70: nekompatibilni tipovi u dodeli vrednosti. 
ERROR 10:54:47,573 - [Line #10]  SEMANTIC_ERROR: Semanticka greska  na liniji 10: nekompatibilni tipovi u izrazu za sabiranje ili nisu tipa int.
ERROR 10:54:47,573 - [Line #73]  SEMANTIC_ERROR: Semanticka greska  na liniji 73: nekompatibilni tipovi u dodeli vrednosti. 
ERROR 10:54:47,573 - [Line #10]  SEMANTIC_ERROR: Semanticka greska  na liniji 10: nekompatibilni tipovi u izrazu za sabiranje ili nisu tipa int.
ERROR 10:54:47,573 - [Line #74]  SEMANTIC_ERROR: Semanticka greska  na liniji 74: nekompatibilni tipovi u dodeli vrednosti. 
ERROR 10:54:47,573 - [Line #75]  SEMANTIC_ERROR: Semanticka greska  na liniji 75: nekompatibilni tipovi u izrazu za mnozenje ili nisu tipa int.
ERROR 10:54:47,573 - [Line #75]  SEMANTIC_ERROR: Semanticka greska  na liniji 75: nekompatibilni tipovi u dodeli vrednosti. 
ERROR 10:54:47,573 - [Line #77]  SEMANTIC_ERROR: Semanticka greska  na liniji 77: izrazi u ternarnom operatoru nisu kompatibilni
ERROR 10:54:47,573 - [Line #77]  SEMANTIC_ERROR: Semanticka greska  na liniji 77: nekompatibilni tipovi u dodeli vrednosti! 
ERROR 10:54:47,573 - [Line #78]  SEMANTIC_ERROR: Semanticka greska  na liniji 78: uslov u ternarnom operatoru nije tipa bool.
ERROR 10:54:47,573 - [Line #80]  SEMANTIC_ERROR: Semanticka greska  na liniji 80: greska pri pozivu funkcije, ocekivani broj parametara: 0, stvarni broj parametara: 10
ERROR 10:54:47,573 - [Line #81]  SEMANTIC_ERROR: Semanticka greska  na liniji 81: b nije funkcija.
ERROR 10:54:47,573 - [Line #81]  SEMANTIC_ERROR: Semanticka greska  na liniji 81: nekompatibilni tipovi u dodeli vrednosti. 
ERROR 10:54:47,573 - [Line #82]  SEMANTIC_ERROR: Semanticka greska  na liniji 82: greska pri pozivu funkcije, ocekivani broj parametara: 0, stvarni broj parametara: 10
ERROR 10:54:47,573 - [Line #0 ]  SEMANTIC_ERROR: Semanticka greska : main funkcija nije definisana
