INFO  16:12:00,448 - Compiling source file: C:\Users\popov\Desktop\Programski prevodioci\pp1_projekat\test\program.mj
INFO  16:12:00,555 - #2 program
INFO  16:12:00,555 - #8 MJProgram
INFO  16:12:00,555 - #3 class
INFO  16:12:00,555 - #8 A
INFO  16:12:00,555 - #16 {
INFO  16:12:00,555 - #8 int
INFO  16:12:00,555 - #8 a
INFO  16:12:00,555 - #12 ;
INFO  16:12:00,570 - #17 }
INFO  16:12:00,570 - #6 const
INFO  16:12:00,570 - #8 int
INFO  16:12:00,570 - #8 obj
INFO  16:12:00,570 - #34 =
INFO  16:12:00,570 - #10 5
INFO  16:12:00,570 - #12 ;
INFO  16:12:00,570 - #16 {
INFO  16:12:00,570 - #5 void
INFO  16:12:00,570 - #8 main
INFO  16:12:00,570 - #18 (
INFO  16:12:00,570 - #19 )
INFO  16:12:00,570 - #8 int
INFO  16:12:00,570 - #8 arr
INFO  16:12:00,570 - #20 [
INFO  16:12:00,570 - #21 ]
INFO  16:12:00,586 - #12 ;
INFO  16:12:00,586 - #16 {
INFO  16:12:00,586 - #17 }
INFO  16:12:00,586 - #17 }
INFO  16:12:00,586 - Program(
  ProgName(
   MJProgram
  ) [ProgName]
  Declarations(
    Declarations(
      NoDeclarations(
      ) [NoDeclarations]
      ClassDeclaration(
        ClassDecl(
          ClassName(
           A
          ) [ClassName]
          NoExtends(
          ) [NoExtends]
          FieldDecls(
            NoFieldDecls(
            ) [NoFieldDecls]
            VarDecls(
              Type(
               int
              ) [Type]
              SingleVar(
                Var(
                 a
                  Scalar(
                  ) [Scalar]
                ) [Var]
              ) [SingleVar]
            ) [VarDecls]
          ) [FieldDecls]
          NoClassMethods(
          ) [NoClassMethods]
        ) [ClassDecl]
      ) [ClassDeclaration]
    ) [Declarations]
    ConstDeclarations(
      ConstDecls(
        ConstType(
          Type(
           int
          ) [Type]
        ) [ConstType]
        SingleConstVar(
          ConstVar(
           obj
            ConstValueChar(
             5
            ) [ConstValueChar]
          ) [ConstVar]
        ) [SingleConstVar]
      ) [ConstDecls]
    ) [ConstDeclarations]
  ) [Declarations]
  MethodDeclarations(
    NoMethodDeclarations(
    ) [NoMethodDeclarations]
    MethodDecl(
      MethodTypeName(
        MethodTypeVoid(
        ) [MethodTypeVoid]
       main
      ) [MethodTypeName]
      NoFormParams(
      ) [NoFormParams]
      MethodVars(
        NoMethodVars(
        ) [NoMethodVars]
        VarDecls(
          Type(
           int
          ) [Type]
          SingleVar(
            Var(
             arr
              Array(
              ) [Array]
            ) [Var]
          ) [SingleVar]
        ) [VarDecls]
      ) [MethodVars]
      NoStatements(
      ) [NoStatements]
    ) [MethodDecl]
  ) [MethodDeclarations]
) [Program]
INFO  16:12:00,586 - ===================================
ERROR 16:12:00,602 - Semanticka greska  na liniji 5: Greska pri dodeli vrednosti konstanti, tipovi nisu kompatiblni
INFO  16:12:00,602 - Obradjuje se funkcija main na liniji 7
INFO  16:12:00,602 -  Print count calls = 0
INFO  16:12:00,602 -  Deklarisanih promenljivih ima = 0
INFO  16:12:00,602 - ===================================
ERROR 16:12:00,602 - Parsiranje NIJE uspesno zavrseno!
