INFO  10:09:10,067 - #2 program
INFO  10:09:10,067 - #8 MJ
INFO  10:09:10,067 - #6 const
INFO  10:09:10,067 - #8 int
INFO  10:09:10,067 - #8 a1
INFO  10:09:10,067 - #34 =
INFO  10:09:10,067 - #9 5
INFO  10:09:10,067 - #12 ;
INFO  10:09:10,067 - #6 const
INFO  10:09:10,067 - #8 int
INFO  10:09:10,067 - #8 a2
INFO  10:09:10,067 - #34 =
INFO  10:09:10,067 - #10 a
INFO  10:09:10,083 - #12 ;
INFO  10:09:10,083 - #6 const
INFO  10:09:10,083 - #8 int
INFO  10:09:10,083 - #8 a3
INFO  10:09:10,083 - #34 =
INFO  10:09:10,083 - #11 true
INFO  10:09:10,083 - #12 ;
INFO  10:09:10,083 - #6 const
INFO  10:09:10,083 - #8 char
INFO  10:09:10,083 - #8 c1
INFO  10:09:10,083 - #34 =
INFO  10:09:10,083 - #9 5
INFO  10:09:10,083 - #12 ;
INFO  10:09:10,086 - #6 const
INFO  10:09:10,086 - #8 char
INFO  10:09:10,086 - #8 c2
INFO  10:09:10,086 - #34 =
INFO  10:09:10,086 - #10 a
INFO  10:09:10,086 - #12 ;
INFO  10:09:10,086 - #6 const
INFO  10:09:10,086 - #8 char
INFO  10:09:10,086 - #8 c3
INFO  10:09:10,086 - #34 =
INFO  10:09:10,086 - #11 false
INFO  10:09:10,086 - #12 ;
INFO  10:09:10,086 - #6 const
INFO  10:09:10,086 - #8 bool
INFO  10:09:10,086 - #8 b1
INFO  10:09:10,086 - #34 =
INFO  10:09:10,086 - #9 4
INFO  10:09:10,086 - #12 ;
INFO  10:09:10,086 - #6 const
INFO  10:09:10,086 - #8 bool
INFO  10:09:10,086 - #8 b2
INFO  10:09:10,086 - #34 =
INFO  10:09:10,086 - #10 b
INFO  10:09:10,086 - #12 ;
INFO  10:09:10,086 - #6 const
INFO  10:09:10,086 - #8 bool
INFO  10:09:10,086 - #8 b3
INFO  10:09:10,086 - #34 =
INFO  10:09:10,086 - #11 true
INFO  10:09:10,086 - #12 ;
INFO  10:09:10,086 - #16 {
INFO  10:09:10,086 - #5 void
INFO  10:09:10,086 - #8 main
INFO  10:09:10,086 - #18 (
INFO  10:09:10,086 - #19 )
INFO  10:09:10,086 - #8 int
INFO  10:09:10,086 - #8 a1
INFO  10:09:10,086 - #13 ,
INFO  10:09:10,086 - #8 a2
INFO  10:09:10,086 - #12 ;
INFO  10:09:10,086 - #8 char
INFO  10:09:10,086 - #8 c1
INFO  10:09:10,086 - #13 ,
INFO  10:09:10,086 - #8 c2
INFO  10:09:10,086 - #12 ;
INFO  10:09:10,086 - #8 bool
INFO  10:09:10,086 - #8 b1
INFO  10:09:10,086 - #13 ,
INFO  10:09:10,086 - #8 b2
INFO  10:09:10,086 - #12 ;
INFO  10:09:10,086 - #8 A
INFO  10:09:10,086 - #8 a
INFO  10:09:10,086 - #12 ;
INFO  10:09:10,086 - #16 {
INFO  10:09:10,086 - #8 a1
INFO  10:09:10,086 - #34 =
INFO  10:09:10,086 - #8 a2
INFO  10:09:10,102 - #12 ;
INFO  10:09:10,102 - #8 c1
INFO  10:09:10,102 - #34 =
INFO  10:09:10,102 - #8 c2
INFO  10:09:10,102 - #12 ;
INFO  10:09:10,102 - #8 b1
INFO  10:09:10,102 - #34 =
INFO  10:09:10,102 - #8 b2
INFO  10:09:10,102 - #12 ;
INFO  10:09:10,102 - #8 a1
INFO  10:09:10,102 - #47 ++
INFO  10:09:10,102 - #12 ;
INFO  10:09:10,102 - #8 c1
INFO  10:09:10,102 - #47 ++
INFO  10:09:10,102 - #12 ;
INFO  10:09:10,102 - #8 b1
INFO  10:09:10,102 - #47 ++
INFO  10:09:10,102 - #12 ;
INFO  10:09:10,102 - #17 }
INFO  10:09:10,102 - #17 }
ERROR 10:09:10,117 - Semanticka greska  na liniji 3: greska pri dodeli vrednosti konstanti, tipovi nisu kompatiblni.
ERROR 10:09:10,117 - Semanticka greska  na liniji 4: greska pri dodeli vrednosti konstanti, tipovi nisu kompatiblni.
ERROR 10:09:10,117 - Semanticka greska  na liniji 5: greska pri dodeli vrednosti konstanti, tipovi nisu kompatiblni.
ERROR 10:09:10,117 - Semanticka greska  na liniji 7: greska pri dodeli vrednosti konstanti, tipovi nisu kompatiblni.
ERROR 10:09:10,117 - Semanticka greska  na liniji 8: greska pri dodeli vrednosti konstanti, tipovi nisu kompatiblni.
ERROR 10:09:10,117 - Semanticka greska  na liniji 9: greska pri dodeli vrednosti konstanti, tipovi nisu kompatiblni.
INFO  10:09:10,117 - Obradjuje se funkcija main na liniji 12
ERROR 10:09:10,117 - Semanticka greska  na liniji 13: A ne predstavlja tip.
INFO  10:09:10,117 - Detektovan simbol - ime: a1, vrsta: promenjiva, tip: int na liniji 14
INFO  10:09:10,117 - Detektovan simbol - ime: a2, vrsta: promenjiva, tip: int na liniji 14
INFO  10:09:10,117 - Detektovan simbol - ime: c1, vrsta: promenjiva, tip: char na liniji 15
INFO  10:09:10,117 - Detektovan simbol - ime: c2, vrsta: promenjiva, tip: char na liniji 15
INFO  10:09:10,117 - Detektovan simbol - ime: b1, vrsta: promenjiva, tip: bool na liniji 16
INFO  10:09:10,117 - Detektovan simbol - ime: b2, vrsta: promenjiva, tip: bool na liniji 16
INFO  10:09:10,117 - Detektovan simbol - ime: a1, vrsta: promenjiva, tip: int na liniji 17
INFO  10:09:10,117 - Detektovan simbol - ime: c1, vrsta: promenjiva, tip: char na liniji 18
ERROR 10:09:10,117 - Semanticka greska  na liniji 18: ocekivani tip: int
INFO  10:09:10,117 - Detektovan simbol - ime: b1, vrsta: promenjiva, tip: bool na liniji 19
ERROR 10:09:10,117 - Semanticka greska  na liniji 19: ocekivani tip: int
ERROR 10:09:10,117 - [Line #3 ]  SEMANTIC_ERROR: Semanticka greska  na liniji 3: greska pri dodeli vrednosti konstanti, tipovi nisu kompatiblni.
ERROR 10:09:10,117 - [Line #4 ]  SEMANTIC_ERROR: Semanticka greska  na liniji 4: greska pri dodeli vrednosti konstanti, tipovi nisu kompatiblni.
ERROR 10:09:10,117 - [Line #5 ]  SEMANTIC_ERROR: Semanticka greska  na liniji 5: greska pri dodeli vrednosti konstanti, tipovi nisu kompatiblni.
ERROR 10:09:10,117 - [Line #7 ]  SEMANTIC_ERROR: Semanticka greska  na liniji 7: greska pri dodeli vrednosti konstanti, tipovi nisu kompatiblni.
ERROR 10:09:10,117 - [Line #8 ]  SEMANTIC_ERROR: Semanticka greska  na liniji 8: greska pri dodeli vrednosti konstanti, tipovi nisu kompatiblni.
ERROR 10:09:10,117 - [Line #9 ]  SEMANTIC_ERROR: Semanticka greska  na liniji 9: greska pri dodeli vrednosti konstanti, tipovi nisu kompatiblni.
ERROR 10:09:10,117 - [Line #13]  SEMANTIC_ERROR: Semanticka greska  na liniji 13: A ne predstavlja tip.
ERROR 10:09:10,117 - [Line #18]  SEMANTIC_ERROR: Semanticka greska  na liniji 18: ocekivani tip: int
ERROR 10:09:10,117 - [Line #19]  SEMANTIC_ERROR: Semanticka greska  na liniji 19: ocekivani tip: int
