INFO  21:47:03,097 - Compiling source file: C:\Users\popov\Desktop\Programski prevodioci\pp1_projekat\test\program.mj
INFO  21:47:03,207 - #2 program
INFO  21:47:03,207 - #8 MJ
INFO  21:47:03,207 - #8 int
INFO  21:47:03,207 - #8 a
INFO  21:47:03,207 - #13 ,
INFO  21:47:03,207 - #8 b
INFO  21:47:03,207 - #12 ;
INFO  21:47:03,207 - #16 {
INFO  21:47:03,207 - #5 void
INFO  21:47:03,222 - #8 main
INFO  21:47:03,222 - #18 (
INFO  21:47:03,222 - #19 )
INFO  21:47:03,222 - #8 A
INFO  21:47:03,222 - #8 obj
INFO  21:47:03,222 - #12 ;
INFO  21:47:03,222 - #8 int
INFO  21:47:03,222 - #8 a
INFO  21:47:03,222 - #13 ,
INFO  21:47:03,222 - #8 arr
INFO  21:47:03,222 - #20 [
INFO  21:47:03,222 - #21 ]
INFO  21:47:03,222 - #12 ;
INFO  21:47:03,222 - #8 bool
INFO  21:47:03,222 - #8 b
INFO  21:47:03,222 - #12 ;
INFO  21:47:03,222 - #8 char
INFO  21:47:03,222 - #8 c
INFO  21:47:03,222 - #12 ;
INFO  21:47:03,222 - #16 {
INFO  21:47:03,222 - #22 if
INFO  21:47:03,222 - #18 (
INFO  21:47:03,222 - #8 arr
INFO  21:47:03,222 - #36 ==
INFO  21:47:03,222 - #8 arr
INFO  21:47:03,238 - #19 )
INFO  21:47:03,238 - #16 {
INFO  21:47:03,238 - #31 return
INFO  21:47:03,238 - #12 ;
INFO  21:47:03,238 - #17 }
INFO  21:47:03,238 - #17 }
INFO  21:47:03,238 - #17 }
INFO  21:47:03,238 - Program(
  ProgName(
   MJ
  ) [ProgName]
  Declarations(
    NoDeclarations(
    ) [NoDeclarations]
    VarDeclarations(
      VarDecls(
        Type(
         int
        ) [Type]
        VarVars(
          SingleVar(
            Var1(
             a
              Scalar(
              ) [Scalar]
            ) [Var1]
          ) [SingleVar]
          Var1(
           b
            Scalar(
            ) [Scalar]
          ) [Var1]
        ) [VarVars]
      ) [VarDecls]
    ) [VarDeclarations]
  ) [Declarations]
  MethodDeclarations(
    NoMethodDeclarations(
    ) [NoMethodDeclarations]
    MethodDecl(
      MethodTypeName(
        MethodTypeVoid(
        ) [MethodTypeVoid]
       main
      ) [MethodTypeName]
      NoFormParams(
      ) [NoFormParams]
      MethodVars(
        MethodVars(
          MethodVars(
            MethodVars(
              NoMethodVars(
              ) [NoMethodVars]
              VarDecls(
                Type(
                 A
                ) [Type]
                SingleVar(
                  Var1(
                   obj
                    Scalar(
                    ) [Scalar]
                  ) [Var1]
                ) [SingleVar]
              ) [VarDecls]
            ) [MethodVars]
            VarDecls(
              Type(
               int
              ) [Type]
              VarVars(
                SingleVar(
                  Var1(
                   a
                    Scalar(
                    ) [Scalar]
                  ) [Var1]
                ) [SingleVar]
                Var1(
                 arr
                  Array(
                  ) [Array]
                ) [Var1]
              ) [VarVars]
            ) [VarDecls]
          ) [MethodVars]
          VarDecls(
            Type(
             bool
            ) [Type]
            SingleVar(
              Var1(
               b
                Scalar(
                ) [Scalar]
              ) [Var1]
            ) [SingleVar]
          ) [VarDecls]
        ) [MethodVars]
        VarDecls(
          Type(
           char
          ) [Type]
          SingleVar(
            Var1(
             c
              Scalar(
              ) [Scalar]
            ) [Var1]
          ) [SingleVar]
        ) [VarDecls]
      ) [MethodVars]
      StatementListImpl(
        NoStatements(
        ) [NoStatements]
        StatementDerived2(
          IfThenStatement(
            IfStart(
            ) [IfStart]
            ConditionStart(
            ) [ConditionStart]
            SimpleCondition(
              SimpleCondTerm(
                RelopCondFact(
                  ExprImpl(
                    ExprSum(
                      TermImpl(
                        NoMinusBegin(
                        ) [NoMinusBegin]
                        FactorTerm(
                          FactorDesignator(
                            SingleDesignator(
                              DesignatorFirst(
                               arr
                              ) [DesignatorFirst]
                              NoDesignatorValArray(
                              ) [NoDesignatorValArray]
                            ) [SingleDesignator]
                            NoActParsInBrackets(
                            ) [NoActParsInBrackets]
                          ) [FactorDesignator]
                        ) [FactorTerm]
                      ) [TermImpl]
                    ) [ExprSum]
                  ) [ExprImpl]
                  RelopEq(
                  ) [RelopEq]
                  ExprImpl(
                    ExprSum(
                      TermImpl(
                        NoMinusBegin(
                        ) [NoMinusBegin]
                        FactorTerm(
                          FactorDesignator(
                            SingleDesignator(
                              DesignatorFirst(
                               arr
                              ) [DesignatorFirst]
                              NoDesignatorValArray(
                              ) [NoDesignatorValArray]
                            ) [SingleDesignator]
                            NoActParsInBrackets(
                            ) [NoActParsInBrackets]
                          ) [FactorDesignator]
                        ) [FactorTerm]
                      ) [TermImpl]
                    ) [ExprSum]
                  ) [ExprImpl]
                ) [RelopCondFact]
              ) [SimpleCondTerm]
            ) [SimpleCondition]
            ConditionEnd(
            ) [ConditionEnd]
            StatementDerived11(
              StatementListImpl(
                NoStatements(
                ) [NoStatements]
                StatementDerived8(
                  ReturnStatement(
                  ) [ReturnStatement]
                ) [StatementDerived8]
              ) [StatementListImpl]
            ) [StatementDerived11]
          ) [IfThenStatement]
        ) [StatementDerived2]
      ) [StatementListImpl]
    ) [MethodDecl]
  ) [MethodDeclarations]
) [Program]
INFO  21:47:03,238 - ===================================
INFO  21:47:03,254 - Obradjuje se funkcija main na liniji 4
ERROR 21:47:03,254 - Semanticka greska  na liniji 4: A ne predstavlja tip.
INFO  21:47:03,254 -  Print count calls = 0
INFO  21:47:03,254 -  Deklarisanih promenljivih ima = 0
INFO  21:47:03,254 - ===================================
ERROR 21:47:03,254 - Parsiranje NIJE uspesno zavrseno!
