INFO  10:26:57,444 - #2 program
INFO  10:26:57,444 - #8 MJ
INFO  10:26:57,444 - #6 const
INFO  10:26:57,444 - #8 int
INFO  10:26:57,444 - #8 a1
INFO  10:26:57,444 - #34 =
INFO  10:26:57,444 - #9 5
INFO  10:26:57,444 - #12 ;
INFO  10:26:57,459 - #6 const
INFO  10:26:57,459 - #8 int
INFO  10:26:57,459 - #8 a2
INFO  10:26:57,459 - #34 =
INFO  10:26:57,459 - #10 a
INFO  10:26:57,459 - #12 ;
INFO  10:26:57,459 - #6 const
INFO  10:26:57,459 - #8 int
INFO  10:26:57,459 - #8 a3
INFO  10:26:57,459 - #34 =
INFO  10:26:57,459 - #11 true
INFO  10:26:57,459 - #12 ;
INFO  10:26:57,459 - #6 const
INFO  10:26:57,459 - #8 char
INFO  10:26:57,459 - #8 c1
INFO  10:26:57,459 - #34 =
INFO  10:26:57,459 - #9 5
INFO  10:26:57,459 - #12 ;
INFO  10:26:57,459 - #6 const
INFO  10:26:57,459 - #8 char
INFO  10:26:57,459 - #8 c2
INFO  10:26:57,459 - #34 =
INFO  10:26:57,459 - #10 a
INFO  10:26:57,459 - #12 ;
INFO  10:26:57,459 - #6 const
INFO  10:26:57,459 - #8 char
INFO  10:26:57,459 - #8 c3
INFO  10:26:57,459 - #34 =
INFO  10:26:57,459 - #11 false
INFO  10:26:57,459 - #12 ;
INFO  10:26:57,459 - #6 const
INFO  10:26:57,459 - #8 bool
INFO  10:26:57,459 - #8 b1
INFO  10:26:57,459 - #34 =
INFO  10:26:57,459 - #9 4
INFO  10:26:57,459 - #12 ;
INFO  10:26:57,459 - #6 const
INFO  10:26:57,459 - #8 bool
INFO  10:26:57,459 - #8 b2
INFO  10:26:57,459 - #34 =
INFO  10:26:57,459 - #10 b
INFO  10:26:57,459 - #12 ;
INFO  10:26:57,459 - #6 const
INFO  10:26:57,459 - #8 bool
INFO  10:26:57,459 - #8 b3
INFO  10:26:57,459 - #34 =
INFO  10:26:57,459 - #11 true
INFO  10:26:57,459 - #12 ;
INFO  10:26:57,459 - #16 {
INFO  10:26:57,459 - #5 void
INFO  10:26:57,459 - #8 main
INFO  10:26:57,459 - #18 (
INFO  10:26:57,459 - #19 )
INFO  10:26:57,459 - #8 int
INFO  10:26:57,459 - #8 a1
INFO  10:26:57,459 - #13 ,
INFO  10:26:57,459 - #8 a2
INFO  10:26:57,459 - #13 ,
INFO  10:26:57,459 - #8 arr
INFO  10:26:57,459 - #20 [
INFO  10:26:57,459 - #21 ]
INFO  10:26:57,459 - #13 ,
INFO  10:26:57,459 - #8 arr2
INFO  10:26:57,459 - #20 [
INFO  10:26:57,459 - #21 ]
INFO  10:26:57,459 - #12 ;
INFO  10:26:57,459 - #8 char
INFO  10:26:57,459 - #8 c1
INFO  10:26:57,459 - #13 ,
INFO  10:26:57,459 - #8 c2
INFO  10:26:57,459 - #12 ;
INFO  10:26:57,459 - #8 bool
INFO  10:26:57,459 - #8 b1
INFO  10:26:57,459 - #13 ,
INFO  10:26:57,459 - #8 b2
INFO  10:26:57,459 - #12 ;
INFO  10:26:57,459 - #8 A
INFO  10:26:57,459 - #8 a
INFO  10:26:57,459 - #12 ;
INFO  10:26:57,459 - #16 {
INFO  10:26:57,459 - #8 a1
INFO  10:26:57,475 - #34 =
INFO  10:26:57,475 - #8 a2
INFO  10:26:57,475 - #12 ;
INFO  10:26:57,475 - #8 c1
INFO  10:26:57,475 - #34 =
INFO  10:26:57,475 - #8 c2
INFO  10:26:57,475 - #12 ;
INFO  10:26:57,475 - #8 b1
INFO  10:26:57,475 - #34 =
INFO  10:26:57,475 - #8 b2
INFO  10:26:57,475 - #12 ;
INFO  10:26:57,475 - #8 a1
INFO  10:26:57,475 - #47 ++
INFO  10:26:57,475 - #12 ;
INFO  10:26:57,475 - #8 arr
INFO  10:26:57,475 - #20 [
INFO  10:26:57,475 - #9 0
INFO  10:26:57,475 - #21 ]
INFO  10:26:57,475 - #48 --
INFO  10:26:57,475 - #12 ;
INFO  10:26:57,475 - #8 c1
INFO  10:26:57,475 - #48 --
INFO  10:26:57,475 - #12 ;
INFO  10:26:57,475 - #8 b1
INFO  10:26:57,475 - #47 ++
INFO  10:26:57,475 - #12 ;
INFO  10:26:57,475 - #8 arr
INFO  10:26:57,475 - #47 ++
INFO  10:26:57,475 - #12 ;
INFO  10:26:57,475 - #8 a1
INFO  10:26:57,475 - #34 =
INFO  10:26:57,475 - #8 arr
INFO  10:26:57,475 - #20 [
INFO  10:26:57,475 - #9 0
INFO  10:26:57,475 - #21 ]
INFO  10:26:57,475 - #12 ;
INFO  10:26:57,475 - #8 c1
INFO  10:26:57,475 - #34 =
INFO  10:26:57,475 - #8 arr
INFO  10:26:57,475 - #20 [
INFO  10:26:57,475 - #9 0
INFO  10:26:57,475 - #21 ]
INFO  10:26:57,475 - #12 ;
INFO  10:26:57,475 - #8 arr
INFO  10:26:57,475 - #20 [
INFO  10:26:57,475 - #9 0
INFO  10:26:57,475 - #21 ]
INFO  10:26:57,475 - #34 =
INFO  10:26:57,475 - #8 a2
INFO  10:26:57,475 - #12 ;
INFO  10:26:57,475 - #8 arr
INFO  10:26:57,475 - #20 [
INFO  10:26:57,475 - #9 0
INFO  10:26:57,475 - #21 ]
INFO  10:26:57,475 - #34 =
INFO  10:26:57,475 - #8 b1
INFO  10:26:57,475 - #12 ;
INFO  10:26:57,475 - #8 arr
INFO  10:26:57,475 - #20 [
INFO  10:26:57,475 - #9 0
INFO  10:26:57,475 - #21 ]
INFO  10:26:57,475 - #34 =
INFO  10:26:57,475 - #8 arr2
INFO  10:26:57,475 - #20 [
INFO  10:26:57,475 - #9 0
INFO  10:26:57,475 - #21 ]
INFO  10:26:57,475 - #12 ;
INFO  10:26:57,475 - #8 arr
INFO  10:26:57,475 - #34 =
INFO  10:26:57,475 - #8 arr2
INFO  10:26:57,475 - #12 ;
INFO  10:26:57,491 - #8 arr
INFO  10:26:57,491 - #34 =
INFO  10:26:57,491 - #7 new
INFO  10:26:57,491 - #8 int
INFO  10:26:57,491 - #20 [
INFO  10:26:57,491 - #9 5
INFO  10:26:57,491 - #21 ]
INFO  10:26:57,491 - #12 ;
INFO  10:26:57,491 - #32 read
INFO  10:26:57,491 - #18 (
INFO  10:26:57,491 - #8 a1
INFO  10:26:57,491 - #19 )
INFO  10:26:57,491 - #12 ;
INFO  10:26:57,491 - #32 read
INFO  10:26:57,491 - #18 (
INFO  10:26:57,491 - #8 b1
INFO  10:26:57,491 - #19 )
INFO  10:26:57,491 - #12 ;
INFO  10:26:57,491 - #32 read
INFO  10:26:57,491 - #18 (
INFO  10:26:57,491 - #8 c1
INFO  10:26:57,491 - #19 )
INFO  10:26:57,491 - #12 ;
INFO  10:26:57,491 - #32 read
INFO  10:26:57,491 - #18 (
INFO  10:26:57,491 - #8 arr
INFO  10:26:57,491 - #20 [
INFO  10:26:57,491 - #9 0
INFO  10:26:57,491 - #21 ]
INFO  10:26:57,491 - #19 )
INFO  10:26:57,491 - #12 ;
INFO  10:26:57,491 - #32 read
INFO  10:26:57,491 - #18 (
INFO  10:26:57,491 - #8 arr
INFO  10:26:57,491 - #19 )
INFO  10:26:57,491 - #12 ;
INFO  10:26:57,491 - #33 print
INFO  10:26:57,491 - #18 (
INFO  10:26:57,491 - #8 a2
INFO  10:26:57,491 - #19 )
INFO  10:26:57,491 - #12 ;
INFO  10:26:57,491 - #33 print
INFO  10:26:57,491 - #18 (
INFO  10:26:57,491 - #8 b2
INFO  10:26:57,491 - #19 )
INFO  10:26:57,491 - #12 ;
INFO  10:26:57,491 - #33 print
INFO  10:26:57,491 - #18 (
INFO  10:26:57,491 - #8 c2
INFO  10:26:57,491 - #19 )
INFO  10:26:57,491 - #12 ;
INFO  10:26:57,491 - #33 print
INFO  10:26:57,491 - #18 (
INFO  10:26:57,491 - #8 arr2
INFO  10:26:57,491 - #20 [
INFO  10:26:57,491 - #9 2
INFO  10:26:57,491 - #21 ]
INFO  10:26:57,491 - #19 )
INFO  10:26:57,491 - #12 ;
INFO  10:26:57,491 - #33 print
INFO  10:26:57,491 - #18 (
INFO  10:26:57,491 - #9 5
INFO  10:26:57,491 - #19 )
INFO  10:26:57,491 - #12 ;
INFO  10:26:57,491 - #33 print
INFO  10:26:57,491 - #18 (
INFO  10:26:57,491 - #10 a
INFO  10:26:57,491 - #19 )
INFO  10:26:57,491 - #12 ;
INFO  10:26:57,491 - #33 print
INFO  10:26:57,491 - #18 (
INFO  10:26:57,491 - #11 true
INFO  10:26:57,491 - #19 )
INFO  10:26:57,491 - #12 ;
INFO  10:26:57,491 - #33 print
INFO  10:26:57,491 - #18 (
INFO  10:26:57,491 - #8 arr2
INFO  10:26:57,491 - #19 )
INFO  10:26:57,491 - #12 ;
INFO  10:26:57,491 - #17 }
INFO  10:26:57,491 - #17 }
ERROR 10:26:57,506 - Semanticka greska  na liniji 3: greska pri dodeli vrednosti konstanti, tipovi nisu kompatiblni.
ERROR 10:26:57,506 - Semanticka greska  na liniji 4: greska pri dodeli vrednosti konstanti, tipovi nisu kompatiblni.
ERROR 10:26:57,506 - Semanticka greska  na liniji 5: greska pri dodeli vrednosti konstanti, tipovi nisu kompatiblni.
ERROR 10:26:57,506 - Semanticka greska  na liniji 7: greska pri dodeli vrednosti konstanti, tipovi nisu kompatiblni.
ERROR 10:26:57,506 - Semanticka greska  na liniji 8: greska pri dodeli vrednosti konstanti, tipovi nisu kompatiblni.
ERROR 10:26:57,506 - Semanticka greska  na liniji 9: greska pri dodeli vrednosti konstanti, tipovi nisu kompatiblni.
INFO  10:26:57,506 - Obradjuje se funkcija main na liniji 12
ERROR 10:26:57,506 - Semanticka greska  na liniji 13: A ne predstavlja tip.
INFO  10:26:57,506 - Detektovan simbol - ime: a1, vrsta: promenjiva, tip: int na liniji 15
INFO  10:26:57,506 - Detektovan simbol - ime: a2, vrsta: promenjiva, tip: int na liniji 15
INFO  10:26:57,506 - Detektovan simbol - ime: c1, vrsta: promenjiva, tip: char na liniji 16
INFO  10:26:57,506 - Detektovan simbol - ime: c2, vrsta: promenjiva, tip: char na liniji 16
INFO  10:26:57,506 - Detektovan simbol - ime: b1, vrsta: promenjiva, tip: bool na liniji 17
INFO  10:26:57,506 - Detektovan simbol - ime: b2, vrsta: promenjiva, tip: bool na liniji 17
INFO  10:26:57,506 - Detektovan simbol - ime: a1, vrsta: promenjiva, tip: int na liniji 19
INFO  10:26:57,506 - Detektovan simbol - ime: arr, vrsta: element niza, tip: array na liniji 20
INFO  10:26:57,506 - Detektovan simbol - ime: c1, vrsta: promenjiva, tip: char na liniji 21
ERROR 10:26:57,506 - Semanticka greska  na liniji 21: ocekivani tip: int
INFO  10:26:57,506 - Detektovan simbol - ime: b1, vrsta: promenjiva, tip: bool na liniji 22
ERROR 10:26:57,506 - Semanticka greska  na liniji 22: ocekivani tip: int
INFO  10:26:57,506 - Detektovan simbol - ime: arr, vrsta: promenjiva, tip: array na liniji 23
ERROR 10:26:57,506 - Semanticka greska  na liniji 23: operand u izrazu mora oznacavati promenljivu, element niza ili polje objekta
ERROR 10:26:57,506 - Semanticka greska  na liniji 23: ocekivani tip: int
INFO  10:26:57,506 - Detektovan simbol - ime: a1, vrsta: promenjiva, tip: int na liniji 25
INFO  10:26:57,506 - Detektovan simbol - ime: arr, vrsta: element niza, tip: array na liniji 25
INFO  10:26:57,506 - Detektovan simbol - ime: c1, vrsta: promenjiva, tip: char na liniji 26
INFO  10:26:57,506 - Detektovan simbol - ime: arr, vrsta: element niza, tip: array na liniji 26
ERROR 10:26:57,506 - Semanticka greska  na liniji 26: nekompatibilni tipovi u dodeli vrednosti. 
INFO  10:26:57,506 - Detektovan simbol - ime: arr, vrsta: element niza, tip: array na liniji 27
INFO  10:26:57,506 - Detektovan simbol - ime: a2, vrsta: promenjiva, tip: int na liniji 27
INFO  10:26:57,506 - Detektovan simbol - ime: arr, vrsta: element niza, tip: array na liniji 28
INFO  10:26:57,506 - Detektovan simbol - ime: b1, vrsta: promenjiva, tip: bool na liniji 28
ERROR 10:26:57,506 - Semanticka greska  na liniji 28: nekompatibilni tipovi u dodeli vrednosti. 
INFO  10:26:57,506 - Detektovan simbol - ime: arr, vrsta: element niza, tip: array na liniji 29
INFO  10:26:57,506 - Detektovan simbol - ime: arr2, vrsta: element niza, tip: array na liniji 29
INFO  10:26:57,506 - Detektovan simbol - ime: arr, vrsta: promenjiva, tip: array na liniji 30
INFO  10:26:57,506 - Detektovan simbol - ime: arr2, vrsta: promenjiva, tip: array na liniji 30
ERROR 10:26:57,506 - Semanticka greska  na liniji 30: Niz se ne moze naci sa desne strane dodele vrednosti.
INFO  10:26:57,506 - Detektovan simbol - ime: arr, vrsta: promenjiva, tip: array na liniji 31
INFO  10:26:57,506 - Detektovan simbol - ime: a1, vrsta: promenjiva, tip: int na liniji 34
INFO  10:26:57,506 - Detektovan simbol - ime: b1, vrsta: promenjiva, tip: bool na liniji 34
INFO  10:26:57,506 - Detektovan simbol - ime: c1, vrsta: promenjiva, tip: char na liniji 34
INFO  10:26:57,506 - Detektovan simbol - ime: arr, vrsta: element niza, tip: array na liniji 34
INFO  10:26:57,506 - Detektovan simbol - ime: arr, vrsta: promenjiva, tip: array na liniji 35
ERROR 10:26:57,506 - Semanticka greska  na liniji 35: operand funkcije READ mora oznacavati promenljivu, element niza ili polje objekta
ERROR 10:26:57,506 - Semanticka greska  na liniji 35: operand funkcije READ mora biti char ili int ili bool tipa
INFO  10:26:57,506 - Detektovan simbol - ime: a2, vrsta: promenjiva, tip: int na liniji 38
INFO  10:26:57,506 - Detektovan simbol - ime: b2, vrsta: promenjiva, tip: bool na liniji 38
INFO  10:26:57,506 - Detektovan simbol - ime: c2, vrsta: promenjiva, tip: char na liniji 38
INFO  10:26:57,506 - Detektovan simbol - ime: arr2, vrsta: element niza, tip: array na liniji 38
INFO  10:26:57,506 - Detektovan simbol - ime: arr2, vrsta: promenjiva, tip: array na liniji 40
ERROR 10:26:57,506 - Semanticka greska  na liniji 40: operand funkcije PRINT mora biti ili char ili int ili bool tipa
ERROR 10:26:57,522 - [Line #3 ]  SEMANTIC_ERROR: Semanticka greska  na liniji 3: greska pri dodeli vrednosti konstanti, tipovi nisu kompatiblni.
ERROR 10:26:57,522 - [Line #4 ]  SEMANTIC_ERROR: Semanticka greska  na liniji 4: greska pri dodeli vrednosti konstanti, tipovi nisu kompatiblni.
ERROR 10:26:57,522 - [Line #5 ]  SEMANTIC_ERROR: Semanticka greska  na liniji 5: greska pri dodeli vrednosti konstanti, tipovi nisu kompatiblni.
ERROR 10:26:57,522 - [Line #7 ]  SEMANTIC_ERROR: Semanticka greska  na liniji 7: greska pri dodeli vrednosti konstanti, tipovi nisu kompatiblni.
ERROR 10:26:57,522 - [Line #8 ]  SEMANTIC_ERROR: Semanticka greska  na liniji 8: greska pri dodeli vrednosti konstanti, tipovi nisu kompatiblni.
ERROR 10:26:57,522 - [Line #9 ]  SEMANTIC_ERROR: Semanticka greska  na liniji 9: greska pri dodeli vrednosti konstanti, tipovi nisu kompatiblni.
ERROR 10:26:57,522 - [Line #13]  SEMANTIC_ERROR: Semanticka greska  na liniji 13: A ne predstavlja tip.
ERROR 10:26:57,522 - [Line #21]  SEMANTIC_ERROR: Semanticka greska  na liniji 21: ocekivani tip: int
ERROR 10:26:57,522 - [Line #22]  SEMANTIC_ERROR: Semanticka greska  na liniji 22: ocekivani tip: int
ERROR 10:26:57,522 - [Line #23]  SEMANTIC_ERROR: Semanticka greska  na liniji 23: operand u izrazu mora oznacavati promenljivu, element niza ili polje objekta
ERROR 10:26:57,522 - [Line #23]  SEMANTIC_ERROR: Semanticka greska  na liniji 23: ocekivani tip: int
ERROR 10:26:57,522 - [Line #26]  SEMANTIC_ERROR: Semanticka greska  na liniji 26: nekompatibilni tipovi u dodeli vrednosti. 
ERROR 10:26:57,522 - [Line #28]  SEMANTIC_ERROR: Semanticka greska  na liniji 28: nekompatibilni tipovi u dodeli vrednosti. 
ERROR 10:26:57,522 - [Line #30]  SEMANTIC_ERROR: Semanticka greska  na liniji 30: Niz se ne moze naci sa desne strane dodele vrednosti.
ERROR 10:26:57,522 - [Line #35]  SEMANTIC_ERROR: Semanticka greska  na liniji 35: operand funkcije READ mora oznacavati promenljivu, element niza ili polje objekta
ERROR 10:26:57,522 - [Line #35]  SEMANTIC_ERROR: Semanticka greska  na liniji 35: operand funkcije READ mora biti char ili int ili bool tipa
ERROR 10:26:57,522 - [Line #40]  SEMANTIC_ERROR: Semanticka greska  na liniji 40: operand funkcije PRINT mora biti ili char ili int ili bool tipa
