INFO  20:55:57,300 - Compiling source file: C:\Users\popov\Desktop\Programski prevodioci\pp1_projekat\test\program.mj
INFO  20:55:57,396 - #2 program
INFO  20:55:57,396 - #8 MJ
INFO  20:55:57,396 - #3 class
INFO  20:55:57,396 - #8 A
INFO  20:55:57,396 - #16 {
INFO  20:55:57,396 - #8 int
INFO  20:55:57,412 - #8 a
INFO  20:55:57,412 - #12 ;
INFO  20:55:57,412 - #17 }
INFO  20:55:57,412 - #3 class
INFO  20:55:57,412 - #8 B
INFO  20:55:57,412 - #4 extends
INFO  20:55:57,412 - #8 int
INFO  20:55:57,412 - #16 {
INFO  20:55:57,412 - #17 }
INFO  20:55:57,412 - #16 {
INFO  20:55:57,412 - #5 void
INFO  20:55:57,412 - #8 main
INFO  20:55:57,412 - #18 (
INFO  20:55:57,412 - #19 )
INFO  20:55:57,412 - #16 {
INFO  20:55:57,427 - #17 }
INFO  20:55:57,427 - #17 }
INFO  20:55:57,427 - Program(
  ProgName(
   MJ
  ) [ProgName]
  Declarations(
    Declarations(
      NoDeclarations(
      ) [NoDeclarations]
      ClassDeclaration(
        ClassDecl(
          ClassName(
           A
          ) [ClassName]
          NoExtends(
          ) [NoExtends]
          FieldDecls(
            NoFieldDecls(
            ) [NoFieldDecls]
            VarDecls(
              Type(
               int
              ) [Type]
              SingleVar(
                Var(
                 a
                  Scalar(
                  ) [Scalar]
                ) [Var]
              ) [SingleVar]
            ) [VarDecls]
          ) [FieldDecls]
          NoClassMethods(
          ) [NoClassMethods]
        ) [ClassDecl]
      ) [ClassDeclaration]
    ) [Declarations]
    ClassDeclaration(
      ClassDecl(
        ClassName(
         B
        ) [ClassName]
        Extends(
          Type(
           int
          ) [Type]
        ) [Extends]
        NoFieldDecls(
        ) [NoFieldDecls]
        NoClassMethods(
        ) [NoClassMethods]
      ) [ClassDecl]
    ) [ClassDeclaration]
  ) [Declarations]
  MethodDeclarations(
    NoMethodDeclarations(
    ) [NoMethodDeclarations]
    MethodDecl(
      MethodTypeName(
        MethodTypeVoid(
        ) [MethodTypeVoid]
       main
      ) [MethodTypeName]
      NoFormParams(
      ) [NoFormParams]
      NoMethodVars(
      ) [NoMethodVars]
      NoStatements(
      ) [NoStatements]
    ) [MethodDecl]
  ) [MethodDeclarations]
) [Program]
INFO  20:55:57,427 - ===================================
ERROR 20:55:57,427 - Semanticka greska na liniji 5, tip int nije tipa klase i ne moze se korisitit pri izvodjenju.
INFO  20:55:57,427 - Obradjuje se funkcija main na liniji 9
INFO  20:55:57,427 -  Print count calls = 0
INFO  20:55:57,443 -  Deklarisanih promenljivih ima = 0
INFO  20:55:57,443 - ===================================
INFO  20:55:57,443 - Parsiranje uspesno zavrseno!
