INFO  09:52:34,993 - Compiling source file: C:\Users\popov\Desktop\Programski prevodioci\pp1_projekat\test\program.mj
INFO  09:52:35,102 - #2 program
INFO  09:52:35,102 - #8 MJ
INFO  09:52:35,102 - #3 class
INFO  09:52:35,102 - #8 A
INFO  09:52:35,102 - #16 {
INFO  09:52:35,102 - #16 {
INFO  09:52:35,102 - #5 void
INFO  09:52:35,102 - #8 m
INFO  09:52:35,102 - #18 (
INFO  09:52:35,102 - #19 )
INFO  09:52:35,102 - #16 {
INFO  09:52:35,102 - #17 }
INFO  09:52:35,102 - #17 }
INFO  09:52:35,118 - #17 }
INFO  09:52:35,118 - #16 {
INFO  09:52:35,118 - #5 void
INFO  09:52:35,118 - #8 main
INFO  09:52:35,118 - #18 (
INFO  09:52:35,118 - #19 )
INFO  09:52:35,118 - #8 int
INFO  09:52:35,118 - #8 i
INFO  09:52:35,118 - #12 ;
INFO  09:52:35,118 - #8 char
INFO  09:52:35,118 - #8 c
INFO  09:52:35,118 - #12 ;
INFO  09:52:35,118 - #8 A
INFO  09:52:35,118 - #8 obj
INFO  09:52:35,118 - #12 ;
INFO  09:52:35,118 - #16 {
INFO  09:52:35,118 - #8 obj
INFO  09:52:35,118 - #15 .
INFO  09:52:35,118 - #8 m
INFO  09:52:35,118 - #18 (
INFO  09:52:35,134 - #19 )
INFO  09:52:35,134 - #12 ;
INFO  09:52:35,134 - #8 i
INFO  09:52:35,134 - #34 =
INFO  09:52:35,134 - #9 5
INFO  09:52:35,134 - #12 ;
INFO  09:52:35,134 - #8 c
INFO  09:52:35,134 - #34 =
INFO  09:52:35,134 - #10 0
INFO  09:52:35,134 - #12 ;
INFO  09:52:35,134 - #33 print
INFO  09:52:35,134 - #18 (
INFO  09:52:35,134 - #8 ord
INFO  09:52:35,134 - #18 (
INFO  09:52:35,134 - #8 c
INFO  09:52:35,134 - #19 )
INFO  09:52:35,134 - #19 )
INFO  09:52:35,134 - #12 ;
INFO  09:52:35,149 - #33 print
INFO  09:52:35,149 - #18 (
INFO  09:52:35,149 - #8 chr
INFO  09:52:35,149 - #18 (
INFO  09:52:35,149 - #8 i
INFO  09:52:35,149 - #19 )
INFO  09:52:35,149 - #19 )
INFO  09:52:35,149 - #12 ;
INFO  09:52:35,149 - #17 }
INFO  09:52:35,149 - #17 }
INFO  09:52:35,149 - Program(
  ProgName(
   MJ
  ) [ProgName]
  Declarations(
    NoDeclarations(
    ) [NoDeclarations]
    ClassDeclaration(
      ClassDecl(
        ClassName(
         A
        ) [ClassName]
        NoExtends(
        ) [NoExtends]
        NoFieldDecls(
        ) [NoFieldDecls]
        ClassMethodDecls(
          MethodDeclarations(
            NoMethodDeclarations(
            ) [NoMethodDeclarations]
            MethodDecl(
              MethodTypeName(
                MethodTypeVoid(
                ) [MethodTypeVoid]
               m
              ) [MethodTypeName]
              NoFormParams(
              ) [NoFormParams]
              NoMethodVars(
              ) [NoMethodVars]
              NoStatements(
              ) [NoStatements]
            ) [MethodDecl]
          ) [MethodDeclarations]
        ) [ClassMethodDecls]
      ) [ClassDecl]
    ) [ClassDeclaration]
  ) [Declarations]
  MethodDeclarations(
    NoMethodDeclarations(
    ) [NoMethodDeclarations]
    MethodDecl(
      MethodTypeName(
        MethodTypeVoid(
        ) [MethodTypeVoid]
       main
      ) [MethodTypeName]
      NoFormParams(
      ) [NoFormParams]
      MethodVars(
        MethodVars(
          MethodVars(
            NoMethodVars(
            ) [NoMethodVars]
            VarDecls(
              Type(
               int
              ) [Type]
              SingleVar(
                Var(
                 i
                  Scalar(
                  ) [Scalar]
                ) [Var]
              ) [SingleVar]
            ) [VarDecls]
          ) [MethodVars]
          VarDecls(
            Type(
             char
            ) [Type]
            SingleVar(
              Var(
               c
                Scalar(
                ) [Scalar]
              ) [Var]
            ) [SingleVar]
          ) [VarDecls]
        ) [MethodVars]
        VarDecls(
          Type(
           A
          ) [Type]
          SingleVar(
            Var(
             obj
              Scalar(
              ) [Scalar]
            ) [Var]
          ) [SingleVar]
        ) [VarDecls]
      ) [MethodVars]
      StatementListImpl(
        StatementListImpl(
          StatementListImpl(
            StatementListImpl(
              StatementListImpl(
                NoStatements(
                ) [NoStatements]
                StatementDerived1(
                  DesignatorStatement(
                    DesignatorDot(
                      DesignatorFirst(
                       obj
                      ) [DesignatorFirst]
                      SingleDesignatorChain(
                        DesignatorVal(
                          DesignatorValName(
                           m
                          ) [DesignatorValName]
                          NoDesignatorValArray(
                          ) [NoDesignatorValArray]
                        ) [DesignatorVal]
                      ) [SingleDesignatorChain]
                    ) [DesignatorDot]
                    FunctionCall(
                      ActParsStart(
                      ) [ActParsStart]
                      NoActPars(
                      ) [NoActPars]
                      ActParsEnd(
                      ) [ActParsEnd]
                    ) [FunctionCall]
                  ) [DesignatorStatement]
                ) [StatementDerived1]
              ) [StatementListImpl]
              StatementDerived1(
                DesignatorStatement(
                  SingleDesignator(
                    DesignatorFirst(
                     i
                    ) [DesignatorFirst]
                    NoDesignatorValArray(
                    ) [NoDesignatorValArray]
                  ) [SingleDesignator]
                  AssignOperation(
                    Assignop(
                    ) [Assignop]
                    ExprImpl(
                      ExprSum(
                        TermImpl(
                          NoMinusBegin(
                          ) [NoMinusBegin]
                          FactorTerm(
                            FactorConst(
                              ConstValueNumber(
                               5
                              ) [ConstValueNumber]
                            ) [FactorConst]
                          ) [FactorTerm]
                        ) [TermImpl]
                      ) [ExprSum]
                    ) [ExprImpl]
                  ) [AssignOperation]
                ) [DesignatorStatement]
              ) [StatementDerived1]
            ) [StatementListImpl]
            StatementDerived1(
              DesignatorStatement(
                SingleDesignator(
                  DesignatorFirst(
                   c
                  ) [DesignatorFirst]
                  NoDesignatorValArray(
                  ) [NoDesignatorValArray]
                ) [SingleDesignator]
                AssignOperation(
                  Assignop(
                  ) [Assignop]
                  ExprImpl(
                    ExprSum(
                      TermImpl(
                        NoMinusBegin(
                        ) [NoMinusBegin]
                        FactorTerm(
                          FactorConst(
                            ConstValueChar(
                             0
                            ) [ConstValueChar]
                          ) [FactorConst]
                        ) [FactorTerm]
                      ) [TermImpl]
                    ) [ExprSum]
                  ) [ExprImpl]
                ) [AssignOperation]
              ) [DesignatorStatement]
            ) [StatementDerived1]
          ) [StatementListImpl]
          StatementDerived10(
            PrintStatement(
              PrintStart(
              ) [PrintStart]
              ExprImpl(
                ExprSum(
                  TermImpl(
                    NoMinusBegin(
                    ) [NoMinusBegin]
                    FactorTerm(
                      FactorDesignator(
                        SingleDesignator(
                          DesignatorFirst(
                           ord
                          ) [DesignatorFirst]
                          NoDesignatorValArray(
                          ) [NoDesignatorValArray]
                        ) [SingleDesignator]
                        ActParsInBrackets(
                          ActParsStart(
                          ) [ActParsStart]
                          ActParsList(
                            SingleActParam(
                              ActParam(
                                ExprImpl(
                                  ExprSum(
                                    TermImpl(
                                      NoMinusBegin(
                                      ) [NoMinusBegin]
                                      FactorTerm(
                                        FactorDesignator(
                                          SingleDesignator(
                                            DesignatorFirst(
                                             c
                                            ) [DesignatorFirst]
                                            NoDesignatorValArray(
                                            ) [NoDesignatorValArray]
                                          ) [SingleDesignator]
                                          NoActParsInBrackets(
                                          ) [NoActParsInBrackets]
                                        ) [FactorDesignator]
                                      ) [FactorTerm]
                                    ) [TermImpl]
                                  ) [ExprSum]
                                ) [ExprImpl]
                              ) [ActParam]
                            ) [SingleActParam]
                          ) [ActParsList]
                          ActParsEnd(
                          ) [ActParsEnd]
                        ) [ActParsInBrackets]
                      ) [FactorDesignator]
                    ) [FactorTerm]
                  ) [TermImpl]
                ) [ExprSum]
              ) [ExprImpl]
              NoNumConst(
              ) [NoNumConst]
              PrintEnd(
              ) [PrintEnd]
            ) [PrintStatement]
          ) [StatementDerived10]
        ) [StatementListImpl]
        StatementDerived10(
          PrintStatement(
            PrintStart(
            ) [PrintStart]
            ExprImpl(
              ExprSum(
                TermImpl(
                  NoMinusBegin(
                  ) [NoMinusBegin]
                  FactorTerm(
                    FactorDesignator(
                      SingleDesignator(
                        DesignatorFirst(
                         chr
                        ) [DesignatorFirst]
                        NoDesignatorValArray(
                        ) [NoDesignatorValArray]
                      ) [SingleDesignator]
                      ActParsInBrackets(
                        ActParsStart(
                        ) [ActParsStart]
                        ActParsList(
                          SingleActParam(
                            ActParam(
                              ExprImpl(
                                ExprSum(
                                  TermImpl(
                                    NoMinusBegin(
                                    ) [NoMinusBegin]
                                    FactorTerm(
                                      FactorDesignator(
                                        SingleDesignator(
                                          DesignatorFirst(
                                           i
                                          ) [DesignatorFirst]
                                          NoDesignatorValArray(
                                          ) [NoDesignatorValArray]
                                        ) [SingleDesignator]
                                        NoActParsInBrackets(
                                        ) [NoActParsInBrackets]
                                      ) [FactorDesignator]
                                    ) [FactorTerm]
                                  ) [TermImpl]
                                ) [ExprSum]
                              ) [ExprImpl]
                            ) [ActParam]
                          ) [SingleActParam]
                        ) [ActParsList]
                        ActParsEnd(
                        ) [ActParsEnd]
                      ) [ActParsInBrackets]
                    ) [FactorDesignator]
                  ) [FactorTerm]
                ) [TermImpl]
              ) [ExprSum]
            ) [ExprImpl]
            NoNumConst(
            ) [NoNumConst]
            PrintEnd(
            ) [PrintEnd]
          ) [PrintStatement]
        ) [StatementDerived10]
      ) [StatementListImpl]
    ) [MethodDecl]
  ) [MethodDeclarations]
) [Program]
INFO  09:52:35,149 - ===================================
INFO  09:52:35,165 - Obradjuje se funkcija m na liniji 4
INFO  09:52:35,165 - Obradjuje se funkcija main na liniji 8
ERROR 09:52:35,165 - Greska pri pozivu funkcije , ocekivani broj argumenata: 0, stvarni broj argumenata: 1
ERROR 09:52:35,165 - Greska pri pozivu funkcije , ocekivani broj argumenata: 0, stvarni broj argumenata: 1
INFO  09:52:35,165 -  Print count calls = 0
INFO  09:52:35,165 -  Deklarisanih promenljivih ima = 0
INFO  09:52:35,165 - ===================================
ERROR 09:52:35,165 - Parsiranje NIJE uspesno zavrseno!
