INFO  10:10:08,766 - Compiling source file: C:\Users\popov\Desktop\Programski prevodioci\pp1_projekat\test\program.mj
INFO  10:10:08,876 - #2 program
INFO  10:10:08,876 - #8 MJ
INFO  10:10:08,876 - #16 {
INFO  10:10:08,876 - #5 void
INFO  10:10:08,876 - #8 f
INFO  10:10:08,876 - #18 (
INFO  10:10:08,876 - #8 int
INFO  10:10:08,876 - #8 val
INFO  10:10:08,876 - #19 )
INFO  10:10:08,876 - #16 {
INFO  10:10:08,876 - #17 }
INFO  10:10:08,891 - #5 void
INFO  10:10:08,891 - #8 main
INFO  10:10:08,891 - #18 (
INFO  10:10:08,891 - #19 )
INFO  10:10:08,891 - #8 int
INFO  10:10:08,891 - #8 i
INFO  10:10:08,891 - #12 ;
INFO  10:10:08,891 - #8 char
INFO  10:10:08,891 - #8 c
INFO  10:10:08,891 - #12 ;
INFO  10:10:08,891 - #8 int
INFO  10:10:08,900 - #8 arr
INFO  10:10:08,900 - #20 [
INFO  10:10:08,900 - #21 ]
INFO  10:10:08,900 - #12 ;
INFO  10:10:08,900 - #16 {
INFO  10:10:08,900 - #8 arr
INFO  10:10:08,900 - #34 =
INFO  10:10:08,900 - #7 new
INFO  10:10:08,900 - #8 int
INFO  10:10:08,900 - #20 [
INFO  10:10:08,900 - #9 8
INFO  10:10:08,900 - #21 ]
INFO  10:10:08,900 - #12 ;
INFO  10:10:08,900 - #8 f
INFO  10:10:08,900 - #18 (
INFO  10:10:08,900 - #8 arr
INFO  10:10:08,900 - #20 [
INFO  10:10:08,900 - #9 0
INFO  10:10:08,900 - #21 ]
INFO  10:10:08,900 - #19 )
INFO  10:10:08,915 - #12 ;
INFO  10:10:08,915 - #17 }
INFO  10:10:08,915 - #17 }
INFO  10:10:08,915 - Program(
  ProgName(
   MJ
  ) [ProgName]
  NoDeclarations(
  ) [NoDeclarations]
  MethodDeclarations(
    MethodDeclarations(
      NoMethodDeclarations(
      ) [NoMethodDeclarations]
      MethodDecl(
        MethodTypeName(
          MethodTypeVoid(
          ) [MethodTypeVoid]
         f
        ) [MethodTypeName]
        FormParams(
          SingleFormParam(
            FormParam(
              Type(
               int
              ) [Type]
             val
              Scalar(
              ) [Scalar]
            ) [FormParam]
          ) [SingleFormParam]
        ) [FormParams]
        NoMethodVars(
        ) [NoMethodVars]
        NoStatements(
        ) [NoStatements]
      ) [MethodDecl]
    ) [MethodDeclarations]
    MethodDecl(
      MethodTypeName(
        MethodTypeVoid(
        ) [MethodTypeVoid]
       main
      ) [MethodTypeName]
      NoFormParams(
      ) [NoFormParams]
      MethodVars(
        MethodVars(
          MethodVars(
            NoMethodVars(
            ) [NoMethodVars]
            VarDecls(
              Type(
               int
              ) [Type]
              SingleVar(
                Var(
                 i
                  Scalar(
                  ) [Scalar]
                ) [Var]
              ) [SingleVar]
            ) [VarDecls]
          ) [MethodVars]
          VarDecls(
            Type(
             char
            ) [Type]
            SingleVar(
              Var(
               c
                Scalar(
                ) [Scalar]
              ) [Var]
            ) [SingleVar]
          ) [VarDecls]
        ) [MethodVars]
        VarDecls(
          Type(
           int
          ) [Type]
          SingleVar(
            Var(
             arr
              Array(
              ) [Array]
            ) [Var]
          ) [SingleVar]
        ) [VarDecls]
      ) [MethodVars]
      StatementListImpl(
        StatementListImpl(
          NoStatements(
          ) [NoStatements]
          StatementDerived1(
            DesignatorStatement(
              SingleDesignator(
                DesignatorFirst(
                 arr
                ) [DesignatorFirst]
                NoDesignatorValArray(
                ) [NoDesignatorValArray]
              ) [SingleDesignator]
              AssignOperation(
                Assignop(
                ) [Assignop]
                ExprImpl(
                  ExprSum(
                    TermImpl(
                      NoMinusBegin(
                      ) [NoMinusBegin]
                      FactorTerm(
                        FactorNew(
                          Type(
                           int
                          ) [Type]
                          ExprInSquares(
                            ExprImpl(
                              ExprSum(
                                TermImpl(
                                  NoMinusBegin(
                                  ) [NoMinusBegin]
                                  FactorTerm(
                                    FactorConst(
                                      ConstValueNumber(
                                       8
                                      ) [ConstValueNumber]
                                    ) [FactorConst]
                                  ) [FactorTerm]
                                ) [TermImpl]
                              ) [ExprSum]
                            ) [ExprImpl]
                          ) [ExprInSquares]
                        ) [FactorNew]
                      ) [FactorTerm]
                    ) [TermImpl]
                  ) [ExprSum]
                ) [ExprImpl]
              ) [AssignOperation]
            ) [DesignatorStatement]
          ) [StatementDerived1]
        ) [StatementListImpl]
        StatementDerived1(
          DesignatorStatement(
            SingleDesignator(
              DesignatorFirst(
               f
              ) [DesignatorFirst]
              NoDesignatorValArray(
              ) [NoDesignatorValArray]
            ) [SingleDesignator]
            FunctionCall(
              ActParsStart(
              ) [ActParsStart]
              ActParsList(
                SingleActParam(
                  ActParam(
                    ExprImpl(
                      ExprSum(
                        TermImpl(
                          NoMinusBegin(
                          ) [NoMinusBegin]
                          FactorTerm(
                            FactorDesignator(
                              SingleDesignator(
                                DesignatorFirst(
                                 arr
                                ) [DesignatorFirst]
                                DesignatorValArray(
                                  StartOfDesignatorIndex(
                                  ) [StartOfDesignatorIndex]
                                  ExprImpl(
                                    ExprSum(
                                      TermImpl(
                                        NoMinusBegin(
                                        ) [NoMinusBegin]
                                        FactorTerm(
                                          FactorConst(
                                            ConstValueNumber(
                                             0
                                            ) [ConstValueNumber]
                                          ) [FactorConst]
                                        ) [FactorTerm]
                                      ) [TermImpl]
                                    ) [ExprSum]
                                  ) [ExprImpl]
                                  EndOfDesignatorIndex(
                                  ) [EndOfDesignatorIndex]
                                ) [DesignatorValArray]
                              ) [SingleDesignator]
                              NoActParsInBrackets(
                              ) [NoActParsInBrackets]
                            ) [FactorDesignator]
                          ) [FactorTerm]
                        ) [TermImpl]
                      ) [ExprSum]
                    ) [ExprImpl]
                  ) [ActParam]
                ) [SingleActParam]
              ) [ActParsList]
              ActParsEnd(
              ) [ActParsEnd]
            ) [FunctionCall]
          ) [DesignatorStatement]
        ) [StatementDerived1]
      ) [StatementListImpl]
    ) [MethodDecl]
  ) [MethodDeclarations]
) [Program]
INFO  10:10:08,915 - ===================================
INFO  10:10:08,915 - Obradjuje se funkcija f na liniji 3
INFO  10:10:08,915 - Obradjuje se funkcija main na liniji 4
INFO  10:10:08,931 -  Print count calls = 0
INFO  10:10:08,931 -  Deklarisanih promenljivih ima = 0
INFO  10:10:08,931 - ===================================
INFO  10:10:08,947 - Parsiranje uspesno zavrseno!
