INFO  16:58:56,552 - Compiling source file: C:\Users\popov\Desktop\Programski prevodioci\pp1_projekat\test\program.mj
INFO  16:58:56,726 - #2 program
INFO  16:58:56,726 - #8 MJ
INFO  16:58:56,726 - #8 int
INFO  16:58:56,742 - #8 a
INFO  16:58:56,742 - #12 ;
INFO  16:58:56,742 - #16 {
INFO  16:58:56,757 - #5 void
INFO  16:58:56,757 - #8 main
INFO  16:58:56,757 - #18 (
INFO  16:58:56,757 - #19 )
INFO  16:58:56,757 - #16 {
INFO  16:58:56,757 - #17 }
INFO  16:58:56,773 - #17 }
INFO  16:58:56,789 - Program(
  ProgName(
   MJ
  ) [ProgName]
  Declarations(
    NoDeclarations(
    ) [NoDeclarations]
    VarDeclarations(
      VarDecls(
        Type(
         int
        ) [Type]
        SingleVar(
          Var(
           a
            Scalar(
            ) [Scalar]
          ) [Var]
        ) [SingleVar]
      ) [VarDecls]
    ) [VarDeclarations]
  ) [Declarations]
  MethodDeclarations(
    NoMethodDeclarations(
    ) [NoMethodDeclarations]
    MethodDecl(
      MethodTypeName(
        MethodTypeVoid(
        ) [MethodTypeVoid]
       main
      ) [MethodTypeName]
      NoFormParams(
      ) [NoFormParams]
      NoMethodVars(
      ) [NoMethodVars]
      NoStatements(
      ) [NoStatements]
    ) [MethodDecl]
  ) [MethodDeclarations]
) [Program]
INFO  16:58:56,789 - ===================================
INFO  16:58:56,805 - Obradjuje se funkcija main na liniji 4
INFO  16:58:56,805 -  Print count calls = 0
INFO  16:58:56,805 -  Deklarisanih promenljivih ima = 0
INFO  16:58:56,805 - ===================================
INFO  16:58:56,835 - Parsiranje uspesno zavrseno!
