INFO  22:09:48,951 - Compiling source file: C:\Users\popov\Desktop\Programski prevodioci\pp1_projekat\test\program.mj
INFO  22:09:49,046 - #2 program
INFO  22:09:49,046 - #8 MJ
INFO  22:09:49,046 - #8 int
INFO  22:09:49,046 - #8 a
INFO  22:09:49,046 - #13 ,
INFO  22:09:49,062 - #8 b
INFO  22:09:49,062 - #12 ;
INFO  22:09:49,062 - #16 {
INFO  22:09:49,062 - #5 void
INFO  22:09:49,062 - #8 f
INFO  22:09:49,062 - #18 (
INFO  22:09:49,062 - #8 int
INFO  22:09:49,062 - #8 c
INFO  22:09:49,062 - #13 ,
INFO  22:09:49,062 - #8 char
INFO  22:09:49,062 - #8 d
INFO  22:09:49,062 - #19 )
INFO  22:09:49,062 - #16 {
INFO  22:09:49,062 - #17 }
INFO  22:09:49,062 - #5 void
INFO  22:09:49,062 - #8 main
INFO  22:09:49,062 - #18 (
INFO  22:09:49,074 - #19 )
INFO  22:09:49,074 - #16 {
INFO  22:09:49,074 - #17 }
INFO  22:09:49,074 - #17 }
INFO  22:09:49,074 - Program(
  ProgName(
   MJ
  ) [ProgName]
  Declarations(
    NoDeclarations(
    ) [NoDeclarations]
    VarDeclarations(
      VarDecls(
        Type(
         int
        ) [Type]
        VarVars(
          SingleVar(
            Var1(
             a
              Scalar(
              ) [Scalar]
            ) [Var1]
          ) [SingleVar]
          Var1(
           b
            Scalar(
            ) [Scalar]
          ) [Var1]
        ) [VarVars]
      ) [VarDecls]
    ) [VarDeclarations]
  ) [Declarations]
  MethodDeclarations(
    MethodDeclarations(
      NoMethodDeclarations(
      ) [NoMethodDeclarations]
      MethodDecl(
        MethodTypeName(
          MethodTypeVoid(
          ) [MethodTypeVoid]
         f
        ) [MethodTypeName]
        FormParams(
          FormParamDecls(
            SingleFormParam(
              FormParam1(
                Type(
                 int
                ) [Type]
               c
                Scalar(
                ) [Scalar]
              ) [FormParam1]
            ) [SingleFormParam]
            FormParam1(
              Type(
               char
              ) [Type]
             d
              Scalar(
              ) [Scalar]
            ) [FormParam1]
          ) [FormParamDecls]
        ) [FormParams]
        NoMethodVars(
        ) [NoMethodVars]
        NoStatements(
        ) [NoStatements]
      ) [MethodDecl]
    ) [MethodDeclarations]
    MethodDecl(
      MethodTypeName(
        MethodTypeVoid(
        ) [MethodTypeVoid]
       main
      ) [MethodTypeName]
      NoFormParams(
      ) [NoFormParams]
      NoMethodVars(
      ) [NoMethodVars]
      NoStatements(
      ) [NoStatements]
    ) [MethodDecl]
  ) [MethodDeclarations]
) [Program]
INFO  22:09:49,074 - ===================================
INFO  22:09:49,074 - Obradjuje se funkcija f na liniji 4
INFO  22:09:49,074 - Obradjuje se funkcija main na liniji 7
INFO  22:09:49,074 -  Print count calls = 0
INFO  22:09:49,074 -  Deklarisanih promenljivih ima = 0
INFO  22:09:49,074 - ===================================
INFO  22:09:49,090 - Parsiranje uspesno zavrseno!
