INFO  10:02:25,688 - #2 program
INFO  10:02:25,688 - #8 MJ
INFO  10:02:25,688 - #8 int
INFO  10:02:25,688 - #8 a
INFO  10:02:25,688 - #12 ;
INFO  10:02:25,688 - #8 int
INFO  10:02:25,688 - #8 b
INFO  10:02:25,688 - #13 ,
INFO  10:02:25,688 - #8 c
INFO  10:02:25,688 - #13 ,
INFO  10:02:25,688 - #8 a
INFO  10:02:25,688 - #12 ;
INFO  10:02:25,688 - #8 bool
INFO  10:02:25,688 - #8 b
INFO  10:02:25,688 - #12 ;
INFO  10:02:25,688 - #3 class
INFO  10:02:25,688 - #8 A
INFO  10:02:25,688 - #16 {
INFO  10:02:25,704 - #8 int
INFO  10:02:25,704 - #8 i
INFO  10:02:25,704 - #12 ;
INFO  10:02:25,704 - #8 char
INFO  10:02:25,704 - #8 i
INFO  10:02:25,704 - #12 ;
INFO  10:02:25,704 - #16 {
INFO  10:02:25,704 - #5 void
INFO  10:02:25,704 - #8 m
INFO  10:02:25,704 - #18 (
INFO  10:02:25,704 - #19 )
INFO  10:02:25,704 - #16 {
INFO  10:02:25,704 - #17 }
INFO  10:02:25,704 - #8 int
INFO  10:02:25,704 - #8 m1
INFO  10:02:25,704 - #18 (
INFO  10:02:25,704 - #19 )
INFO  10:02:25,704 - #16 {
INFO  10:02:25,704 - #31 return
INFO  10:02:25,704 - #9 5
INFO  10:02:25,704 - #12 ;
INFO  10:02:25,720 - #17 }
INFO  10:02:25,720 - #8 char
INFO  10:02:25,720 - #8 m
INFO  10:02:25,720 - #18 (
INFO  10:02:25,720 - #19 )
INFO  10:02:25,720 - #16 {
INFO  10:02:25,720 - #17 }
INFO  10:02:25,720 - #17 }
INFO  10:02:25,720 - #17 }
INFO  10:02:25,720 - #16 {
INFO  10:02:25,720 - #5 void
INFO  10:02:25,720 - #8 f
INFO  10:02:25,720 - #18 (
INFO  10:02:25,720 - #8 int
INFO  10:02:25,720 - #8 a1
INFO  10:02:25,720 - #13 ,
INFO  10:02:25,720 - #8 int
INFO  10:02:25,720 - #8 b1
INFO  10:02:25,720 - #13 ,
INFO  10:02:25,720 - #8 char
INFO  10:02:25,720 - #8 a1
INFO  10:02:25,720 - #19 )
INFO  10:02:25,720 - #8 bool
INFO  10:02:25,720 - #8 a1
INFO  10:02:25,720 - #12 ;
INFO  10:02:25,720 - #16 {
INFO  10:02:25,720 - #17 }
INFO  10:02:25,720 - #5 void
INFO  10:02:25,720 - #8 main
INFO  10:02:25,720 - #18 (
INFO  10:02:25,720 - #19 )
INFO  10:02:25,720 - #16 {
INFO  10:02:25,720 - #17 }
INFO  10:02:25,720 - #17 }
ERROR 10:02:25,735 - Semanticka greska  na liniji 3: promenljiva a je vec deklarisana
ERROR 10:02:25,735 - Semanticka greska  na liniji 4: promenljiva b je vec deklarisana
ERROR 10:02:25,735 - Semanticka greska  na liniji 7: promenljiva i je vec deklarisana
INFO  10:02:25,735 - Obradjuje se funkcija m na liniji 9
INFO  10:02:25,735 - Obradjuje se funkcija m1 na liniji 10
ERROR 10:02:25,735 - Semanticka greska  na liniji 13: funkcija sa istim imenom m je vec definisana u opsegu
INFO  10:02:25,735 - Obradjuje se funkcija f na liniji 17
ERROR 10:02:25,735 - Semanticka greska  na liniji 17: ime a1 je vec deklarisano u opsegu
ERROR 10:02:25,735 - Semanticka greska  na liniji 18: promenljiva a1 je vec deklarisana
INFO  10:02:25,735 - Obradjuje se funkcija main na liniji 19
ERROR 10:02:25,735 - [Line #3 ]  SEMANTIC_ERROR: Semanticka greska  na liniji 3: promenljiva a je vec deklarisana
ERROR 10:02:25,735 - [Line #4 ]  SEMANTIC_ERROR: Semanticka greska  na liniji 4: promenljiva b je vec deklarisana
ERROR 10:02:25,735 - [Line #7 ]  SEMANTIC_ERROR: Semanticka greska  na liniji 7: promenljiva i je vec deklarisana
ERROR 10:02:25,735 - [Line #13]  SEMANTIC_ERROR: Semanticka greska  na liniji 13: funkcija sa istim imenom m je vec definisana u opsegu
ERROR 10:02:25,735 - [Line #17]  SEMANTIC_ERROR: Semanticka greska  na liniji 17: ime a1 je vec deklarisano u opsegu
ERROR 10:02:25,735 - [Line #18]  SEMANTIC_ERROR: Semanticka greska  na liniji 18: promenljiva a1 je vec deklarisana
