INFO  10:08:39,173 - #2 program
INFO  10:08:39,173 - #8 MJ
INFO  10:08:39,173 - #6 const
INFO  10:08:39,188 - #8 int
INFO  10:08:39,188 - #8 a1
INFO  10:08:39,188 - #34 =
INFO  10:08:39,188 - #9 5
INFO  10:08:39,188 - #12 ;
INFO  10:08:39,188 - #6 const
INFO  10:08:39,188 - #8 int
INFO  10:08:39,188 - #8 a2
INFO  10:08:39,188 - #34 =
INFO  10:08:39,188 - #10 a
INFO  10:08:39,188 - #12 ;
INFO  10:08:39,188 - #6 const
INFO  10:08:39,188 - #8 int
INFO  10:08:39,188 - #8 a3
INFO  10:08:39,188 - #34 =
INFO  10:08:39,188 - #11 true
INFO  10:08:39,188 - #12 ;
INFO  10:08:39,188 - #6 const
INFO  10:08:39,188 - #8 char
INFO  10:08:39,188 - #8 c1
INFO  10:08:39,188 - #34 =
INFO  10:08:39,188 - #9 5
INFO  10:08:39,188 - #12 ;
INFO  10:08:39,188 - #6 const
INFO  10:08:39,188 - #8 char
INFO  10:08:39,188 - #8 c2
INFO  10:08:39,188 - #34 =
INFO  10:08:39,188 - #10 a
INFO  10:08:39,188 - #12 ;
INFO  10:08:39,188 - #6 const
INFO  10:08:39,188 - #8 char
INFO  10:08:39,188 - #8 c3
INFO  10:08:39,188 - #34 =
INFO  10:08:39,188 - #11 false
INFO  10:08:39,188 - #12 ;
INFO  10:08:39,188 - #6 const
INFO  10:08:39,188 - #8 bool
INFO  10:08:39,188 - #8 b1
INFO  10:08:39,188 - #34 =
INFO  10:08:39,188 - #9 4
INFO  10:08:39,188 - #12 ;
INFO  10:08:39,188 - #6 const
INFO  10:08:39,188 - #8 bool
INFO  10:08:39,188 - #8 b2
INFO  10:08:39,188 - #34 =
INFO  10:08:39,188 - #10 b
INFO  10:08:39,188 - #12 ;
INFO  10:08:39,188 - #6 const
INFO  10:08:39,188 - #8 bool
INFO  10:08:39,188 - #8 b3
INFO  10:08:39,188 - #34 =
INFO  10:08:39,188 - #11 true
INFO  10:08:39,188 - #12 ;
INFO  10:08:39,188 - #16 {
INFO  10:08:39,188 - #5 void
INFO  10:08:39,188 - #8 main
INFO  10:08:39,188 - #18 (
INFO  10:08:39,188 - #19 )
INFO  10:08:39,188 - #8 int
INFO  10:08:39,204 - #8 a1
INFO  10:08:39,204 - #13 ,
INFO  10:08:39,204 - #8 a2
INFO  10:08:39,204 - #12 ;
INFO  10:08:39,204 - #8 char
INFO  10:08:39,204 - #8 c1
INFO  10:08:39,204 - #13 ,
INFO  10:08:39,204 - #8 c2
INFO  10:08:39,204 - #12 ;
INFO  10:08:39,204 - #8 bool
INFO  10:08:39,204 - #8 b1
INFO  10:08:39,204 - #13 ,
INFO  10:08:39,204 - #8 b2
INFO  10:08:39,204 - #12 ;
INFO  10:08:39,204 - #8 A
INFO  10:08:39,204 - #8 a
INFO  10:08:39,204 - #12 ;
INFO  10:08:39,204 - #16 {
INFO  10:08:39,204 - #8 a1
INFO  10:08:39,204 - #34 =
INFO  10:08:39,204 - #8 a2
INFO  10:08:39,204 - #12 ;
INFO  10:08:39,204 - #8 c1
INFO  10:08:39,204 - #34 =
INFO  10:08:39,204 - #8 c2
INFO  10:08:39,204 - #12 ;
INFO  10:08:39,204 - #8 b1
INFO  10:08:39,204 - #34 =
INFO  10:08:39,204 - #8 b2
INFO  10:08:39,204 - #12 ;
INFO  10:08:39,204 - #17 }
INFO  10:08:39,204 - #17 }
ERROR 10:08:39,219 - Semanticka greska  na liniji 3: greska pri dodeli vrednosti konstanti, tipovi nisu kompatiblni.
ERROR 10:08:39,235 - Semanticka greska  na liniji 4: greska pri dodeli vrednosti konstanti, tipovi nisu kompatiblni.
ERROR 10:08:39,235 - Semanticka greska  na liniji 5: greska pri dodeli vrednosti konstanti, tipovi nisu kompatiblni.
ERROR 10:08:39,235 - Semanticka greska  na liniji 7: greska pri dodeli vrednosti konstanti, tipovi nisu kompatiblni.
ERROR 10:08:39,235 - Semanticka greska  na liniji 8: greska pri dodeli vrednosti konstanti, tipovi nisu kompatiblni.
ERROR 10:08:39,235 - Semanticka greska  na liniji 9: greska pri dodeli vrednosti konstanti, tipovi nisu kompatiblni.
INFO  10:08:39,235 - Obradjuje se funkcija main na liniji 12
ERROR 10:08:39,235 - Semanticka greska  na liniji 13: A ne predstavlja tip.
INFO  10:08:39,235 - Detektovan simbol - ime: a1, vrsta: promenjiva, tip: int na liniji 14
INFO  10:08:39,235 - Detektovan simbol - ime: a2, vrsta: promenjiva, tip: int na liniji 14
INFO  10:08:39,235 - Detektovan simbol - ime: c1, vrsta: promenjiva, tip: char na liniji 15
INFO  10:08:39,235 - Detektovan simbol - ime: c2, vrsta: promenjiva, tip: char na liniji 15
INFO  10:08:39,235 - Detektovan simbol - ime: b1, vrsta: promenjiva, tip: bool na liniji 16
INFO  10:08:39,235 - Detektovan simbol - ime: b2, vrsta: promenjiva, tip: bool na liniji 16
ERROR 10:08:39,235 - [Line #3 ]  SEMANTIC_ERROR: Semanticka greska  na liniji 3: greska pri dodeli vrednosti konstanti, tipovi nisu kompatiblni.
ERROR 10:08:39,235 - [Line #4 ]  SEMANTIC_ERROR: Semanticka greska  na liniji 4: greska pri dodeli vrednosti konstanti, tipovi nisu kompatiblni.
ERROR 10:08:39,235 - [Line #5 ]  SEMANTIC_ERROR: Semanticka greska  na liniji 5: greska pri dodeli vrednosti konstanti, tipovi nisu kompatiblni.
ERROR 10:08:39,235 - [Line #7 ]  SEMANTIC_ERROR: Semanticka greska  na liniji 7: greska pri dodeli vrednosti konstanti, tipovi nisu kompatiblni.
ERROR 10:08:39,235 - [Line #8 ]  SEMANTIC_ERROR: Semanticka greska  na liniji 8: greska pri dodeli vrednosti konstanti, tipovi nisu kompatiblni.
ERROR 10:08:39,235 - [Line #9 ]  SEMANTIC_ERROR: Semanticka greska  na liniji 9: greska pri dodeli vrednosti konstanti, tipovi nisu kompatiblni.
ERROR 10:08:39,235 - [Line #13]  SEMANTIC_ERROR: Semanticka greska  na liniji 13: A ne predstavlja tip.
