INFO  22:12:59,168 - Compiling source file: C:\Users\popov\Desktop\Programski prevodioci\pp1_projekat\test\program.mj
INFO  22:12:59,277 - #2 program
INFO  22:12:59,277 - #8 MJ
INFO  22:12:59,277 - #8 int
INFO  22:12:59,277 - #8 a
INFO  22:12:59,277 - #13 ,
INFO  22:12:59,277 - #8 b
INFO  22:12:59,277 - #12 ;
INFO  22:12:59,277 - #16 {
INFO  22:12:59,277 - #5 void
INFO  22:12:59,277 - #8 f
INFO  22:12:59,277 - #18 (
INFO  22:12:59,277 - #8 int
INFO  22:12:59,277 - #8 c
INFO  22:12:59,277 - #13 ,
INFO  22:12:59,277 - #8 char
INFO  22:12:59,277 - #8 d
INFO  22:12:59,277 - #19 )
INFO  22:12:59,277 - #16 {
INFO  22:12:59,277 - #17 }
INFO  22:12:59,277 - #5 void
INFO  22:12:59,277 - #8 main
INFO  22:12:59,277 - #18 (
INFO  22:12:59,294 - #19 )
INFO  22:12:59,294 - #16 {
INFO  22:12:59,294 - #22 if
INFO  22:12:59,294 - #18 (
INFO  22:12:59,294 - #8 a
INFO  22:12:59,294 - #39 >
INFO  22:12:59,294 - #9 5
INFO  22:12:59,294 - #19 )
INFO  22:12:59,294 - #16 {
INFO  22:12:59,294 - #17 }
INFO  22:12:59,294 - #17 }
INFO  22:12:59,294 - #17 }
INFO  22:12:59,310 - Program(
  ProgName(
   MJ
  ) [ProgName]
  Declarations(
    NoDeclarations(
    ) [NoDeclarations]
    VarDeclarations(
      VarDecls(
        Type(
         int
        ) [Type]
        VarVars(
          SingleVar(
            Var1(
             a
              Scalar(
              ) [Scalar]
            ) [Var1]
          ) [SingleVar]
          Var1(
           b
            Scalar(
            ) [Scalar]
          ) [Var1]
        ) [VarVars]
      ) [VarDecls]
    ) [VarDeclarations]
  ) [Declarations]
  MethodDeclarations(
    MethodDeclarations(
      NoMethodDeclarations(
      ) [NoMethodDeclarations]
      MethodDecl(
        MethodTypeName(
          MethodTypeVoid(
          ) [MethodTypeVoid]
         f
        ) [MethodTypeName]
        FormParams(
          FormParamDecls(
            SingleFormParam(
              FormParam1(
                Type(
                 int
                ) [Type]
               c
                Scalar(
                ) [Scalar]
              ) [FormParam1]
            ) [SingleFormParam]
            FormParam1(
              Type(
               char
              ) [Type]
             d
              Scalar(
              ) [Scalar]
            ) [FormParam1]
          ) [FormParamDecls]
        ) [FormParams]
        NoMethodVars(
        ) [NoMethodVars]
        NoStatements(
        ) [NoStatements]
      ) [MethodDecl]
    ) [MethodDeclarations]
    MethodDecl(
      MethodTypeName(
        MethodTypeVoid(
        ) [MethodTypeVoid]
       main
      ) [MethodTypeName]
      NoFormParams(
      ) [NoFormParams]
      NoMethodVars(
      ) [NoMethodVars]
      StatementListImpl(
        NoStatements(
        ) [NoStatements]
        StatementDerived2(
          IfThenStatement(
            IfStart(
            ) [IfStart]
            ConditionStart(
            ) [ConditionStart]
            SimpleCondition(
              SimpleCondTerm(
                RelopCondFact(
                  ExprImpl(
                    ExprSum(
                      TermImpl(
                        NoMinusBegin(
                        ) [NoMinusBegin]
                        FactorTerm(
                          FactorDesignator(
                            SingleDesignator(
                              DesignatorFirst(
                               a
                              ) [DesignatorFirst]
                              NoDesignatorValArray(
                              ) [NoDesignatorValArray]
                            ) [SingleDesignator]
                            NoActParsInBrackets(
                            ) [NoActParsInBrackets]
                          ) [FactorDesignator]
                        ) [FactorTerm]
                      ) [TermImpl]
                    ) [ExprSum]
                  ) [ExprImpl]
                  RelopGt(
                  ) [RelopGt]
                  ExprImpl(
                    ExprSum(
                      TermImpl(
                        NoMinusBegin(
                        ) [NoMinusBegin]
                        FactorTerm(
                          FactorConst(
                            ConstValueNumber(
                             5
                            ) [ConstValueNumber]
                          ) [FactorConst]
                        ) [FactorTerm]
                      ) [TermImpl]
                    ) [ExprSum]
                  ) [ExprImpl]
                ) [RelopCondFact]
              ) [SimpleCondTerm]
            ) [SimpleCondition]
            ConditionEnd(
            ) [ConditionEnd]
            StatementDerived11(
              NoStatements(
              ) [NoStatements]
            ) [StatementDerived11]
          ) [IfThenStatement]
        ) [StatementDerived2]
      ) [StatementListImpl]
    ) [MethodDecl]
  ) [MethodDeclarations]
) [Program]
INFO  22:12:59,310 - ===================================
INFO  22:12:59,310 - Obradjuje se funkcija f na liniji 4
INFO  22:12:59,310 - Obradjuje se funkcija main na liniji 7
INFO  22:12:59,325 -  Print count calls = 0
INFO  22:12:59,325 -  Deklarisanih promenljivih ima = 0
INFO  22:12:59,325 - ===================================
INFO  22:12:59,325 - Parsiranje uspesno zavrseno!
