INFO  16:40:41,764 - Compiling source file: C:\Users\popov\Desktop\Programski prevodioci\pp1_projekat\test\program.mj
INFO  16:40:41,951 - #2 program
INFO  16:40:41,951 - #8 test
INFO  16:40:41,951 - #3 class
INFO  16:40:41,951 - #8 A
INFO  16:40:41,951 - #16 {
INFO  16:40:41,951 - #8 int
INFO  16:40:41,951 - #8 a
INFO  16:40:41,967 - #12 ;
INFO  16:40:41,967 - #8 char
INFO  16:40:41,967 - #8 c
INFO  16:40:41,967 - #12 ;
INFO  16:40:41,967 - #16 {
INFO  16:40:41,967 - #5 void
INFO  16:40:41,967 - #8 m
INFO  16:40:41,967 - #18 (
INFO  16:40:41,982 - #19 )
INFO  16:40:41,982 - #16 {
INFO  16:40:41,982 - #33 print
INFO  16:40:41,982 - #18 (
INFO  16:40:41,982 - #10 A
INFO  16:40:41,998 - #19 )
INFO  16:40:41,998 - #12 ;
INFO  16:40:42,007 - #33 print
INFO  16:40:42,007 - #18 (
INFO  16:40:42,007 - #8 a
INFO  16:40:42,007 - #19 )
INFO  16:40:42,007 - #12 ;
INFO  16:40:42,007 - #17 }
INFO  16:40:42,007 - #17 }
INFO  16:40:42,022 - #17 }
INFO  16:40:42,022 - #3 class
INFO  16:40:42,022 - #8 B
INFO  16:40:42,022 - #4 extends
INFO  16:40:42,022 - #8 A
INFO  16:40:42,022 - #16 {
INFO  16:40:42,022 - #8 A
INFO  16:40:42,022 - #8 arr
INFO  16:40:42,022 - #20 [
INFO  16:40:42,022 - #21 ]
INFO  16:40:42,022 - #12 ;
INFO  16:40:42,022 - #16 {
INFO  16:40:42,022 - #5 void
INFO  16:40:42,022 - #8 m
INFO  16:40:42,022 - #18 (
INFO  16:40:42,022 - #19 )
INFO  16:40:42,022 - #16 {
INFO  16:40:42,022 - #33 print
INFO  16:40:42,022 - #18 (
INFO  16:40:42,022 - #10 B
INFO  16:40:42,022 - #19 )
INFO  16:40:42,022 - #12 ;
INFO  16:40:42,022 - #17 }
INFO  16:40:42,022 - #17 }
INFO  16:40:42,022 - #17 }
INFO  16:40:42,022 - #3 class
INFO  16:40:42,022 - #8 C
INFO  16:40:42,022 - #4 extends
INFO  16:40:42,022 - #8 B
INFO  16:40:42,022 - #16 {
INFO  16:40:42,022 - #8 B
INFO  16:40:42,022 - #8 arr1
INFO  16:40:42,022 - #20 [
INFO  16:40:42,022 - #21 ]
INFO  16:40:42,022 - #12 ;
INFO  16:40:42,022 - #16 {
INFO  16:40:42,022 - #5 void
INFO  16:40:42,022 - #8 m
INFO  16:40:42,022 - #18 (
INFO  16:40:42,022 - #19 )
INFO  16:40:42,022 - #16 {
INFO  16:40:42,022 - #33 print
INFO  16:40:42,022 - #18 (
INFO  16:40:42,022 - #10 C
INFO  16:40:42,022 - #19 )
INFO  16:40:42,022 - #12 ;
INFO  16:40:42,022 - #17 }
INFO  16:40:42,022 - #17 }
INFO  16:40:42,022 - #17 }
INFO  16:40:42,022 - #16 {
INFO  16:40:42,038 - #5 void
INFO  16:40:42,038 - #8 main
INFO  16:40:42,038 - #18 (
INFO  16:40:42,038 - #19 )
INFO  16:40:42,038 - #8 A
INFO  16:40:42,038 - #8 obj1
INFO  16:40:42,038 - #12 ;
INFO  16:40:42,038 - #8 B
INFO  16:40:42,038 - #8 obj2
INFO  16:40:42,038 - #12 ;
INFO  16:40:42,038 - #8 C
INFO  16:40:42,038 - #8 obj3
INFO  16:40:42,038 - #12 ;
INFO  16:40:42,038 - #8 int
INFO  16:40:42,038 - #8 a
INFO  16:40:42,038 - #13 ,
INFO  16:40:42,038 - #8 b
INFO  16:40:42,038 - #12 ;
INFO  16:40:42,038 - #16 {
INFO  16:40:42,038 - #8 obj3
INFO  16:40:42,038 - #34 =
INFO  16:40:42,038 - #7 new
INFO  16:40:42,038 - #8 C
INFO  16:40:42,038 - #12 ;
INFO  16:40:42,038 - #8 obj3
INFO  16:40:42,038 - #15 .
INFO  16:40:42,038 - #8 arr1
INFO  16:40:42,038 - #34 =
INFO  16:40:42,054 - #7 new
INFO  16:40:42,054 - #8 B
INFO  16:40:42,054 - #20 [
INFO  16:40:42,054 - #9 5
INFO  16:40:42,054 - #21 ]
INFO  16:40:42,054 - #12 ;
INFO  16:40:42,054 - #8 a
INFO  16:40:42,054 - #34 =
INFO  16:40:42,054 - #9 0
INFO  16:40:42,054 - #12 ;
INFO  16:40:42,054 - #24 do
INFO  16:40:42,054 - #16 {
INFO  16:40:42,054 - #8 obj3
INFO  16:40:42,054 - #15 .
INFO  16:40:42,054 - #8 arr1
INFO  16:40:42,054 - #20 [
INFO  16:40:42,054 - #8 a
INFO  16:40:42,054 - #21 ]
INFO  16:40:42,054 - #34 =
INFO  16:40:42,054 - #7 new
INFO  16:40:42,054 - #8 B
INFO  16:40:42,054 - #12 ;
INFO  16:40:42,054 - #8 obj3
INFO  16:40:42,054 - #15 .
INFO  16:40:42,054 - #8 arr1
INFO  16:40:42,054 - #20 [
INFO  16:40:42,054 - #8 a
INFO  16:40:42,054 - #21 ]
INFO  16:40:42,054 - #15 .
INFO  16:40:42,054 - #8 arr
INFO  16:40:42,054 - #34 =
INFO  16:40:42,069 - #7 new
INFO  16:40:42,069 - #8 A
INFO  16:40:42,069 - #20 [
INFO  16:40:42,069 - #9 5
INFO  16:40:42,069 - #21 ]
INFO  16:40:42,069 - #12 ;
INFO  16:40:42,069 - #8 b
INFO  16:40:42,069 - #34 =
INFO  16:40:42,069 - #9 0
INFO  16:40:42,069 - #12 ;
INFO  16:40:42,069 - #24 do
INFO  16:40:42,069 - #16 {
INFO  16:40:42,069 - #8 obj3
INFO  16:40:42,069 - #15 .
INFO  16:40:42,069 - #8 arr1
INFO  16:40:42,069 - #20 [
INFO  16:40:42,069 - #8 a
INFO  16:40:42,069 - #21 ]
INFO  16:40:42,069 - #15 .
INFO  16:40:42,069 - #8 arr
INFO  16:40:42,069 - #20 [
INFO  16:40:42,069 - #8 b
INFO  16:40:42,069 - #21 ]
INFO  16:40:42,069 - #34 =
INFO  16:40:42,069 - #7 new
INFO  16:40:42,069 - #8 A
INFO  16:40:42,069 - #12 ;
INFO  16:40:42,069 - #22 if
INFO  16:40:42,069 - #18 (
INFO  16:40:42,069 - #8 b
INFO  16:40:42,069 - #36 ==
INFO  16:40:42,069 - #9 0
INFO  16:40:42,069 - #19 )
INFO  16:40:42,069 - #8 obj3
INFO  16:40:42,085 - #15 .
INFO  16:40:42,085 - #8 arr1
INFO  16:40:42,085 - #20 [
INFO  16:40:42,085 - #8 a
INFO  16:40:42,085 - #21 ]
INFO  16:40:42,085 - #15 .
INFO  16:40:42,085 - #8 arr
INFO  16:40:42,085 - #20 [
INFO  16:40:42,085 - #8 b
INFO  16:40:42,085 - #21 ]
INFO  16:40:42,085 - #34 =
INFO  16:40:42,085 - #9 1
INFO  16:40:42,085 - #12 ;
INFO  16:40:42,085 - #23 else
INFO  16:40:42,085 - #16 {
INFO  16:40:42,085 - #8 obj3
INFO  16:40:42,085 - #15 .
INFO  16:40:42,085 - #8 arr1
INFO  16:40:42,085 - #20 [
INFO  16:40:42,085 - #8 a
INFO  16:40:42,085 - #21 ]
INFO  16:40:42,085 - #15 .
INFO  16:40:42,085 - #8 arr
INFO  16:40:42,085 - #20 [
INFO  16:40:42,085 - #8 b
INFO  16:40:42,085 - #21 ]
INFO  16:40:42,085 - #15 .
INFO  16:40:42,085 - #8 a
INFO  16:40:42,085 - #34 =
INFO  16:40:42,085 - #8 obj3
INFO  16:40:42,085 - #15 .
INFO  16:40:42,085 - #8 arr1
INFO  16:40:42,085 - #20 [
INFO  16:40:42,085 - #8 a
INFO  16:40:42,085 - #21 ]
INFO  16:40:42,085 - #15 .
INFO  16:40:42,085 - #8 arr
INFO  16:40:42,085 - #20 [
INFO  16:40:42,085 - #8 b
INFO  16:40:42,085 - #21 ]
INFO  16:40:42,085 - #15 .
INFO  16:40:42,085 - #8 a
INFO  16:40:42,085 - #42 +
INFO  16:40:42,085 - #9 5
INFO  16:40:42,085 - #44 *
INFO  16:40:42,085 - #8 obj3
INFO  16:40:42,100 - #15 .
INFO  16:40:42,100 - #8 arr1
INFO  16:40:42,100 - #20 [
INFO  16:40:42,100 - #8 a
INFO  16:40:42,100 - #21 ]
INFO  16:40:42,100 - #15 .
INFO  16:40:42,100 - #8 arr
INFO  16:40:42,100 - #20 [
INFO  16:40:42,100 - #8 b
INFO  16:40:42,100 - #21 ]
INFO  16:40:42,100 - #15 .
INFO  16:40:42,100 - #8 a
INFO  16:40:42,100 - #12 ;
INFO  16:40:42,100 - #17 }
INFO  16:40:42,100 - #8 obj3
INFO  16:40:42,100 - #15 .
INFO  16:40:42,100 - #8 arr1
INFO  16:40:42,100 - #20 [
INFO  16:40:42,100 - #8 a
INFO  16:40:42,100 - #21 ]
INFO  16:40:42,100 - #15 .
INFO  16:40:42,100 - #8 arr
INFO  16:40:42,100 - #20 [
INFO  16:40:42,100 - #8 b
INFO  16:40:42,100 - #21 ]
INFO  16:40:42,100 - #15 .
INFO  16:40:42,100 - #8 m
INFO  16:40:42,100 - #18 (
INFO  16:40:42,100 - #19 )
INFO  16:40:42,116 - #12 ;
INFO  16:40:42,118 - #8 b
INFO  16:40:42,120 - #47 ++
INFO  16:40:42,120 - #12 ;
INFO  16:40:42,122 - #17 }
INFO  16:40:42,122 - #25 while
INFO  16:40:42,122 - #18 (
INFO  16:40:42,122 - #8 b
INFO  16:40:42,122 - #41 <
INFO  16:40:42,122 - #9 5
INFO  16:40:42,122 - #19 )
INFO  16:40:42,122 - #12 ;
INFO  16:40:42,122 - #8 a
INFO  16:40:42,122 - #47 ++
INFO  16:40:42,122 - #12 ;
INFO  16:40:42,122 - #17 }
INFO  16:40:42,122 - #25 while
INFO  16:40:42,122 - #18 (
INFO  16:40:42,122 - #8 a
INFO  16:40:42,122 - #41 <
INFO  16:40:42,122 - #9 5
INFO  16:40:42,122 - #19 )
INFO  16:40:42,122 - #12 ;
INFO  16:40:42,122 - #17 }
INFO  16:40:42,122 - #17 }
INFO  16:40:42,169 - Program(
  ProgName(
   test
  ) [ProgName]
  Declarations(
    Declarations(
      Declarations(
        NoDeclarations(
        ) [NoDeclarations]
        ClassDeclaration(
          ClassDecl(
            ClassName(
             A
            ) [ClassName]
            NoExtends(
            ) [NoExtends]
            FieldDecls(
              FieldDecls(
                NoFieldDecls(
                ) [NoFieldDecls]
                VarDecls(
                  Type(
                   int
                  ) [Type]
                  SingleVar(
                    Var(
                     a
                      Scalar(
                      ) [Scalar]
                    ) [Var]
                  ) [SingleVar]
                ) [VarDecls]
              ) [FieldDecls]
              VarDecls(
                Type(
                 char
                ) [Type]
                SingleVar(
                  Var(
                   c
                    Scalar(
                    ) [Scalar]
                  ) [Var]
                ) [SingleVar]
              ) [VarDecls]
            ) [FieldDecls]
            ClassMethodDecls(
              MethodDeclarations(
                NoMethodDeclarations(
                ) [NoMethodDeclarations]
                MethodDecl(
                  MethodTypeName(
                    MethodTypeVoid(
                    ) [MethodTypeVoid]
                   m
                  ) [MethodTypeName]
                  NoFormParams(
                  ) [NoFormParams]
                  NoMethodVars(
                  ) [NoMethodVars]
                  StatementListImpl(
                    StatementListImpl(
                      NoStatements(
                      ) [NoStatements]
                      StatementDerived10(
                        PrintStatement(
                          PrintStart(
                          ) [PrintStart]
                          ExprImpl(
                            ExprSum(
                              TermImpl(
                                NoMinusBegin(
                                ) [NoMinusBegin]
                                FactorTerm(
                                  FactorConst(
                                    ConstValueChar(
                                     A
                                    ) [ConstValueChar]
                                  ) [FactorConst]
                                ) [FactorTerm]
                              ) [TermImpl]
                            ) [ExprSum]
                          ) [ExprImpl]
                          NoNumConst(
                          ) [NoNumConst]
                          PrintEnd(
                          ) [PrintEnd]
                        ) [PrintStatement]
                      ) [StatementDerived10]
                    ) [StatementListImpl]
                    StatementDerived10(
                      PrintStatement(
                        PrintStart(
                        ) [PrintStart]
                        ExprImpl(
                          ExprSum(
                            TermImpl(
                              NoMinusBegin(
                              ) [NoMinusBegin]
                              FactorTerm(
                                FactorDesignator(
                                  SingleDesignator(
                                    DesignatorFirst(
                                     a
                                    ) [DesignatorFirst]
                                    NoDesignatorValArray(
                                    ) [NoDesignatorValArray]
                                  ) [SingleDesignator]
                                  NoActParsInBrackets(
                                  ) [NoActParsInBrackets]
                                ) [FactorDesignator]
                              ) [FactorTerm]
                            ) [TermImpl]
                          ) [ExprSum]
                        ) [ExprImpl]
                        NoNumConst(
                        ) [NoNumConst]
                        PrintEnd(
                        ) [PrintEnd]
                      ) [PrintStatement]
                    ) [StatementDerived10]
                  ) [StatementListImpl]
                ) [MethodDecl]
              ) [MethodDeclarations]
            ) [ClassMethodDecls]
          ) [ClassDecl]
        ) [ClassDeclaration]
      ) [Declarations]
      ClassDeclaration(
        ClassDecl(
          ClassName(
           B
          ) [ClassName]
          Extends(
            Type(
             A
            ) [Type]
          ) [Extends]
          FieldDecls(
            NoFieldDecls(
            ) [NoFieldDecls]
            VarDecls(
              Type(
               A
              ) [Type]
              SingleVar(
                Var(
                 arr
                  Array(
                  ) [Array]
                ) [Var]
              ) [SingleVar]
            ) [VarDecls]
          ) [FieldDecls]
          ClassMethodDecls(
            MethodDeclarations(
              NoMethodDeclarations(
              ) [NoMethodDeclarations]
              MethodDecl(
                MethodTypeName(
                  MethodTypeVoid(
                  ) [MethodTypeVoid]
                 m
                ) [MethodTypeName]
                NoFormParams(
                ) [NoFormParams]
                NoMethodVars(
                ) [NoMethodVars]
                StatementListImpl(
                  NoStatements(
                  ) [NoStatements]
                  StatementDerived10(
                    PrintStatement(
                      PrintStart(
                      ) [PrintStart]
                      ExprImpl(
                        ExprSum(
                          TermImpl(
                            NoMinusBegin(
                            ) [NoMinusBegin]
                            FactorTerm(
                              FactorConst(
                                ConstValueChar(
                                 B
                                ) [ConstValueChar]
                              ) [FactorConst]
                            ) [FactorTerm]
                          ) [TermImpl]
                        ) [ExprSum]
                      ) [ExprImpl]
                      NoNumConst(
                      ) [NoNumConst]
                      PrintEnd(
                      ) [PrintEnd]
                    ) [PrintStatement]
                  ) [StatementDerived10]
                ) [StatementListImpl]
              ) [MethodDecl]
            ) [MethodDeclarations]
          ) [ClassMethodDecls]
        ) [ClassDecl]
      ) [ClassDeclaration]
    ) [Declarations]
    ClassDeclaration(
      ClassDecl(
        ClassName(
         C
        ) [ClassName]
        Extends(
          Type(
           B
          ) [Type]
        ) [Extends]
        FieldDecls(
          NoFieldDecls(
          ) [NoFieldDecls]
          VarDecls(
            Type(
             B
            ) [Type]
            SingleVar(
              Var(
               arr1
                Array(
                ) [Array]
              ) [Var]
            ) [SingleVar]
          ) [VarDecls]
        ) [FieldDecls]
        ClassMethodDecls(
          MethodDeclarations(
            NoMethodDeclarations(
            ) [NoMethodDeclarations]
            MethodDecl(
              MethodTypeName(
                MethodTypeVoid(
                ) [MethodTypeVoid]
               m
              ) [MethodTypeName]
              NoFormParams(
              ) [NoFormParams]
              NoMethodVars(
              ) [NoMethodVars]
              StatementListImpl(
                NoStatements(
                ) [NoStatements]
                StatementDerived10(
                  PrintStatement(
                    PrintStart(
                    ) [PrintStart]
                    ExprImpl(
                      ExprSum(
                        TermImpl(
                          NoMinusBegin(
                          ) [NoMinusBegin]
                          FactorTerm(
                            FactorConst(
                              ConstValueChar(
                               C
                              ) [ConstValueChar]
                            ) [FactorConst]
                          ) [FactorTerm]
                        ) [TermImpl]
                      ) [ExprSum]
                    ) [ExprImpl]
                    NoNumConst(
                    ) [NoNumConst]
                    PrintEnd(
                    ) [PrintEnd]
                  ) [PrintStatement]
                ) [StatementDerived10]
              ) [StatementListImpl]
            ) [MethodDecl]
          ) [MethodDeclarations]
        ) [ClassMethodDecls]
      ) [ClassDecl]
    ) [ClassDeclaration]
  ) [Declarations]
  MethodDeclarations(
    NoMethodDeclarations(
    ) [NoMethodDeclarations]
    MethodDecl(
      MethodTypeName(
        MethodTypeVoid(
        ) [MethodTypeVoid]
       main
      ) [MethodTypeName]
      NoFormParams(
      ) [NoFormParams]
      MethodVars(
        MethodVars(
          MethodVars(
            MethodVars(
              NoMethodVars(
              ) [NoMethodVars]
              VarDecls(
                Type(
                 A
                ) [Type]
                SingleVar(
                  Var(
                   obj1
                    Scalar(
                    ) [Scalar]
                  ) [Var]
                ) [SingleVar]
              ) [VarDecls]
            ) [MethodVars]
            VarDecls(
              Type(
               B
              ) [Type]
              SingleVar(
                Var(
                 obj2
                  Scalar(
                  ) [Scalar]
                ) [Var]
              ) [SingleVar]
            ) [VarDecls]
          ) [MethodVars]
          VarDecls(
            Type(
             C
            ) [Type]
            SingleVar(
              Var(
               obj3
                Scalar(
                ) [Scalar]
              ) [Var]
            ) [SingleVar]
          ) [VarDecls]
        ) [MethodVars]
        VarDecls(
          Type(
           int
          ) [Type]
          VarVars(
            SingleVar(
              Var(
               a
                Scalar(
                ) [Scalar]
              ) [Var]
            ) [SingleVar]
            Var(
             b
              Scalar(
              ) [Scalar]
            ) [Var]
          ) [VarVars]
        ) [VarDecls]
      ) [MethodVars]
      StatementListImpl(
        StatementListImpl(
          StatementListImpl(
            StatementListImpl(
              NoStatements(
              ) [NoStatements]
              StatementDerived1(
                DesignatorStatement(
                  SingleDesignator(
                    DesignatorFirst(
                     obj3
                    ) [DesignatorFirst]
                    NoDesignatorValArray(
                    ) [NoDesignatorValArray]
                  ) [SingleDesignator]
                  AssignOperation(
                    Assignop(
                    ) [Assignop]
                    ExprImpl(
                      ExprSum(
                        TermImpl(
                          NoMinusBegin(
                          ) [NoMinusBegin]
                          FactorTerm(
                            FactorNew(
                              Type(
                               C
                              ) [Type]
                              NoExprInSquares(
                              ) [NoExprInSquares]
                            ) [FactorNew]
                          ) [FactorTerm]
                        ) [TermImpl]
                      ) [ExprSum]
                    ) [ExprImpl]
                  ) [AssignOperation]
                ) [DesignatorStatement]
              ) [StatementDerived1]
            ) [StatementListImpl]
            StatementDerived1(
              DesignatorStatement(
                DesignatorDot(
                  DesignatorFirst(
                   obj3
                  ) [DesignatorFirst]
                  SingleDesignatorChain(
                    DesignatorVal(
                      DesignatorValName(
                       arr1
                      ) [DesignatorValName]
                      NoDesignatorValArray(
                      ) [NoDesignatorValArray]
                    ) [DesignatorVal]
                  ) [SingleDesignatorChain]
                ) [DesignatorDot]
                AssignOperation(
                  Assignop(
                  ) [Assignop]
                  ExprImpl(
                    ExprSum(
                      TermImpl(
                        NoMinusBegin(
                        ) [NoMinusBegin]
                        FactorTerm(
                          FactorNew(
                            Type(
                             B
                            ) [Type]
                            ExprInSquares(
                              ExprImpl(
                                ExprSum(
                                  TermImpl(
                                    NoMinusBegin(
                                    ) [NoMinusBegin]
                                    FactorTerm(
                                      FactorConst(
                                        ConstValueNumber(
                                         5
                                        ) [ConstValueNumber]
                                      ) [FactorConst]
                                    ) [FactorTerm]
                                  ) [TermImpl]
                                ) [ExprSum]
                              ) [ExprImpl]
                            ) [ExprInSquares]
                          ) [FactorNew]
                        ) [FactorTerm]
                      ) [TermImpl]
                    ) [ExprSum]
                  ) [ExprImpl]
                ) [AssignOperation]
              ) [DesignatorStatement]
            ) [StatementDerived1]
          ) [StatementListImpl]
          StatementDerived1(
            DesignatorStatement(
              SingleDesignator(
                DesignatorFirst(
                 a
                ) [DesignatorFirst]
                NoDesignatorValArray(
                ) [NoDesignatorValArray]
              ) [SingleDesignator]
              AssignOperation(
                Assignop(
                ) [Assignop]
                ExprImpl(
                  ExprSum(
                    TermImpl(
                      NoMinusBegin(
                      ) [NoMinusBegin]
                      FactorTerm(
                        FactorConst(
                          ConstValueNumber(
                           0
                          ) [ConstValueNumber]
                        ) [FactorConst]
                      ) [FactorTerm]
                    ) [TermImpl]
                  ) [ExprSum]
                ) [ExprImpl]
              ) [AssignOperation]
            ) [DesignatorStatement]
          ) [StatementDerived1]
        ) [StatementListImpl]
        StatementDerived3(
          DoWhileStatement(
            DoValue(
            ) [DoValue]
            StatementDerived11(
              StatementListImpl(
                StatementListImpl(
                  StatementListImpl(
                    StatementListImpl(
                      StatementListImpl(
                        NoStatements(
                        ) [NoStatements]
                        StatementDerived1(
                          DesignatorStatement(
                            DesignatorDot(
                              DesignatorFirst(
                               obj3
                              ) [DesignatorFirst]
                              SingleDesignatorChain(
                                DesignatorVal(
                                  DesignatorValName(
                                   arr1
                                  ) [DesignatorValName]
                                  DesignatorValArray(
                                    StartOfDesignatorIndex(
                                    ) [StartOfDesignatorIndex]
                                    ExprImpl(
                                      ExprSum(
                                        TermImpl(
                                          NoMinusBegin(
                                          ) [NoMinusBegin]
                                          FactorTerm(
                                            FactorDesignator(
                                              SingleDesignator(
                                                DesignatorFirst(
                                                 a
                                                ) [DesignatorFirst]
                                                NoDesignatorValArray(
                                                ) [NoDesignatorValArray]
                                              ) [SingleDesignator]
                                              NoActParsInBrackets(
                                              ) [NoActParsInBrackets]
                                            ) [FactorDesignator]
                                          ) [FactorTerm]
                                        ) [TermImpl]
                                      ) [ExprSum]
                                    ) [ExprImpl]
                                    EndOfDesignatorIndex(
                                    ) [EndOfDesignatorIndex]
                                  ) [DesignatorValArray]
                                ) [DesignatorVal]
                              ) [SingleDesignatorChain]
                            ) [DesignatorDot]
                            AssignOperation(
                              Assignop(
                              ) [Assignop]
                              ExprImpl(
                                ExprSum(
                                  TermImpl(
                                    NoMinusBegin(
                                    ) [NoMinusBegin]
                                    FactorTerm(
                                      FactorNew(
                                        Type(
                                         B
                                        ) [Type]
                                        NoExprInSquares(
                                        ) [NoExprInSquares]
                                      ) [FactorNew]
                                    ) [FactorTerm]
                                  ) [TermImpl]
                                ) [ExprSum]
                              ) [ExprImpl]
                            ) [AssignOperation]
                          ) [DesignatorStatement]
                        ) [StatementDerived1]
                      ) [StatementListImpl]
                      StatementDerived1(
                        DesignatorStatement(
                          DesignatorDot(
                            DesignatorFirst(
                             obj3
                            ) [DesignatorFirst]
                            DesignatorChainImpl(
                              SingleDesignatorChain(
                                DesignatorVal(
                                  DesignatorValName(
                                   arr1
                                  ) [DesignatorValName]
                                  DesignatorValArray(
                                    StartOfDesignatorIndex(
                                    ) [StartOfDesignatorIndex]
                                    ExprImpl(
                                      ExprSum(
                                        TermImpl(
                                          NoMinusBegin(
                                          ) [NoMinusBegin]
                                          FactorTerm(
                                            FactorDesignator(
                                              SingleDesignator(
                                                DesignatorFirst(
                                                 a
                                                ) [DesignatorFirst]
                                                NoDesignatorValArray(
                                                ) [NoDesignatorValArray]
                                              ) [SingleDesignator]
                                              NoActParsInBrackets(
                                              ) [NoActParsInBrackets]
                                            ) [FactorDesignator]
                                          ) [FactorTerm]
                                        ) [TermImpl]
                                      ) [ExprSum]
                                    ) [ExprImpl]
                                    EndOfDesignatorIndex(
                                    ) [EndOfDesignatorIndex]
                                  ) [DesignatorValArray]
                                ) [DesignatorVal]
                              ) [SingleDesignatorChain]
                              DesignatorVal(
                                DesignatorValName(
                                 arr
                                ) [DesignatorValName]
                                NoDesignatorValArray(
                                ) [NoDesignatorValArray]
                              ) [DesignatorVal]
                            ) [DesignatorChainImpl]
                          ) [DesignatorDot]
                          AssignOperation(
                            Assignop(
                            ) [Assignop]
                            ExprImpl(
                              ExprSum(
                                TermImpl(
                                  NoMinusBegin(
                                  ) [NoMinusBegin]
                                  FactorTerm(
                                    FactorNew(
                                      Type(
                                       A
                                      ) [Type]
                                      ExprInSquares(
                                        ExprImpl(
                                          ExprSum(
                                            TermImpl(
                                              NoMinusBegin(
                                              ) [NoMinusBegin]
                                              FactorTerm(
                                                FactorConst(
                                                  ConstValueNumber(
                                                   5
                                                  ) [ConstValueNumber]
                                                ) [FactorConst]
                                              ) [FactorTerm]
                                            ) [TermImpl]
                                          ) [ExprSum]
                                        ) [ExprImpl]
                                      ) [ExprInSquares]
                                    ) [FactorNew]
                                  ) [FactorTerm]
                                ) [TermImpl]
                              ) [ExprSum]
                            ) [ExprImpl]
                          ) [AssignOperation]
                        ) [DesignatorStatement]
                      ) [StatementDerived1]
                    ) [StatementListImpl]
                    StatementDerived1(
                      DesignatorStatement(
                        SingleDesignator(
                          DesignatorFirst(
                           b
                          ) [DesignatorFirst]
                          NoDesignatorValArray(
                          ) [NoDesignatorValArray]
                        ) [SingleDesignator]
                        AssignOperation(
                          Assignop(
                          ) [Assignop]
                          ExprImpl(
                            ExprSum(
                              TermImpl(
                                NoMinusBegin(
                                ) [NoMinusBegin]
                                FactorTerm(
                                  FactorConst(
                                    ConstValueNumber(
                                     0
                                    ) [ConstValueNumber]
                                  ) [FactorConst]
                                ) [FactorTerm]
                              ) [TermImpl]
                            ) [ExprSum]
                          ) [ExprImpl]
                        ) [AssignOperation]
                      ) [DesignatorStatement]
                    ) [StatementDerived1]
                  ) [StatementListImpl]
                  StatementDerived3(
                    DoWhileStatement(
                      DoValue(
                      ) [DoValue]
                      StatementDerived11(
                        StatementListImpl(
                          StatementListImpl(
                            StatementListImpl(
                              StatementListImpl(
                                NoStatements(
                                ) [NoStatements]
                                StatementDerived1(
                                  DesignatorStatement(
                                    DesignatorDot(
                                      DesignatorFirst(
                                       obj3
                                      ) [DesignatorFirst]
                                      DesignatorChainImpl(
                                        SingleDesignatorChain(
                                          DesignatorVal(
                                            DesignatorValName(
                                             arr1
                                            ) [DesignatorValName]
                                            DesignatorValArray(
                                              StartOfDesignatorIndex(
                                              ) [StartOfDesignatorIndex]
                                              ExprImpl(
                                                ExprSum(
                                                  TermImpl(
                                                    NoMinusBegin(
                                                    ) [NoMinusBegin]
                                                    FactorTerm(
                                                      FactorDesignator(
                                                        SingleDesignator(
                                                          DesignatorFirst(
                                                           a
                                                          ) [DesignatorFirst]
                                                          NoDesignatorValArray(
                                                          ) [NoDesignatorValArray]
                                                        ) [SingleDesignator]
                                                        NoActParsInBrackets(
                                                        ) [NoActParsInBrackets]
                                                      ) [FactorDesignator]
                                                    ) [FactorTerm]
                                                  ) [TermImpl]
                                                ) [ExprSum]
                                              ) [ExprImpl]
                                              EndOfDesignatorIndex(
                                              ) [EndOfDesignatorIndex]
                                            ) [DesignatorValArray]
                                          ) [DesignatorVal]
                                        ) [SingleDesignatorChain]
                                        DesignatorVal(
                                          DesignatorValName(
                                           arr
                                          ) [DesignatorValName]
                                          DesignatorValArray(
                                            StartOfDesignatorIndex(
                                            ) [StartOfDesignatorIndex]
                                            ExprImpl(
                                              ExprSum(
                                                TermImpl(
                                                  NoMinusBegin(
                                                  ) [NoMinusBegin]
                                                  FactorTerm(
                                                    FactorDesignator(
                                                      SingleDesignator(
                                                        DesignatorFirst(
                                                         b
                                                        ) [DesignatorFirst]
                                                        NoDesignatorValArray(
                                                        ) [NoDesignatorValArray]
                                                      ) [SingleDesignator]
                                                      NoActParsInBrackets(
                                                      ) [NoActParsInBrackets]
                                                    ) [FactorDesignator]
                                                  ) [FactorTerm]
                                                ) [TermImpl]
                                              ) [ExprSum]
                                            ) [ExprImpl]
                                            EndOfDesignatorIndex(
                                            ) [EndOfDesignatorIndex]
                                          ) [DesignatorValArray]
                                        ) [DesignatorVal]
                                      ) [DesignatorChainImpl]
                                    ) [DesignatorDot]
                                    AssignOperation(
                                      Assignop(
                                      ) [Assignop]
                                      ExprImpl(
                                        ExprSum(
                                          TermImpl(
                                            NoMinusBegin(
                                            ) [NoMinusBegin]
                                            FactorTerm(
                                              FactorNew(
                                                Type(
                                                 A
                                                ) [Type]
                                                NoExprInSquares(
                                                ) [NoExprInSquares]
                                              ) [FactorNew]
                                            ) [FactorTerm]
                                          ) [TermImpl]
                                        ) [ExprSum]
                                      ) [ExprImpl]
                                    ) [AssignOperation]
                                  ) [DesignatorStatement]
                                ) [StatementDerived1]
                              ) [StatementListImpl]
                              StatementDerived2(
                                IfElseStatement(
                                  IfStart(
                                  ) [IfStart]
                                  ConditionStart(
                                  ) [ConditionStart]
                                  SimpleCondition(
                                    SimpleCondTerm(
                                      RelopCondFact(
                                        ExprImpl(
                                          ExprSum(
                                            TermImpl(
                                              NoMinusBegin(
                                              ) [NoMinusBegin]
                                              FactorTerm(
                                                FactorDesignator(
                                                  SingleDesignator(
                                                    DesignatorFirst(
                                                     b
                                                    ) [DesignatorFirst]
                                                    NoDesignatorValArray(
                                                    ) [NoDesignatorValArray]
                                                  ) [SingleDesignator]
                                                  NoActParsInBrackets(
                                                  ) [NoActParsInBrackets]
                                                ) [FactorDesignator]
                                              ) [FactorTerm]
                                            ) [TermImpl]
                                          ) [ExprSum]
                                        ) [ExprImpl]
                                        RelopEq(
                                        ) [RelopEq]
                                        ExprImpl(
                                          ExprSum(
                                            TermImpl(
                                              NoMinusBegin(
                                              ) [NoMinusBegin]
                                              FactorTerm(
                                                FactorConst(
                                                  ConstValueNumber(
                                                   0
                                                  ) [ConstValueNumber]
                                                ) [FactorConst]
                                              ) [FactorTerm]
                                            ) [TermImpl]
                                          ) [ExprSum]
                                        ) [ExprImpl]
                                      ) [RelopCondFact]
                                    ) [SimpleCondTerm]
                                  ) [SimpleCondition]
                                  ConditionEnd(
                                  ) [ConditionEnd]
                                  StatementDerived1(
                                    DesignatorStatement(
                                      DesignatorDot(
                                        DesignatorFirst(
                                         obj3
                                        ) [DesignatorFirst]
                                        DesignatorChainImpl(
                                          SingleDesignatorChain(
                                            DesignatorVal(
                                              DesignatorValName(
                                               arr1
                                              ) [DesignatorValName]
                                              DesignatorValArray(
                                                StartOfDesignatorIndex(
                                                ) [StartOfDesignatorIndex]
                                                ExprImpl(
                                                  ExprSum(
                                                    TermImpl(
                                                      NoMinusBegin(
                                                      ) [NoMinusBegin]
                                                      FactorTerm(
                                                        FactorDesignator(
                                                          SingleDesignator(
                                                            DesignatorFirst(
                                                             a
                                                            ) [DesignatorFirst]
                                                            NoDesignatorValArray(
                                                            ) [NoDesignatorValArray]
                                                          ) [SingleDesignator]
                                                          NoActParsInBrackets(
                                                          ) [NoActParsInBrackets]
                                                        ) [FactorDesignator]
                                                      ) [FactorTerm]
                                                    ) [TermImpl]
                                                  ) [ExprSum]
                                                ) [ExprImpl]
                                                EndOfDesignatorIndex(
                                                ) [EndOfDesignatorIndex]
                                              ) [DesignatorValArray]
                                            ) [DesignatorVal]
                                          ) [SingleDesignatorChain]
                                          DesignatorVal(
                                            DesignatorValName(
                                             arr
                                            ) [DesignatorValName]
                                            DesignatorValArray(
                                              StartOfDesignatorIndex(
                                              ) [StartOfDesignatorIndex]
                                              ExprImpl(
                                                ExprSum(
                                                  TermImpl(
                                                    NoMinusBegin(
                                                    ) [NoMinusBegin]
                                                    FactorTerm(
                                                      FactorDesignator(
                                                        SingleDesignator(
                                                          DesignatorFirst(
                                                           b
                                                          ) [DesignatorFirst]
                                                          NoDesignatorValArray(
                                                          ) [NoDesignatorValArray]
                                                        ) [SingleDesignator]
                                                        NoActParsInBrackets(
                                                        ) [NoActParsInBrackets]
                                                      ) [FactorDesignator]
                                                    ) [FactorTerm]
                                                  ) [TermImpl]
                                                ) [ExprSum]
                                              ) [ExprImpl]
                                              EndOfDesignatorIndex(
                                              ) [EndOfDesignatorIndex]
                                            ) [DesignatorValArray]
                                          ) [DesignatorVal]
                                        ) [DesignatorChainImpl]
                                      ) [DesignatorDot]
                                      AssignOperation(
                                        Assignop(
                                        ) [Assignop]
                                        ExprImpl(
                                          ExprSum(
                                            TermImpl(
                                              NoMinusBegin(
                                              ) [NoMinusBegin]
                                              FactorTerm(
                                                FactorConst(
                                                  ConstValueNumber(
                                                   1
                                                  ) [ConstValueNumber]
                                                ) [FactorConst]
                                              ) [FactorTerm]
                                            ) [TermImpl]
                                          ) [ExprSum]
                                        ) [ExprImpl]
                                      ) [AssignOperation]
                                    ) [DesignatorStatement]
                                  ) [StatementDerived1]
                                  ElseBranch(
                                  ) [ElseBranch]
                                  StatementDerived11(
                                    StatementListImpl(
                                      NoStatements(
                                      ) [NoStatements]
                                      StatementDerived1(
                                        DesignatorStatement(
                                          DesignatorDot(
                                            DesignatorFirst(
                                             obj3
                                            ) [DesignatorFirst]
                                            DesignatorChainImpl(
                                              DesignatorChainImpl(
                                                SingleDesignatorChain(
                                                  DesignatorVal(
                                                    DesignatorValName(
                                                     arr1
                                                    ) [DesignatorValName]
                                                    DesignatorValArray(
                                                      StartOfDesignatorIndex(
                                                      ) [StartOfDesignatorIndex]
                                                      ExprImpl(
                                                        ExprSum(
                                                          TermImpl(
                                                            NoMinusBegin(
                                                            ) [NoMinusBegin]
                                                            FactorTerm(
                                                              FactorDesignator(
                                                                SingleDesignator(
                                                                  DesignatorFirst(
                                                                   a
                                                                  ) [DesignatorFirst]
                                                                  NoDesignatorValArray(
                                                                  ) [NoDesignatorValArray]
                                                                ) [SingleDesignator]
                                                                NoActParsInBrackets(
                                                                ) [NoActParsInBrackets]
                                                              ) [FactorDesignator]
                                                            ) [FactorTerm]
                                                          ) [TermImpl]
                                                        ) [ExprSum]
                                                      ) [ExprImpl]
                                                      EndOfDesignatorIndex(
                                                      ) [EndOfDesignatorIndex]
                                                    ) [DesignatorValArray]
                                                  ) [DesignatorVal]
                                                ) [SingleDesignatorChain]
                                                DesignatorVal(
                                                  DesignatorValName(
                                                   arr
                                                  ) [DesignatorValName]
                                                  DesignatorValArray(
                                                    StartOfDesignatorIndex(
                                                    ) [StartOfDesignatorIndex]
                                                    ExprImpl(
                                                      ExprSum(
                                                        TermImpl(
                                                          NoMinusBegin(
                                                          ) [NoMinusBegin]
                                                          FactorTerm(
                                                            FactorDesignator(
                                                              SingleDesignator(
                                                                DesignatorFirst(
                                                                 b
                                                                ) [DesignatorFirst]
                                                                NoDesignatorValArray(
                                                                ) [NoDesignatorValArray]
                                                              ) [SingleDesignator]
                                                              NoActParsInBrackets(
                                                              ) [NoActParsInBrackets]
                                                            ) [FactorDesignator]
                                                          ) [FactorTerm]
                                                        ) [TermImpl]
                                                      ) [ExprSum]
                                                    ) [ExprImpl]
                                                    EndOfDesignatorIndex(
                                                    ) [EndOfDesignatorIndex]
                                                  ) [DesignatorValArray]
                                                ) [DesignatorVal]
                                              ) [DesignatorChainImpl]
                                              DesignatorVal(
                                                DesignatorValName(
                                                 a
                                                ) [DesignatorValName]
                                                NoDesignatorValArray(
                                                ) [NoDesignatorValArray]
                                              ) [DesignatorVal]
                                            ) [DesignatorChainImpl]
                                          ) [DesignatorDot]
                                          AssignOperation(
                                            Assignop(
                                            ) [Assignop]
                                            ExprImpl(
                                              ExprSum(
                                                SumImpl(
                                                  TermImpl(
                                                    NoMinusBegin(
                                                    ) [NoMinusBegin]
                                                    FactorTerm(
                                                      FactorDesignator(
                                                        DesignatorDot(
                                                          DesignatorFirst(
                                                           obj3
                                                          ) [DesignatorFirst]
                                                          DesignatorChainImpl(
                                                            DesignatorChainImpl(
                                                              SingleDesignatorChain(
                                                                DesignatorVal(
                                                                  DesignatorValName(
                                                                   arr1
                                                                  ) [DesignatorValName]
                                                                  DesignatorValArray(
                                                                    StartOfDesignatorIndex(
                                                                    ) [StartOfDesignatorIndex]
                                                                    ExprImpl(
                                                                      ExprSum(
                                                                        TermImpl(
                                                                          NoMinusBegin(
                                                                          ) [NoMinusBegin]
                                                                          FactorTerm(
                                                                            FactorDesignator(
                                                                              SingleDesignator(
                                                                                DesignatorFirst(
                                                                                 a
                                                                                ) [DesignatorFirst]
                                                                                NoDesignatorValArray(
                                                                                ) [NoDesignatorValArray]
                                                                              ) [SingleDesignator]
                                                                              NoActParsInBrackets(
                                                                              ) [NoActParsInBrackets]
                                                                            ) [FactorDesignator]
                                                                          ) [FactorTerm]
                                                                        ) [TermImpl]
                                                                      ) [ExprSum]
                                                                    ) [ExprImpl]
                                                                    EndOfDesignatorIndex(
                                                                    ) [EndOfDesignatorIndex]
                                                                  ) [DesignatorValArray]
                                                                ) [DesignatorVal]
                                                              ) [SingleDesignatorChain]
                                                              DesignatorVal(
                                                                DesignatorValName(
                                                                 arr
                                                                ) [DesignatorValName]
                                                                DesignatorValArray(
                                                                  StartOfDesignatorIndex(
                                                                  ) [StartOfDesignatorIndex]
                                                                  ExprImpl(
                                                                    ExprSum(
                                                                      TermImpl(
                                                                        NoMinusBegin(
                                                                        ) [NoMinusBegin]
                                                                        FactorTerm(
                                                                          FactorDesignator(
                                                                            SingleDesignator(
                                                                              DesignatorFirst(
                                                                               b
                                                                              ) [DesignatorFirst]
                                                                              NoDesignatorValArray(
                                                                              ) [NoDesignatorValArray]
                                                                            ) [SingleDesignator]
                                                                            NoActParsInBrackets(
                                                                            ) [NoActParsInBrackets]
                                                                          ) [FactorDesignator]
                                                                        ) [FactorTerm]
                                                                      ) [TermImpl]
                                                                    ) [ExprSum]
                                                                  ) [ExprImpl]
                                                                  EndOfDesignatorIndex(
                                                                  ) [EndOfDesignatorIndex]
                                                                ) [DesignatorValArray]
                                                              ) [DesignatorVal]
                                                            ) [DesignatorChainImpl]
                                                            DesignatorVal(
                                                              DesignatorValName(
                                                               a
                                                              ) [DesignatorValName]
                                                              NoDesignatorValArray(
                                                              ) [NoDesignatorValArray]
                                                            ) [DesignatorVal]
                                                          ) [DesignatorChainImpl]
                                                        ) [DesignatorDot]
                                                        NoActParsInBrackets(
                                                        ) [NoActParsInBrackets]
                                                      ) [FactorDesignator]
                                                    ) [FactorTerm]
                                                  ) [TermImpl]
                                                  Plus(
                                                  ) [Plus]
                                                  MulTerm(
                                                    FactorTerm(
                                                      FactorConst(
                                                        ConstValueNumber(
                                                         5
                                                        ) [ConstValueNumber]
                                                      ) [FactorConst]
                                                    ) [FactorTerm]
                                                    Mul(
                                                    ) [Mul]
                                                    FactorDesignator(
                                                      DesignatorDot(
                                                        DesignatorFirst(
                                                         obj3
                                                        ) [DesignatorFirst]
                                                        DesignatorChainImpl(
                                                          DesignatorChainImpl(
                                                            SingleDesignatorChain(
                                                              DesignatorVal(
                                                                DesignatorValName(
                                                                 arr1
                                                                ) [DesignatorValName]
                                                                DesignatorValArray(
                                                                  StartOfDesignatorIndex(
                                                                  ) [StartOfDesignatorIndex]
                                                                  ExprImpl(
                                                                    ExprSum(
                                                                      TermImpl(
                                                                        NoMinusBegin(
                                                                        ) [NoMinusBegin]
                                                                        FactorTerm(
                                                                          FactorDesignator(
                                                                            SingleDesignator(
                                                                              DesignatorFirst(
                                                                               a
                                                                              ) [DesignatorFirst]
                                                                              NoDesignatorValArray(
                                                                              ) [NoDesignatorValArray]
                                                                            ) [SingleDesignator]
                                                                            NoActParsInBrackets(
                                                                            ) [NoActParsInBrackets]
                                                                          ) [FactorDesignator]
                                                                        ) [FactorTerm]
                                                                      ) [TermImpl]
                                                                    ) [ExprSum]
                                                                  ) [ExprImpl]
                                                                  EndOfDesignatorIndex(
                                                                  ) [EndOfDesignatorIndex]
                                                                ) [DesignatorValArray]
                                                              ) [DesignatorVal]
                                                            ) [SingleDesignatorChain]
                                                            DesignatorVal(
                                                              DesignatorValName(
                                                               arr
                                                              ) [DesignatorValName]
                                                              DesignatorValArray(
                                                                StartOfDesignatorIndex(
                                                                ) [StartOfDesignatorIndex]
                                                                ExprImpl(
                                                                  ExprSum(
                                                                    TermImpl(
                                                                      NoMinusBegin(
                                                                      ) [NoMinusBegin]
                                                                      FactorTerm(
                                                                        FactorDesignator(
                                                                          SingleDesignator(
                                                                            DesignatorFirst(
                                                                             b
                                                                            ) [DesignatorFirst]
                                                                            NoDesignatorValArray(
                                                                            ) [NoDesignatorValArray]
                                                                          ) [SingleDesignator]
                                                                          NoActParsInBrackets(
                                                                          ) [NoActParsInBrackets]
                                                                        ) [FactorDesignator]
                                                                      ) [FactorTerm]
                                                                    ) [TermImpl]
                                                                  ) [ExprSum]
                                                                ) [ExprImpl]
                                                                EndOfDesignatorIndex(
                                                                ) [EndOfDesignatorIndex]
                                                              ) [DesignatorValArray]
                                                            ) [DesignatorVal]
                                                          ) [DesignatorChainImpl]
                                                          DesignatorVal(
                                                            DesignatorValName(
                                                             a
                                                            ) [DesignatorValName]
                                                            NoDesignatorValArray(
                                                            ) [NoDesignatorValArray]
                                                          ) [DesignatorVal]
                                                        ) [DesignatorChainImpl]
                                                      ) [DesignatorDot]
                                                      NoActParsInBrackets(
                                                      ) [NoActParsInBrackets]
                                                    ) [FactorDesignator]
                                                  ) [MulTerm]
                                                ) [SumImpl]
                                              ) [ExprSum]
                                            ) [ExprImpl]
                                          ) [AssignOperation]
                                        ) [DesignatorStatement]
                                      ) [StatementDerived1]
                                    ) [StatementListImpl]
                                  ) [StatementDerived11]
                                ) [IfElseStatement]
                              ) [StatementDerived2]
                            ) [StatementListImpl]
                            StatementDerived1(
                              DesignatorStatement(
                                DesignatorDot(
                                  DesignatorFirst(
                                   obj3
                                  ) [DesignatorFirst]
                                  DesignatorChainImpl(
                                    DesignatorChainImpl(
                                      SingleDesignatorChain(
                                        DesignatorVal(
                                          DesignatorValName(
                                           arr1
                                          ) [DesignatorValName]
                                          DesignatorValArray(
                                            StartOfDesignatorIndex(
                                            ) [StartOfDesignatorIndex]
                                            ExprImpl(
                                              ExprSum(
                                                TermImpl(
                                                  NoMinusBegin(
                                                  ) [NoMinusBegin]
                                                  FactorTerm(
                                                    FactorDesignator(
                                                      SingleDesignator(
                                                        DesignatorFirst(
                                                         a
                                                        ) [DesignatorFirst]
                                                        NoDesignatorValArray(
                                                        ) [NoDesignatorValArray]
                                                      ) [SingleDesignator]
                                                      NoActParsInBrackets(
                                                      ) [NoActParsInBrackets]
                                                    ) [FactorDesignator]
                                                  ) [FactorTerm]
                                                ) [TermImpl]
                                              ) [ExprSum]
                                            ) [ExprImpl]
                                            EndOfDesignatorIndex(
                                            ) [EndOfDesignatorIndex]
                                          ) [DesignatorValArray]
                                        ) [DesignatorVal]
                                      ) [SingleDesignatorChain]
                                      DesignatorVal(
                                        DesignatorValName(
                                         arr
                                        ) [DesignatorValName]
                                        DesignatorValArray(
                                          StartOfDesignatorIndex(
                                          ) [StartOfDesignatorIndex]
                                          ExprImpl(
                                            ExprSum(
                                              TermImpl(
                                                NoMinusBegin(
                                                ) [NoMinusBegin]
                                                FactorTerm(
                                                  FactorDesignator(
                                                    SingleDesignator(
                                                      DesignatorFirst(
                                                       b
                                                      ) [DesignatorFirst]
                                                      NoDesignatorValArray(
                                                      ) [NoDesignatorValArray]
                                                    ) [SingleDesignator]
                                                    NoActParsInBrackets(
                                                    ) [NoActParsInBrackets]
                                                  ) [FactorDesignator]
                                                ) [FactorTerm]
                                              ) [TermImpl]
                                            ) [ExprSum]
                                          ) [ExprImpl]
                                          EndOfDesignatorIndex(
                                          ) [EndOfDesignatorIndex]
                                        ) [DesignatorValArray]
                                      ) [DesignatorVal]
                                    ) [DesignatorChainImpl]
                                    DesignatorVal(
                                      DesignatorValName(
                                       m
                                      ) [DesignatorValName]
                                      NoDesignatorValArray(
                                      ) [NoDesignatorValArray]
                                    ) [DesignatorVal]
                                  ) [DesignatorChainImpl]
                                ) [DesignatorDot]
                                FunctionCall(
                                  ActParsStart(
                                  ) [ActParsStart]
                                  NoActPars(
                                  ) [NoActPars]
                                  ActParsEnd(
                                  ) [ActParsEnd]
                                ) [FunctionCall]
                              ) [DesignatorStatement]
                            ) [StatementDerived1]
                          ) [StatementListImpl]
                          StatementDerived1(
                            DesignatorStatement(
                              SingleDesignator(
                                DesignatorFirst(
                                 b
                                ) [DesignatorFirst]
                                NoDesignatorValArray(
                                ) [NoDesignatorValArray]
                              ) [SingleDesignator]
                              Increment(
                              ) [Increment]
                            ) [DesignatorStatement]
                          ) [StatementDerived1]
                        ) [StatementListImpl]
                      ) [StatementDerived11]
                      WhileValue(
                      ) [WhileValue]
                      ConditionStart(
                      ) [ConditionStart]
                      SimpleCondition(
                        SimpleCondTerm(
                          RelopCondFact(
                            ExprImpl(
                              ExprSum(
                                TermImpl(
                                  NoMinusBegin(
                                  ) [NoMinusBegin]
                                  FactorTerm(
                                    FactorDesignator(
                                      SingleDesignator(
                                        DesignatorFirst(
                                         b
                                        ) [DesignatorFirst]
                                        NoDesignatorValArray(
                                        ) [NoDesignatorValArray]
                                      ) [SingleDesignator]
                                      NoActParsInBrackets(
                                      ) [NoActParsInBrackets]
                                    ) [FactorDesignator]
                                  ) [FactorTerm]
                                ) [TermImpl]
                              ) [ExprSum]
                            ) [ExprImpl]
                            RelopLt(
                            ) [RelopLt]
                            ExprImpl(
                              ExprSum(
                                TermImpl(
                                  NoMinusBegin(
                                  ) [NoMinusBegin]
                                  FactorTerm(
                                    FactorConst(
                                      ConstValueNumber(
                                       5
                                      ) [ConstValueNumber]
                                    ) [FactorConst]
                                  ) [FactorTerm]
                                ) [TermImpl]
                              ) [ExprSum]
                            ) [ExprImpl]
                          ) [RelopCondFact]
                        ) [SimpleCondTerm]
                      ) [SimpleCondition]
                      ConditionEnd(
                      ) [ConditionEnd]
                    ) [DoWhileStatement]
                  ) [StatementDerived3]
                ) [StatementListImpl]
                StatementDerived1(
                  DesignatorStatement(
                    SingleDesignator(
                      DesignatorFirst(
                       a
                      ) [DesignatorFirst]
                      NoDesignatorValArray(
                      ) [NoDesignatorValArray]
                    ) [SingleDesignator]
                    Increment(
                    ) [Increment]
                  ) [DesignatorStatement]
                ) [StatementDerived1]
              ) [StatementListImpl]
            ) [StatementDerived11]
            WhileValue(
            ) [WhileValue]
            ConditionStart(
            ) [ConditionStart]
            SimpleCondition(
              SimpleCondTerm(
                RelopCondFact(
                  ExprImpl(
                    ExprSum(
                      TermImpl(
                        NoMinusBegin(
                        ) [NoMinusBegin]
                        FactorTerm(
                          FactorDesignator(
                            SingleDesignator(
                              DesignatorFirst(
                               a
                              ) [DesignatorFirst]
                              NoDesignatorValArray(
                              ) [NoDesignatorValArray]
                            ) [SingleDesignator]
                            NoActParsInBrackets(
                            ) [NoActParsInBrackets]
                          ) [FactorDesignator]
                        ) [FactorTerm]
                      ) [TermImpl]
                    ) [ExprSum]
                  ) [ExprImpl]
                  RelopLt(
                  ) [RelopLt]
                  ExprImpl(
                    ExprSum(
                      TermImpl(
                        NoMinusBegin(
                        ) [NoMinusBegin]
                        FactorTerm(
                          FactorConst(
                            ConstValueNumber(
                             5
                            ) [ConstValueNumber]
                          ) [FactorConst]
                        ) [FactorTerm]
                      ) [TermImpl]
                    ) [ExprSum]
                  ) [ExprImpl]
                ) [RelopCondFact]
              ) [SimpleCondTerm]
            ) [SimpleCondition]
            ConditionEnd(
            ) [ConditionEnd]
          ) [DoWhileStatement]
        ) [StatementDerived3]
      ) [StatementListImpl]
    ) [MethodDecl]
  ) [MethodDeclarations]
) [Program]
INFO  16:40:42,169 - ===================================
INFO  16:40:42,184 - Obradjuje se funkcija m na liniji 8
INFO  16:40:42,200 - Obradjuje se funkcija m na liniji 17
INFO  16:40:42,200 - Obradjuje se funkcija m na liniji 26
INFO  16:40:42,200 - Obradjuje se funkcija main na liniji 33
ERROR 16:40:42,200 - Semanticka greska  na liniji 45: nekompatibilni tipovi u dodeli vrednosti. 
INFO  16:40:42,215 -  Print count calls = 0
INFO  16:40:42,215 -  Deklarisanih promenljivih ima = 0
INFO  16:40:42,215 - ===================================
ERROR 16:40:42,215 - Parsiranje NIJE uspesno zavrseno!
