INFO  17:21:44,353 - Compiling source file: C:\Users\popov\Desktop\Programski prevodioci\pp1_projekat\test\program.mj
INFO  17:21:44,462 - #2 program
INFO  17:21:44,462 - #8 test_303
INFO  17:21:44,462 - #16 {
INFO  17:21:44,462 - #5 void
INFO  17:21:44,462 - #8 main
INFO  17:21:44,462 - #18 (
INFO  17:21:44,462 - #19 )
INFO  17:21:44,462 - #8 int
INFO  17:21:44,462 - #8 a
INFO  17:21:44,462 - #12 ;
INFO  17:21:44,462 - #16 {
INFO  17:21:44,462 - #8 a
INFO  17:21:44,462 - #34 =
INFO  17:21:44,478 - #7 new
INFO  17:21:44,478 - #8 int
INFO  17:21:44,478 - #12 ;
INFO  17:21:44,478 - #17 }
INFO  17:21:44,478 - #17 }
INFO  17:21:44,478 - Program(
  ProgName(
   test_303
  ) [ProgName]
  NoDeclarations(
  ) [NoDeclarations]
  MethodDeclarations(
    NoMethodDeclarations(
    ) [NoMethodDeclarations]
    MethodDecl(
      MethodTypeName(
        MethodTypeVoid(
        ) [MethodTypeVoid]
       main
      ) [MethodTypeName]
      NoFormParams(
      ) [NoFormParams]
      MethodVars(
        NoMethodVars(
        ) [NoMethodVars]
        VarDecls(
          Type(
           int
          ) [Type]
          SingleVar(
            Var(
             a
              Scalar(
              ) [Scalar]
            ) [Var]
          ) [SingleVar]
        ) [VarDecls]
      ) [MethodVars]
      StatementListImpl(
        NoStatements(
        ) [NoStatements]
        StatementDerived1(
          DesignatorStatement(
            SingleDesignator(
              DesignatorFirst(
               a
              ) [DesignatorFirst]
              NoDesignatorValArray(
              ) [NoDesignatorValArray]
            ) [SingleDesignator]
            AssignOperation(
              Assignop(
              ) [Assignop]
              ExprImpl(
                ExprSum(
                  TermImpl(
                    NoMinusBegin(
                    ) [NoMinusBegin]
                    FactorTerm(
                      FactorNew(
                        Type(
                         int
                        ) [Type]
                        NoExprInSquares(
                        ) [NoExprInSquares]
                      ) [FactorNew]
                    ) [FactorTerm]
                  ) [TermImpl]
                ) [ExprSum]
              ) [ExprImpl]
            ) [AssignOperation]
          ) [DesignatorStatement]
        ) [StatementDerived1]
      ) [StatementListImpl]
    ) [MethodDecl]
  ) [MethodDeclarations]
) [Program]
INFO  17:21:44,493 - ===================================
INFO  17:21:44,493 - Obradjuje se funkcija main na liniji 8
ERROR 17:21:44,493 - Semanticka greska  na liniji 10: operand new operatora mora oznacavati klasu.
ERROR 17:21:44,493 - Semanticka greska  na liniji 10: nekompatibilni tipovi u dodeli vrednosti! 
INFO  17:21:44,493 -  Print count calls = 0
INFO  17:21:44,493 -  Deklarisanih promenljivih ima = 0
INFO  17:21:44,493 - ===================================
ERROR 17:21:44,493 - Parsiranje NIJE uspesno zavrseno!
