INFO  09:45:32,763 - Compiling source file: C:\Users\popov\Desktop\Programski prevodioci\pp1_projekat\test\program.mj
INFO  09:45:32,919 - #2 program
INFO  09:45:32,919 - #8 MJ
INFO  09:45:32,919 - #16 {
INFO  09:45:32,919 - #5 void
INFO  09:45:32,919 - #8 main
INFO  09:45:32,935 - #18 (
INFO  09:45:32,935 - #19 )
INFO  09:45:32,935 - #8 int
INFO  09:45:32,935 - #8 i
INFO  09:45:32,935 - #12 ;
INFO  09:45:32,935 - #8 char
INFO  09:45:32,935 - #8 c
INFO  09:45:32,935 - #12 ;
INFO  09:45:32,935 - #16 {
INFO  09:45:32,935 - #8 i
INFO  09:45:32,935 - #34 =
INFO  09:45:32,935 - #9 5
INFO  09:45:32,950 - #12 ;
INFO  09:45:32,950 - #8 c
INFO  09:45:32,950 - #34 =
INFO  09:45:32,950 - #10 0
INFO  09:45:32,950 - #12 ;
INFO  09:45:32,956 - #33 print
INFO  09:45:32,956 - #18 (
INFO  09:45:32,956 - #8 ord
INFO  09:45:32,956 - #18 (
INFO  09:45:32,956 - #8 c
INFO  09:45:32,956 - #19 )
INFO  09:45:32,956 - #19 )
INFO  09:45:32,971 - #12 ;
INFO  09:45:32,971 - #33 print
INFO  09:45:32,971 - #18 (
INFO  09:45:32,971 - #8 chr
INFO  09:45:32,971 - #18 (
INFO  09:45:32,971 - #8 i
INFO  09:45:32,971 - #19 )
INFO  09:45:32,971 - #19 )
INFO  09:45:32,971 - #12 ;
INFO  09:45:32,971 - #17 }
INFO  09:45:32,971 - #17 }
INFO  09:45:33,018 - Program(
  ProgName(
   MJ
  ) [ProgName]
  NoDeclarations(
  ) [NoDeclarations]
  MethodDeclarations(
    NoMethodDeclarations(
    ) [NoMethodDeclarations]
    MethodDecl(
      MethodTypeName(
        MethodTypeVoid(
        ) [MethodTypeVoid]
       main
      ) [MethodTypeName]
      NoFormParams(
      ) [NoFormParams]
      MethodVars(
        MethodVars(
          NoMethodVars(
          ) [NoMethodVars]
          VarDecls(
            Type(
             int
            ) [Type]
            SingleVar(
              Var(
               i
                Scalar(
                ) [Scalar]
              ) [Var]
            ) [SingleVar]
          ) [VarDecls]
        ) [MethodVars]
        VarDecls(
          Type(
           char
          ) [Type]
          SingleVar(
            Var(
             c
              Scalar(
              ) [Scalar]
            ) [Var]
          ) [SingleVar]
        ) [VarDecls]
      ) [MethodVars]
      StatementListImpl(
        StatementListImpl(
          StatementListImpl(
            StatementListImpl(
              NoStatements(
              ) [NoStatements]
              StatementDerived1(
                DesignatorStatement(
                  SingleDesignator(
                    DesignatorFirst(
                     i
                    ) [DesignatorFirst]
                    NoDesignatorValArray(
                    ) [NoDesignatorValArray]
                  ) [SingleDesignator]
                  AssignOperation(
                    Assignop(
                    ) [Assignop]
                    ExprImpl(
                      ExprSum(
                        TermImpl(
                          NoMinusBegin(
                          ) [NoMinusBegin]
                          FactorTerm(
                            FactorConst(
                              ConstValueNumber(
                               5
                              ) [ConstValueNumber]
                            ) [FactorConst]
                          ) [FactorTerm]
                        ) [TermImpl]
                      ) [ExprSum]
                    ) [ExprImpl]
                  ) [AssignOperation]
                ) [DesignatorStatement]
              ) [StatementDerived1]
            ) [StatementListImpl]
            StatementDerived1(
              DesignatorStatement(
                SingleDesignator(
                  DesignatorFirst(
                   c
                  ) [DesignatorFirst]
                  NoDesignatorValArray(
                  ) [NoDesignatorValArray]
                ) [SingleDesignator]
                AssignOperation(
                  Assignop(
                  ) [Assignop]
                  ExprImpl(
                    ExprSum(
                      TermImpl(
                        NoMinusBegin(
                        ) [NoMinusBegin]
                        FactorTerm(
                          FactorConst(
                            ConstValueChar(
                             0
                            ) [ConstValueChar]
                          ) [FactorConst]
                        ) [FactorTerm]
                      ) [TermImpl]
                    ) [ExprSum]
                  ) [ExprImpl]
                ) [AssignOperation]
              ) [DesignatorStatement]
            ) [StatementDerived1]
          ) [StatementListImpl]
          StatementDerived10(
            PrintStatement(
              PrintStart(
              ) [PrintStart]
              ExprImpl(
                ExprSum(
                  TermImpl(
                    NoMinusBegin(
                    ) [NoMinusBegin]
                    FactorTerm(
                      FactorDesignator(
                        SingleDesignator(
                          DesignatorFirst(
                           ord
                          ) [DesignatorFirst]
                          NoDesignatorValArray(
                          ) [NoDesignatorValArray]
                        ) [SingleDesignator]
                        ActParsInBrackets(
                          ActParsStart(
                          ) [ActParsStart]
                          ActParsList(
                            SingleActParam(
                              ActParam(
                                ExprImpl(
                                  ExprSum(
                                    TermImpl(
                                      NoMinusBegin(
                                      ) [NoMinusBegin]
                                      FactorTerm(
                                        FactorDesignator(
                                          SingleDesignator(
                                            DesignatorFirst(
                                             c
                                            ) [DesignatorFirst]
                                            NoDesignatorValArray(
                                            ) [NoDesignatorValArray]
                                          ) [SingleDesignator]
                                          NoActParsInBrackets(
                                          ) [NoActParsInBrackets]
                                        ) [FactorDesignator]
                                      ) [FactorTerm]
                                    ) [TermImpl]
                                  ) [ExprSum]
                                ) [ExprImpl]
                              ) [ActParam]
                            ) [SingleActParam]
                          ) [ActParsList]
                          ActParsEnd(
                          ) [ActParsEnd]
                        ) [ActParsInBrackets]
                      ) [FactorDesignator]
                    ) [FactorTerm]
                  ) [TermImpl]
                ) [ExprSum]
              ) [ExprImpl]
              NoNumConst(
              ) [NoNumConst]
              PrintEnd(
              ) [PrintEnd]
            ) [PrintStatement]
          ) [StatementDerived10]
        ) [StatementListImpl]
        StatementDerived10(
          PrintStatement(
            PrintStart(
            ) [PrintStart]
            ExprImpl(
              ExprSum(
                TermImpl(
                  NoMinusBegin(
                  ) [NoMinusBegin]
                  FactorTerm(
                    FactorDesignator(
                      SingleDesignator(
                        DesignatorFirst(
                         chr
                        ) [DesignatorFirst]
                        NoDesignatorValArray(
                        ) [NoDesignatorValArray]
                      ) [SingleDesignator]
                      ActParsInBrackets(
                        ActParsStart(
                        ) [ActParsStart]
                        ActParsList(
                          SingleActParam(
                            ActParam(
                              ExprImpl(
                                ExprSum(
                                  TermImpl(
                                    NoMinusBegin(
                                    ) [NoMinusBegin]
                                    FactorTerm(
                                      FactorDesignator(
                                        SingleDesignator(
                                          DesignatorFirst(
                                           i
                                          ) [DesignatorFirst]
                                          NoDesignatorValArray(
                                          ) [NoDesignatorValArray]
                                        ) [SingleDesignator]
                                        NoActParsInBrackets(
                                        ) [NoActParsInBrackets]
                                      ) [FactorDesignator]
                                    ) [FactorTerm]
                                  ) [TermImpl]
                                ) [ExprSum]
                              ) [ExprImpl]
                            ) [ActParam]
                          ) [SingleActParam]
                        ) [ActParsList]
                        ActParsEnd(
                        ) [ActParsEnd]
                      ) [ActParsInBrackets]
                    ) [FactorDesignator]
                  ) [FactorTerm]
                ) [TermImpl]
              ) [ExprSum]
            ) [ExprImpl]
            NoNumConst(
            ) [NoNumConst]
            PrintEnd(
            ) [PrintEnd]
          ) [PrintStatement]
        ) [StatementDerived10]
      ) [StatementListImpl]
    ) [MethodDecl]
  ) [MethodDeclarations]
) [Program]
INFO  09:45:33,018 - ===================================
INFO  09:45:33,018 - Obradjuje se funkcija main na liniji 4
ERROR 09:45:33,018 - Greska pri pozivu funkcije , ocekivani broj argumenata: 0, stvarni broj argumenata: 1
ERROR 09:45:33,034 - Greska pri pozivu funkcije , ocekivani broj argumenata: 0, stvarni broj argumenata: 1
INFO  09:45:33,034 -  Print count calls = 0
INFO  09:45:33,034 -  Deklarisanih promenljivih ima = 0
INFO  09:45:33,034 - ===================================
ERROR 09:45:33,034 - Parsiranje NIJE uspesno zavrseno!
